<?xml version="1.0" encoding="utf-8"?>
<!-- Generator: Adobe Illustrator 16.0.0, SVG Export Plug-In . SVG Version: 6.00 Build 0)  -->
<!DOCTYPE svg PUBLIC "-//W3C//DTD SVG 1.1 Basic//EN" "http://www.w3.org/Graphics/SVG/1.1/DTD/svg11-basic.dtd">
<svg version="1.1" baseProfile="basic" id="Слой_1"
	 xmlns="http://www.w3.org/2000/svg" xmlns:xlink="http://www.w3.org/1999/xlink" x="0px" y="0px" width="125px" height="125px"
	 viewBox="0 0 125 125" xml:space="preserve">
<g>
	<g>
		<g>
			<g>
				<g>
					<g>
						<g>
							<g>
								<g>
									<g>
										<g>
											<g>
												<g>
													<g>
														<g>
															<g>
																<g>
																	<g>
																		<g>
																			<g>
																				<g>
																					<circle fill="#FFFFFF" cx="62.445" cy="62.5" r="62.5"/>
																				</g>
																			</g>
																		</g>
																	</g>
																</g>
															</g>
														</g>
													</g>
												</g>
											</g>
										</g>
									</g>
								</g>
							</g>
						</g>
					</g>
				</g>
			</g>
		</g>
	</g>
	<g>
		<path opacity="0.2" fill="#020202" d="M82.582,56.619l-0.049-5.875L80.148,34.81l-0.551,0.465
			c-3.182-6.134-11.426-4.847-11.426-4.847c3.799-0.584,8.326,7.464,8.326,7.464l0.584,14.152l3.748,13.339l-2.143,1.558
			l-2.385-0.422l-0.713,2.984l0.275,1.04l-0.629,1.873l0.385,1.098l-2.695,8.131l-3.977,0.777l-9.395-5.778l4.869,19.474
			l2.289,0.619l6.523-14.751l3.992-0.438l3.959-13.688l2.172-6.176L82.582,56.619z"/>
		<g>
			<path fill="#020202" d="M83.938,61.594l-0.766-4.98l0.377-2.838c0.008-0.053,0.008-0.106,0-0.159l-2.045-14.423
				c-1.373-8.406-7.234-9.378-11.527-9.378c-2.516,0-5.244,0.373-7.882,0.733c-0.436,0.06-0.869,0.119-1.301,0.177
				c-7.958,1.062-11.861,3.373-13.047,7.729c-0.727,2.669-0.103,9.723,0.168,12.362c-0.419-0.131-0.951-0.241-1.557-0.241
				c-1.068,0-2.094,0.332-3.051,0.988c-3.842,2.629-0.43,8.093,1.027,10.426c0.136,0.219,0.258,0.413,0.358,0.58
				c0.204,0.341,0.374,0.714,0.53,1.093c-0.047,0.059-0.083,0.13-0.105,0.208l-4.172,15.496l0.212,0.236
				c0.504,0.56,12.485,13.735,25.072,16.955l0.473,0.12l6.502-14.116l4.088-0.432c0.217-0.022,0.404-0.167,0.482-0.373l2.24-5.842
				c0.006-0.017,0.012-0.034,0.016-0.053l3.893-14.021C83.945,61.759,83.951,61.675,83.938,61.594z M82.381,53.701l-0.104,0.781
				c-0.107-0.13-0.268-0.216-0.449-0.217l-3.107-0.014h-0.002c-0.037,0-0.072,0.003-0.109,0.011l-0.242-0.958l3.857-0.714
				L82.381,53.701z M66.049,95.299C54.862,92.2,43.895,80.82,42.239,79.051l3.68-13.671c0.421,0.908,0.971,1.641,1.985,1.641
				c0.211,0,0.437-0.034,0.668-0.104c0.84-0.252,1.5-0.606,1.993-0.945c-0.047,1.385-0.018,3.326,0.445,4.172
				c2.634,4.809,17.054,12.472,17.667,12.796c0.084,0.045,0.178,0.068,0.271,0.068c0.021,0,0.041-0.002,0.063-0.004l2.84-0.3
				L66.049,95.299z M77.422,78.333l-8.764,0.195c-0.973-2.531,0.779-7.205,0.779-7.205l1.363-1.363l3.701-0.779l1.363,1.362
				l1.752-1.362l0.973,0.779l0.391,4.673L77.422,78.333z M79.617,72.976l-0.441-3.989l-1.947-0.779l-1.639,1.296l-0.699-1.102
				l-4.479,0.585l-2.143,1.362c0,0-3.748,5.112-2,9.917c-4.428-2.533-12.46-7.445-14.234-10.684
				c-0.399-0.729-0.35-3.411-0.225-4.931c0.021-0.258-0.131-0.498-0.373-0.591c-0.068-0.027-0.139-0.04-0.209-0.04
				c-0.178,0-0.353,0.082-0.465,0.229c-0.008,0.011-0.808,1.031-2.526,1.547c-0.124,0.036-0.235,0.056-0.333,0.056
				c-0.549,0-0.857-0.727-1.313-1.912c-0.242-0.627-0.515-1.337-0.898-1.975c-0.103-0.171-0.228-0.372-0.369-0.597
				c-1.388-2.222-4.275-6.846-1.358-8.844c0.759-0.519,1.563-0.783,2.391-0.783c1.126,0,1.921,0.496,1.926,0.499
				c0.19,0.123,0.434,0.126,0.626,0.006c0.192-0.119,0.298-0.339,0.272-0.563c-0.012-0.099-1.133-9.897-0.309-12.924
				c0.736-2.703,2.746-5.633,12.073-6.877c0.434-0.058,0.87-0.117,1.305-0.177c2.6-0.355,5.287-0.723,7.725-0.723
				c6.311,0,9.412,2.512,10.373,8.386c0,0,1.264,10.834,1.262,10.825c0,0-4.188,1.563-4.236,1.575
				c-0.313,0.079-0.502,0.397-0.422,0.71l3.213,12.665l-1.459,1.062c-0.617-0.451-1.881-1.173-3.066-0.596
				c-1.625,0.399-3.309,0.574-3.756,0.397c0.004-0.242,0.18-0.793,0.422-1.338l1.32,0.22c0.318,0.053,0.619-0.163,0.672-0.48
				s-0.162-0.619-0.48-0.672l-1.752-0.293c-0.25-0.041-0.5,0.084-0.617,0.311c-0.51,0.997-1.014,2.319-0.529,2.957
				c0.715,0.937,3.48,0.412,5.066,0.017c0.047-0.012,0.092-0.028,0.133-0.051c0.883-0.468,2.158,0.68,2.17,0.691
				c0.111,0.104,0.256,0.157,0.398,0.157c0.121,0,0.242-0.036,0.344-0.111l2.143-1.558c0.193-0.142,0.281-0.385,0.225-0.616
				l-2.492-9.821l0.629,0.003c-0.006,0.125,0,0.272,0.02,0.446c0.066,0.591,0.564,1.078,1.262,1.078
				c0.695,0,1.158-0.492,1.262-1.078c0.037-0.21,0.051-0.379,0.047-0.521c0.014-0.008,0.027-0.015,0.039-0.024l-0.162,1.219
				c-0.008,0.055-0.006,0.111,0.002,0.166l0.76,4.939L79.617,72.976z"/>
			<polygon fill="#020202" points="73.627,53.698 74.402,52.433 65.836,50.777 60.965,53.504 65.836,52.919 			"/>
			<path fill="#020202" d="M72.068,55.047c-0.01-0.322-0.273-0.589-0.6-0.569l-1.85,0.048l-5.293,0.441
				c-0.32,0.027-0.56,0.31-0.533,0.631c0.024,0.305,0.281,0.535,0.582,0.535c0.016,0,0.031,0,0.049-0.002l2.299-0.192
				c-0.01,0.144-0.004,0.313,0.02,0.517c0.074,0.664,0.633,1.208,1.414,1.208s1.301-0.551,1.416-1.208
				c0.057-0.33,0.066-0.574,0.039-0.758l0.055-0.004l1.832-0.047C71.822,55.639,72.076,55.37,72.068,55.047z"/>
			<polygon fill="#020202" points="76.682,70.366 75.953,70.79 75.965,70.761 74.92,70.235 69.75,72.633 70.592,73.091 
				74.49,71.943 75.236,72.416 76.66,72.209 78.125,72.965 78.572,72.707 78.459,71.271 			"/>
			<polygon fill="#020202" points="72.754,73.684 71.805,75.197 77.188,74.592 76.996,73.527 			"/>
		</g>
	</g>
</g>
</svg>
