<?xml version="1.0" encoding="utf-8"?>
<!-- Generator: Adobe Illustrator 16.0.0, SVG Export Plug-In . SVG Version: 6.00 Build 0)  -->
<!DOCTYPE svg PUBLIC "-//W3C//DTD SVG 1.1 Basic//EN" "http://www.w3.org/Graphics/SVG/1.1/DTD/svg11-basic.dtd">
<svg version="1.1" baseProfile="basic" id="Слой_1"
	 xmlns="http://www.w3.org/2000/svg" xmlns:xlink="http://www.w3.org/1999/xlink" x="0px" y="0px" width="70px" height="70px"
	 viewBox="0 0 70 70" xml:space="preserve">
<g>
	<g>
		<g>
			<g>
				<g>
					<g>
						<g>
							<g>
								<g>
									<g>
										<g>
											<g>
												<g>
													<g>
														<g>
															<g>
																<g>
																	<circle fill="#FFFFFF" cx="35" cy="35" r="35"/>
																</g>
															</g>
														</g>
													</g>
												</g>
											</g>
										</g>
									</g>
								</g>
							</g>
						</g>
					</g>
				</g>
			</g>
		</g>
	</g>
	<g>
		<g>
			<path opacity="0.2" fill="#020202" d="M45.108,29.494l0.228-2.821l-0.681-1.557c0,0,0.777-8.173-3.438-7.298
				c-2.286,0.476,0.063,10.067,0.063,10.067s0.584,3.943,1.623,5.63c0,0,0.713-0.1,0.26,1.037c-0.52,1.297-1.039,0.648-1.039,0.648
				l1.07,2.169l-1.168,3.506l0.486,5.156l2.043,0.098l2.334-11.771L45.108,29.494z"/>
			<path opacity="0.2" fill="#020202" d="M30.256,40.195c0,0,0.907,13.914,10.41,11.285l0.778-5.254l-7.199-2.237L30.256,40.195z"/>
		</g>
		<g>
			<path d="M46.983,33.424c-0.147-0.971-1.391-3.164-1.729-3.748l0.369-2.459c0.008-0.054,0.005-0.107-0.012-0.16l-0.375-1.382
				l-0.098-4.653c-0.002-0.157-0.102-0.297-0.246-0.354c-0.338-0.825-1.188-2.903-1.797-4.503
				c-0.697-1.833-11.26-2.881-14.832,2.189c-1.072,0.789-2.177,1.681-2.582,2.285c-0.632,0.94-0.809,3.355-0.857,4.475
				c-0.498-0.174-1.016-0.233-1.506-0.078c-1.092,0.345-1.77,1.634-2.012,3.831c-0.263,2.352,2.01,5.569,3.994,6.553l0.608,12.513
				c0.005,0.104,0.051,0.2,0.127,0.27c0.065,0.061,6.622,5.908,15.5,5.908c0.146,0,0.289-0.002,0.435-0.006
				c0.198-0.004,0.364-0.158,0.379-0.36l0.541-7.15c0.039-0.002,0.077-0.005,0.121-0.007c0.396-0.021,0.887-0.047,1.557-0.066
				c0.174-0.006,0.32-0.125,0.365-0.293C45.038,45.834,47.462,36.506,46.983,33.424z M44.519,29.335c0-0.038-0.008-0.075-0.021-0.11
				c0.012,0.008,0.024,0.012,0.034,0.021L44.519,29.335z M44.595,28.829c-0.027-0.015-0.056-0.028-0.085-0.041
				c-0.866-0.358-2.138,0.229-2.463,0.394l-0.03-1.396l1.637-0.094l1.119-0.032L44.595,28.829z M41.603,53.331
				c-0.021,0-0.043,0-0.063,0c-7.925,0-13.946-4.83-14.856-5.604l-0.586-12.037c0.028,0.004,0.057,0.011,0.084,0.015
				c0.338,0.043,1.01,0.024,1.455-0.653c0.203,0.576,0.463,1.307,0.699,1.969c1.421,3.979,6.832,8.576,9.834,9.105
				c2.249,0.396,3.007,0.503,3.793,0.503c0.051,0,0.1-0.003,0.148-0.003L41.603,53.331z M44.253,45.751
				c-0.531,0.021-0.941,0.041-1.281,0.06c-1.426,0.076-1.609,0.086-4.67-0.453c-2.479-0.436-7.82-4.637-9.236-8.602
				c-0.485-1.359-1.068-3.014-1.068-3.014c-0.059-0.169-0.229-0.276-0.405-0.258c-0.179,0.018-0.321,0.154-0.347,0.332
				c-0.172,1.216-0.75,1.144-0.969,1.115c-1.691-0.214-4.44-3.764-4.194-5.979c0.204-1.837,0.713-2.935,1.474-3.175
				c1.158-0.367,2.866,1.195,3.426,1.83c0.045,0.052,0.104,0.086,0.168,0.106c0.283,0.726,0.285,1.487,0.285,1.487l2.465-8.534
				c3.457,0.39,9.683,0.948,14.031,0.504c0.119,0.027,0.258,0.067,0.438,0.13l0.091,4.438c0.001,0.031,0.007,0.063,0.015,0.094
				l0.219,0.802l-1.144-0.063l-1.942-0.063l0,0c-0.004,0-0.006,0-0.01,0c-0.214,0.006-0.385,0.184-0.38,0.396l0.063,2.981
				c0.002,0.044,0.011,0.087,0.025,0.128l1.633,4.354c-0.498,0.245-1.33,0.534-1.731,0.176c-0.028-0.071-0.078-0.149-0.158-0.226
				c-0.341-0.318-1.087-0.402-2.28-0.252l-0.179,0.021c-0.342,0.043-0.692,0.087-0.84,0.075c-0.005-0.046-0.01-0.129-0.003-0.283
				c0.005-0.132,0.051-0.3,0.163-0.374c0.14-0.09,0.418-0.064,0.765,0.071c0.198,0.08,0.426-0.021,0.504-0.22
				c0.079-0.199-0.02-0.426-0.22-0.504c-0.608-0.24-1.104-0.24-1.476,0c-0.44,0.287-0.508,0.791-0.517,0.994
				c-0.013,0.332-0.006,0.676,0.239,0.899c0.285,0.263,0.686,0.212,1.479,0.11l0.178-0.021c1.158-0.146,1.535-0.013,1.628,0.033
				c0.016,0.046,0.04,0.088,0.071,0.126c0.313,0.364,0.729,0.491,1.153,0.491c0.907,0,1.853-0.576,1.91-0.611
				c0.157-0.1,0.226-0.294,0.158-0.468l-1.728-4.608l-0.006-0.221c0.034,0.001,0.067-0.003,0.1-0.021
				c0.007-0.002,0.267-0.142,0.621-0.271c-0.078,0.093-0.127,0.195-0.127,0.302c0,0.403,0.393,0.562,0.875,0.562
				c0.485,0,0.6-0.176,0.862-0.481c0.054-0.062,0.088-0.123,0.108-0.183l-0.029,0.203c-0.014,0.09,0.003,0.179,0.049,0.256
				c0.432,0.736,1.582,2.817,1.701,3.592C46.624,36.182,44.659,44.152,44.253,45.751z"/>
			<path d="M37.54,29.471c0.093,0.053,0.211,0.022,0.266-0.07c0.055-0.094,0.023-0.211-0.068-0.268
				c-2.422-1.422-4.771,0.781-4.793,0.803c-0.078,0.074-0.082,0.197-0.006,0.275c0.037,0.04,0.088,0.061,0.141,0.061
				c0.048,0,0.097-0.019,0.134-0.055c0.045-0.044,0.634-0.594,1.496-0.927c-0.103,0.162-0.165,0.334-0.165,0.479
				c0,0.396,0.712,0.502,1.162,0.502c0.449,0,0.795-0.166,0.813-0.561c0.014-0.303-0.047-0.508-0.147-0.648
				C36.748,29.111,37.144,29.236,37.54,29.471z"/>
			<polygon points="35.022,27.354 38.493,27.677 39.53,26.641 37.065,26.51 33.175,26.38 33.272,27.159 			"/>
			<path d="M40.767,36.729c-2.597,0.524-3.895,1.363-3.895,1.363c2.597-0.943,7.588-0.523,7.588-0.523
				C44.161,36.098,43.362,36.202,40.767,36.729z"/>
			<path d="M43.077,38.831l-5.107,0.101c0.034,0.059,0.068,0.11,0.104,0.164c-0.313-0.221-0.558-0.43-0.702-0.584
				c0,0,1.598,3.15,4.691,2.94c0,0,1.799-1.05,2.098-3.57l-0.898,0.104C43.263,37.986,43.229,38.373,43.077,38.831z"/>
			<path d="M34.729,38.012c-0.451-1.729,1.363-4.232,1.363-4.232C33.694,35.514,34.729,38.012,34.729,38.012z"/>
		</g>
	</g>
</g>
</svg>
