<?xml version="1.0" encoding="utf-8"?>
<!-- Generator: Adobe Illustrator 16.0.0, SVG Export Plug-In . SVG Version: 6.00 Build 0)  -->
<!DOCTYPE svg PUBLIC "-//W3C//DTD SVG 1.1 Basic//EN" "http://www.w3.org/Graphics/SVG/1.1/DTD/svg11-basic.dtd">
<svg version="1.1" baseProfile="basic" id="Слой_1"
	 xmlns="http://www.w3.org/2000/svg" xmlns:xlink="http://www.w3.org/1999/xlink" x="0px" y="0px" width="125px" height="125px"
	 viewBox="0 0 125 125" xml:space="preserve">
<g>
	<g>
		<g>
			<g>
				<circle fill="#FFFFFF" cx="62.472" cy="62.5" r="62.5"/>
			</g>
		</g>
	</g>
	<g>
		<path opacity="0.2" d="M84.13,45.113c-1.113-1.561-1.673-2.118-3.455-1.561c-1.441,0.449-3.24,2.567-3.884,3.369l0.204-10.014
			c0.106-3.061-6.134-4.223-12.735-4.598v53.396l-2.703,0.657l-4.881-7.555l3.568,12.042l9.924,2.008l0.087-8.598l1.165-0.299
			c-0.224-6.913,4.905-14.271,4.905-14.271l0.175-8.519c0.563,0.27,1.236,0.256,2.166-0.336c1.226-0.78,1.338-4.349,1.338-4.349
			s4.125-4.459,4.905-5.797C85.69,49.35,85.245,46.674,84.13,45.113z"/>
		<g>
			<path fill="#020202" d="M84.675,44.724c-0.886-1.24-1.562-2.052-2.852-2.052c-0.394,0-0.822,0.076-1.35,0.24
				c-0.999,0.313-2.086,1.251-2.977,2.181l0.167-8.164c0.027-0.784-1.552-9.23-1.552-11.023l-6.028-2.118l0.184-7.142l-10.777,6.489
				l-3.585,1.304l1.792-2.444c0,0-3.097,0.978-6.519,2.933s-3.422,5.301-3.422,5.301l-1.354,13.871
				c-0.625-0.533-1.298-0.99-1.934-1.188c-0.527-0.164-0.956-0.24-1.348-0.24c-1.291,0-1.967,0.812-2.852,2.052
				c-1.169,1.636-1.791,4.626-0.814,6.301c0.725,1.243,4.032,4.869,4.825,5.734c0.055,1.007,0.322,3.804,1.638,4.64
				c0.683,0.434,1.301,0.628,1.902,0.606l-0.042,1.952l2.345,3.968v13.281c-0.564-0.602-0.891-0.98-0.891-0.98v13.047h21.576v-2.34
				c0,0-0.057,0.029-0.168,0.074V84.85l1.466-0.373l-0.018-0.538c-0.213-6.605,4.736-13.795,4.786-13.867l0.116-0.166l0.161-7.898
				c0.024,0.001,0.051,0.001,0.074,0.001c0.566,0,1.155-0.2,1.8-0.609c1.313-0.836,1.582-3.633,1.636-4.64
				c0.796-0.865,4.102-4.491,4.826-5.734C86.466,49.351,85.843,46.36,84.675,44.724z M69.303,90.241
				c-9.201,0.279-16.702-7.988-17.841-9.311V70.188L61.51,87.188l7.792-1.993V90.241z M83.664,50.686
				c-0.61,1.045-3.017,4.12-4.15,5.346l-0.169,0.184l-0.009,0.25c-0.043,1.297-0.397,3.403-1.028,3.804
				c-0.417,0.266-0.78,0.4-1.081,0.4c-0.151,0-0.29-0.032-1.105-0.103l-0.938-0.45l0.144,9.36c-0.77,1.146-5.222,7.588-5.251,13.966
				l-7.925,2.198L51.439,67.522c-0.031-0.128-0.099-0.242-0.193-0.329l-2.123-3.589l0.076-3.588l-1.004,0.528
				c-0.161,0.085-0.315,0.125-0.48,0.125c-0.3,0-0.663-0.134-1.08-0.4c-0.631-0.401-0.986-2.507-1.028-3.804l-0.008-0.25
				l-0.169-0.183c-1.134-1.226-4.21-4.635-4.819-5.681c-0.617-1.057-0.247-3.459,0.747-4.85c0.866-1.213,1.196-1.491,1.764-1.491
				c0.25,0,0.56,0.058,0.949,0.18c0.829,0.259,1.902,1.267,2.726,2.172c0.708,2.353,1.984,6.653,2.102,7.412l-0.081-5.584
				l0.627,0.314l0.046-2.122c3.924-3.794,11.828-0.131,11.828-0.131c-0.752-2.092-2.342-4.098-6.522-3.847
				c-2.821,0.169-4.5,2.197-5.295,3.499l0.023-1.086l5.034-8.9l-1.424-2.102l4.237,2.282c0,0,10.43-2.119,14.505-1.793
				c0.366,0.029,0.703,0.062,1.016,0.095c1.026,0.376,1.782,0.816,2.266,1.317c0.351,0.362,0.515,0.744,0.499,1.177l-0.112,5.484
				c-0.432-0.075-0.889-0.109-1.373-0.08c-4.183,0.25-5.52,2.433-6.019,4.598c0,0,3.664-2.263,7.351-2.463l-0.091,4.442
				c0,0,3.771-3.698,4.791-4.016c0.389-0.122,0.7-0.181,0.949-0.181c0.567,0,0.897,0.279,1.763,1.492
				C83.91,47.562,84.279,49.629,83.664,50.686z"/>
			<path fill="#020202" d="M72.975,49.508c-3.537,0-4.787,2.341-4.787,2.341c0.974-0.476,1.871-0.758,2.688-0.91
				c-0.28,0.273-0.457,0.655-0.457,1.078c0,0.831,0.674,1.505,1.506,1.505c0.831,0,1.505-0.674,1.505-1.505
				c0-0.5-0.247-0.939-0.622-1.213c2.024,0.107,3.188,0.983,3.188,0.983C76.097,49.761,72.975,49.508,72.975,49.508z"/>
			<path fill="#020202" d="M56.271,51.571c0-0.727-0.437-1.35-1.06-1.628c1.926,0.386,3.499,1.775,4.313,2.331h0.582
				c-2.112-4.841-6.19-4.437-6.19-4.437c-3.153,0.766-3.506,3.289-3.496,4.437h0.214c0.311-0.542,0.891-2.287,3.327-2.425
				c0.029-0.001,0.06,0,0.089-0.001c-0.774,0.195-1.348,0.89-1.348,1.724c0,0.985,0.798,1.784,1.785,1.784
				C55.471,53.354,56.271,52.556,56.271,51.571z"/>
			<path fill="#020202" d="M59.539,58.997c-2.803,3.566-0.287,5.954-0.262,5.979c0.079,0.072,0.175,0.124,0.28,0.154l6.858,1.838
				c0.057,0.017,0.114,0.022,0.174,0.022c0.044,0,0.088-0.004,0.132-0.013c1.631-0.326,2.656-1.061,3.05-2.185
				c0.753-2.158-1.229-4.865-1.816-5.6l-1.76-15.191c-0.043-0.367-0.375-0.631-0.741-0.587c-0.367,0.042-0.63,0.374-0.588,0.741
				l1.783,15.387c0.015,0.13,0.068,0.253,0.152,0.353c0.643,0.762,2.199,3.049,1.705,4.458c-0.215,0.615-0.853,1.046-1.899,1.282
				l-6.522-1.752c-0.331-0.387-1.261-1.813,0.507-4.061c0.229-0.291,0.177-0.711-0.113-0.939
				C60.188,58.655,59.768,58.705,59.539,58.997z"/>
			<path fill="#020202" d="M71.495,68.106h-0.168c-1.784-1.449-7.137,0.779-7.137,0.779c-3.679-4.124-7.471-2.229-7.471-2.229
				l-0.491-0.07l-0.066-1.604l-0.953,1.771l-0.051,0.015l0.035,0.016l-0.593,1.1l1.562,0.11c0,0,1.136,9.255,8.001,8.865
				c2.437-0.139,4.822-1.283,7.163-6.634l1.562,0.557l-1.115-3.678L71.495,68.106z M64.303,74.016c0,0-5.659-3.513-8.029-6.354
				l-0.018-0.442l8.381,3.452l6.67-1.892l-0.092,0.331C71.215,69.11,67.202,71.563,64.303,74.016z"/>
			<circle fill="#020202" cx="47.521" cy="58.461" r="1.17"/>
			<circle fill="#020202" cx="77.126" cy="58.461" r="1.17"/>
		</g>
	</g>
</g>
</svg>
