<?xml version="1.0" encoding="utf-8"?>
<!-- Generator: Adobe Illustrator 16.0.0, SVG Export Plug-In . SVG Version: 6.00 Build 0)  -->
<!DOCTYPE svg PUBLIC "-//W3C//DTD SVG 1.1 Basic//EN" "http://www.w3.org/Graphics/SVG/1.1/DTD/svg11-basic.dtd">
<svg version="1.1" baseProfile="basic" id="Слой_1"
	 xmlns="http://www.w3.org/2000/svg" xmlns:xlink="http://www.w3.org/1999/xlink" x="0px" y="0px" width="70px" height="70px"
	 viewBox="0 0 70 70" xml:space="preserve">
<g>
	<g>
		<g>
			<g>
				<circle fill="#FFFFFF" cx="35" cy="35" r="35"/>
			</g>
		</g>
	</g>
	<g>
		<path opacity="0.2" d="M47.129,25.264c-0.623-0.875-0.938-1.187-1.936-0.875c-0.807,0.252-1.814,1.438-2.174,1.887l0.113-5.607
			c0.061-1.714-3.436-2.365-7.133-2.575v29.902l-1.513,0.366l-2.734-4.229l2,6.744L39.311,52l0.049-4.814l0.65-0.168
			c-0.125-3.871,2.746-7.99,2.746-7.99l0.1-4.771c0.314,0.151,0.691,0.143,1.213-0.188c0.688-0.438,0.75-2.437,0.75-2.437
			s2.309-2.497,2.746-3.246C48.002,27.636,47.752,26.137,47.129,25.264z"/>
		<g>
			<path fill="#020202" d="M47.432,25.045c-0.494-0.693-0.873-1.148-1.596-1.148c-0.221,0-0.461,0.041-0.756,0.133
				c-0.561,0.176-1.168,0.701-1.668,1.222l0.094-4.571c0.016-0.439-0.869-5.169-0.869-6.173l-3.375-1.187l0.104-4l-6.036,3.634
				l-2.008,0.729l1.003-1.369c0,0-1.734,0.549-3.65,1.644s-1.916,2.968-1.916,2.968L26,24.693c-0.351-0.299-0.728-0.555-1.084-0.666
				c-0.295-0.092-0.535-0.133-0.754-0.133c-0.723,0-1.102,0.455-1.597,1.148c-0.655,0.916-1.003,2.591-0.456,3.527
				c0.406,0.697,2.258,2.728,2.702,3.212c0.03,0.563,0.18,2.13,0.917,2.598c0.383,0.243,0.729,0.353,1.064,0.339l-0.022,1.094
				l1.313,2.223v7.438c-0.316-0.338-0.5-0.549-0.5-0.549v7.307h12.083V50.92c0,0-0.033,0.016-0.094,0.041v-3.447l0.82-0.209
				l-0.012-0.302c-0.119-3.698,2.652-7.726,2.682-7.767l0.064-0.092l0.09-4.424c0.014,0,0.029,0,0.041,0
				c0.316,0,0.646-0.111,1.01-0.341c0.734-0.468,0.885-2.034,0.916-2.598c0.445-0.484,2.297-2.515,2.701-3.212
				C48.436,27.637,48.088,25.961,47.432,25.045z M38.826,50.535c-5.154,0.154-9.355-4.475-9.992-5.215v-6.016l5.627,9.521
				l4.363-1.116L38.826,50.535L38.826,50.535z M46.867,28.384c-0.342,0.585-1.689,2.308-2.324,2.994l-0.094,0.103l-0.006,0.141
				c-0.023,0.727-0.223,1.906-0.574,2.13c-0.234,0.149-0.439,0.224-0.607,0.224c-0.084,0-0.16-0.018-0.617-0.058l-0.525-0.252
				l0.082,5.242c-0.432,0.642-2.926,4.249-2.941,7.821l-4.437,1.229l-5.999-10.146c-0.019-0.071-0.056-0.137-0.108-0.186
				l-1.188-2.01l0.043-2.01l-0.563,0.297c-0.09,0.047-0.176,0.07-0.269,0.07c-0.167,0-0.371-0.076-0.604-0.225
				c-0.354-0.225-0.551-1.404-0.576-2.13l-0.004-0.14l-0.094-0.104c-0.636-0.688-2.357-2.596-2.699-3.182
				c-0.346-0.592-0.139-1.937,0.418-2.715c0.484-0.68,0.67-0.836,0.988-0.836c0.139,0,0.313,0.033,0.53,0.102
				c0.464,0.145,1.065,0.709,1.526,1.216c0.396,1.317,1.111,3.726,1.178,4.149l-0.045-3.127l0.352,0.177l0.025-1.188
				c2.197-2.125,6.624-0.072,6.624-0.072c-0.421-1.172-1.312-2.295-3.652-2.154c-1.579,0.095-2.52,1.23-2.965,1.959l0.013-0.607
				l2.819-4.984l-0.798-1.178l2.373,1.278c0,0,5.841-1.187,8.123-1.004c0.205,0.017,0.395,0.035,0.568,0.054
				c0.574,0.209,0.998,0.457,1.27,0.736c0.195,0.203,0.289,0.417,0.279,0.659l-0.063,3.071c-0.244-0.043-0.498-0.062-0.771-0.045
				c-2.342,0.141-3.09,1.362-3.369,2.576c0,0,2.053-1.269,4.115-1.38l-0.051,2.488c0,0,2.111-2.071,2.682-2.249
				c0.219-0.068,0.393-0.102,0.533-0.102c0.316,0,0.502,0.155,0.986,0.834C47.006,26.635,47.213,27.792,46.867,28.384z"/>
			<path fill="#020202" d="M40.881,27.725c-1.979,0-2.68,1.312-2.68,1.312c0.545-0.267,1.047-0.425,1.506-0.511
				c-0.158,0.154-0.256,0.367-0.256,0.604c0,0.466,0.377,0.843,0.842,0.843c0.467,0,0.844-0.377,0.844-0.843
				c0-0.28-0.139-0.524-0.348-0.679c1.133,0.06,1.785,0.551,1.785,0.551C42.631,27.866,40.881,27.725,40.881,27.725z"/>
			<path fill="#020202" d="M31.528,28.88c0-0.407-0.245-0.756-0.594-0.912c1.078,0.216,1.959,0.994,2.416,1.306h0.326
				c-1.184-2.711-3.467-2.485-3.467-2.485c-1.766,0.429-1.963,1.842-1.957,2.485h0.119c0.174-0.305,0.499-1.281,1.863-1.358
				c0.018,0,0.034,0,0.05,0c-0.434,0.108-0.755,0.498-0.755,0.965c0,0.552,0.447,0.999,1,0.999
				C31.08,29.878,31.528,29.432,31.528,28.88z"/>
			<path fill="#020202" d="M33.358,33.039c-1.57,1.997-0.161,3.334-0.146,3.348c0.045,0.04,0.099,0.069,0.157,0.086l3.84,1.029
				c0.033,0.01,0.064,0.014,0.098,0.014c0.023,0,0.051-0.002,0.074-0.009c0.912-0.183,1.486-0.594,1.707-1.224
				c0.422-1.208-0.688-2.725-1.016-3.137l-0.986-8.506c-0.023-0.207-0.209-0.354-0.414-0.33c-0.207,0.023-0.354,0.209-0.33,0.416
				l0.998,8.616c0.008,0.072,0.039,0.142,0.086,0.197c0.359,0.427,1.23,1.708,0.955,2.497c-0.121,0.344-0.479,0.585-1.063,0.718
				l-3.654-0.981c-0.185-0.217-0.705-1.015,0.284-2.273c0.128-0.163,0.099-0.398-0.063-0.525
				C33.721,32.848,33.486,32.875,33.358,33.039z"/>
			<path fill="#020202" d="M40.053,38.139h-0.096c-0.998-0.811-3.996,0.438-3.996,0.438c-2.06-2.311-4.183-1.248-4.183-1.248
				l-0.275-0.039l-0.037-0.896l-0.533,0.99l-0.028,0.008l0.021,0.01l-0.332,0.615l0.875,0.063c0,0,0.636,5.183,4.48,4.964
				c1.363-0.077,2.699-0.719,4.012-3.715l0.875,0.313l-0.625-2.061L40.053,38.139z M36.025,41.448c0,0-3.168-1.968-4.497-3.558
				l-0.01-0.248l4.692,1.934l3.736-1.061l-0.053,0.187C39.896,38.701,37.648,40.075,36.025,41.448z"/>
			<circle fill="#020202" cx="26.627" cy="32.738" r="0.655"/>
			<circle fill="#020202" cx="43.207" cy="32.738" r="0.655"/>
		</g>
	</g>
</g>
</svg>
