<?xml version="1.0" encoding="utf-8"?>
<!-- Generator: Adobe Illustrator 16.0.0, SVG Export Plug-In . SVG Version: 6.00 Build 0)  -->
<!DOCTYPE svg PUBLIC "-//W3C//DTD SVG 1.1 Basic//EN" "http://www.w3.org/Graphics/SVG/1.1/DTD/svg11-basic.dtd">
<svg version="1.1" baseProfile="basic" id="Слой_1"
	 xmlns="http://www.w3.org/2000/svg" xmlns:xlink="http://www.w3.org/1999/xlink" x="0px" y="0px" width="70px" height="70px"
	 viewBox="0 0 70 70" xml:space="preserve">
<g>
	<g>
		<g>
			<g>
				<g>
					<g>
						<g>
							<g>
								<g>
									<g>
										<g>
											<g>
												<g>
													<g>
														<g>
															<g>
																<g>
																	<g>
																		<g>
																			<g>
																				<circle fill="#FFFFFF" cx="35" cy="35" r="35"/>
																			</g>
																		</g>
																	</g>
																</g>
															</g>
														</g>
													</g>
												</g>
											</g>
										</g>
									</g>
								</g>
							</g>
						</g>
					</g>
				</g>
			</g>
		</g>
	</g>
	<g>
		<g>
			<polygon opacity="0.2" fill="#020202" points="44.679,19.357 39.458,18.273 39.919,30.414 43.41,36.85 40.052,36.586 
				40.5,39.247 42.142,39.182 40.303,40.43 42.233,49.85 44.992,48.025 43.219,39.063 45.231,36.984 45.583,30.496 46.567,29.609 
							"/>
			<path opacity="0.2" fill="#020202" d="M38.869,50.57l-1.453,0.181l-7.214-8.716L29.349,40c0,0,1.838,12.475,8.995,12.277
				c0,0,3.48,0.265,3.414-2.034l-0.13-0.591L38.869,50.57z"/>
		</g>
		<g>
			<path fill="#020202" d="M34.196,38.131c0.406,0.678,0.84,0.997,1.539,1.165l0.711,1.524l0.254,0.55c0,0,3.869-0.42,4.252-0.443
				l0.806,0.019l0.632-2.354C37.46,39.82,34.196,38.131,34.196,38.131z M41.778,39.134l-0.004,0.319l-1.25,0.708l-3.965,0.317
				l-0.033-0.054l-0.104-1.018c0.64,0.069,1.455,0.091,2.543,0.141C40.444,39.615,41.295,39.386,41.778,39.134z"/>
			<path fill="#020202" d="M46.841,29.537l-0.045-0.049l-0.579-3.743c-0.423-5.146-1.698-8.238-2.733-9.959
				c0.686-0.951,0.969-2.216,0.113-3.815c0,0-0.289,1.231-4.018,1.93l-3.471-0.059c-7.582-0.688-12.705,4.235-11.532,11.604
				c-1.005,0.266-2,0.966-2.521,1.836c-0.535,0.898-0.555,1.91-0.05,2.847l0.058,0.104c1.166,2.166,2.736,5.084,4.819,5.432v15.459
				c0,0.163,0.101,0.309,0.251,0.367c0.352,0.137,8.225,3.162,14.338,3.162c0.364,0,0.725-0.012,1.075-0.033
				c0.113-0.008,0.22-0.064,0.288-0.154s0.096-0.206,0.072-0.318l-0.84-4.082c1.277-0.498,2.494-1.184,3.08-2.104
				c0.053-0.083,0.072-0.184,0.056-0.279l-1.58-8.893l1.86-1.675c0.08-0.072,0.127-0.175,0.131-0.28l0.195-6.262l0.827-0.496
				c0.13-0.079,0.203-0.225,0.189-0.375l-0.027-0.178L46.841,29.537z M27.671,50.852V35.668c0.162-0.023,0.324-0.063,0.484-0.119
				l1.505,6.021c0.015,0.059,0.042,0.111,0.079,0.156l7.689,9.31c0.074,0.092,0.188,0.144,0.303,0.144c0.02,0,0.037,0,0.059-0.004
				c0.109-0.016,1.376-0.203,2.852-0.631l0.713,3.146C35.905,53.884,29.128,51.391,27.671,50.852z M45.222,30.008
				c-0.115,0.069-0.188,0.191-0.191,0.325l-0.393,6.156l-1.773,1.51c-0.102,0.091-0.077,0.58-0.055,0.713l1.435,8.938
				c-1.271,1.729-5.343,2.541-6.349,2.711l-7.49-9.066l-1.598-6.391c-0.029-0.117-0.111-0.215-0.224-0.264
				c-0.11-0.05-0.239-0.043-0.347,0.014c-0.32,0.173-0.629,0.257-0.941,0.257c-1.82,0-3.391-2.918-4.538-5.05l-0.057-0.106
				c-0.472-0.875-0.242-1.608,0.032-2.069c0.525-0.877,1.699-1.564,2.674-1.564c0.07,0,0.139,0.005,0.203,0.012l1.957,3.23
				c0.142,0.648,0.228,1.248,0.264,1.628c0.021,0.21,0.201,0.368,0.415,0.356c0.211-0.013,0.375-0.189,0.372-0.402l1.552-4.266
				c0,0-1.039-2.515-0.657-3.416c1.018-2.396,6.264-2.104,10.146-2.726c4.926-0.788,5.301,2.239,5.401,2.387l0.482,5.21
				l-0.016-0.017l-5.045,1.019l-0.004,0.389l-0.711,0.334l2.988,6.377l-2.406-0.198c-0.438-0.843-1.211-0.496-1.705-0.14
				l-0.658-0.056l0.145-0.929l-0.779-0.119l-0.207,1.346c-0.017,0.107,0.014,0.219,0.08,0.305c0.067,0.086,0.17,0.141,0.277,0.148
				l5.869,0.483c0.011,0,0.021,0.001,0.031,0.001c0.129,0,0.25-0.063,0.324-0.169c0.08-0.116,0.092-0.267,0.031-0.392l-2.773-5.92
				l-0.006-0.029l1.119,0.059c-0.168,0.184-0.272,0.426-0.272,0.693c0,0.57,0.463,1.033,1.034,1.033
				c0.572,0,1.033-0.463,1.033-1.033c0-0.229-0.076-0.438-0.201-0.609l1.285,0.068c-1.058-1.059-3.127-0.625-4.021-0.37l-0.06-0.39
				l4.752-0.748l0.015,0.162L45.222,30.008z"/>
			<path fill="#020202" d="M41.188,42.99c-0.504-0.094-3.629,0.646-3.629,0.646h4.234C41.794,43.636,41.692,43.082,41.188,42.99z"/>
			<polygon fill="#020202" points="38.178,28.813 33.056,28.911 32.169,29.305 38.276,29.797 			"/>
			<path fill="#020202" d="M34.237,31.768c0,0.652,0.531,1.183,1.183,1.183c0.653,0,1.183-0.53,1.183-1.183
				c0-0.393-0.193-0.74-0.488-0.957l0.39-0.127c-1.772-0.787-4.235,1.379-4.235,1.379l2.028-0.66
				C34.259,31.518,34.237,31.641,34.237,31.768z"/>
		</g>
	</g>
</g>
</svg>
