<?xml version="1.0" encoding="utf-8"?>
<!-- Generator: Adobe Illustrator 16.0.0, SVG Export Plug-In . SVG Version: 6.00 Build 0)  -->
<!DOCTYPE svg PUBLIC "-//W3C//DTD SVG 1.1 Basic//EN" "http://www.w3.org/Graphics/SVG/1.1/DTD/svg11-basic.dtd">
<svg version="1.1" baseProfile="basic" id="Слой_1"
	 xmlns="http://www.w3.org/2000/svg" xmlns:xlink="http://www.w3.org/1999/xlink" x="0px" y="0px" width="125px" height="125px"
	 viewBox="0 0 125 125" xml:space="preserve">
<g>
	<g>
		<g>
			<g>
				<g>
					<g>
						<g>
							<g>
								<g>
									<g>
										<g>
											<g>
												<g>
													<g>
														<g>
															<circle fill="#FFFFFF" cx="62.647" cy="62.5" r="62.5"/>
														</g>
													</g>
												</g>
											</g>
										</g>
									</g>
								</g>
							</g>
						</g>
					</g>
				</g>
			</g>
		</g>
	</g>
	<g>
		<g>
			<g>
				<path opacity="0.2" fill="#020202" d="M53.43,72.278c0,0,3.019,18.926,16.19,18.627l2.992-9.43L56.299,70.85L53.43,72.278z"/>
				<path opacity="0.2" fill="#020202" d="M86.17,58.832l-1.204-3.273l-0.256-7.525l-1.346-1.946l-2.819-6.019l-2.401-3.589
					l-8.823-5.989l4.19,9.279l4.314,11.856l0.148-0.039l0.9,6.026l2.843,4.191l-1.37,2.562l-2.594-0.499l0.185,3.498l2.158,1.441
					l-2.569,1.678l-1.646,2.545l-1.521,8.199c0,0,4.515,1.079,8.705-3.11c2.708-2.708,3.892-14.817,3.892-14.817L86.17,58.832z"/>
			</g>
			<g>
				<path fill="#020202" d="M67.499,51.325c3.293,0.449,7.034,1.197,7.034,1.197l1.647-2.095c0,0-7.684-1.396-12.273,0
					c-1.45,0.442-4.341,2.245-4.341,2.245C61.961,51.325,66.099,51.134,67.499,51.325z"/>
				<path fill="#020202" d="M71.662,53.783c-3.358-1.007-6.873-0.272-9.568,0.476c-0.318,0.089,0.533,0.181,0.63,0.12
					c0.026-0.016,3.032-0.325,5.769-0.168c-0.27,0.243-0.433,0.561-0.433,0.911c0,0.76,0.582,0.695,1.533,0.695
					s1.909,0.064,1.909-0.695c0-0.167-0.039-0.327-0.106-0.475c0.292,0.047,0.58-0.126,0.666-0.417
					C72.158,53.912,71.979,53.877,71.662,53.783z"/>
				<path fill="#020202" d="M50.137,54.468c0,0,0.898,4.191,0.748,2.245c-0.149-1.946,2.844-4.938,2.844-4.938l-0.449-2.994
					C51.185,50.127,50.137,54.468,50.137,54.468z"/>
				<path fill="#020202" d="M87.555,62.383c-0.133-4.659-2.167-8.264-2.769-9.229l1.094-3.445c0.05-0.155,0.033-0.326-0.045-0.469
					l-7.064-12.865c0.067-0.102,0.104-0.168,0.104-0.168c-2.266-7.454-10.477-7.483-20.057-8.381
					c-8.035-0.753-12.155,1.883-14.172,5.033c-1.055,0.352-1.841,1.682-1.841,3.273c0,0.576,0.103,1.117,0.284,1.591
					c-0.005,0.044-0.011,0.088-0.017,0.132c-0.609,0.517-1.016,1.427-1.016,2.468c0,0.792,0.235,1.507,0.616,2.034
					c-0.011,0.182-0.017,0.286-0.017,0.286c-1.796,1.198-0.299,3.892-0.299,3.892c-1.027,0.457-0.402,2.737-0.046,3.796
					c-1.637,2.289-0.304,4.811,1.307,7.174l1.79,11.691l-0.952,9.759c-0.015,0.146,0.026,0.294,0.113,0.411
					c3.335,4.549,22.888,14.971,23.719,15.412c0.086,0.047,0.184,0.07,0.281,0.07c0.08,0,0.162-0.017,0.239-0.051
					c0.168-0.073,0.292-0.219,0.339-0.396l3.24-12.371c2.026-0.021,6.933-0.208,8.774-1.477c1.009-0.695,1.896-1.77,2.663-3.066
					c0.314-0.481,0.571-0.979,0.777-1.471C86.679,71.627,87.646,65.645,87.555,62.383z M85.043,56.583
					c-0.76,0.288-2.033,0.64-3.392,0.446c-0.743-0.106-1.438,0.299-1.731,0.948c-0.2-0.262-0.365-0.472-0.466-0.6l-0.283-3.104
					c0.588-0.124,1.202-0.24,1.814-0.332c-0.064,0.139-0.104,0.288-0.107,0.445c-0.019,0.76,0.565,0.71,1.517,0.735
					c0.846,0.022,1.695,0.095,1.885-0.427C84.545,55.204,84.807,55.837,85.043,56.583z M83.634,52.833
					c-1.578-0.062-3.107,0.213-4.533,0.647l-0.081-0.87c1.117-0.538,5.217-1.824,5.266-1.831L83.634,52.833z M67.05,92.783
					c-3.463-1.871-18.192-9.982-21.382-13.946l1.663-17.054c1.117,0.785,2.469,1.265,3.979,0.828
					c1.351,14.552,5.621,15.149,8.106,16.253c5.211,2.316,8.062,2.89,10.626,2.993L67.05,92.783z M79.173,74.523
					c-0.217,0.081-0.479,0.156-0.774,0.225l0.476-2.021l-4.939-0.3l-1.028,2.806c-1.436-0.003-2.82-0.099-3.863-0.302
					c-0.372-0.274-0.746-0.577-1.136-0.914c1.248-1.054,5.185-4.056,9.02-3.685c4.641,0.449,4.341,0.149,4.49,1.646
					C81.567,73.477,81.567,73.626,79.173,74.523z M84.811,71.081c-0.537,0.681-0.726,0.918-1.254,1.364
					c0.053-0.543,0.088-1.142,0.106-1.813c0.15-5.388-3.441-5.237-3.441-5.237l-2.396,0.748c-1.346-1.497-5.238-0.599-5.238-0.599
					c-3.481,0.922-5.771,4.365-6.871,6.448c-0.714-0.678-1.502-1.429-2.407-2.258c-5.239-4.789-9.28-16.314-9.28-16.314
					c-1.646,1.347-2.994,5.238-2.994,5.238c0.046,0.958,0.104,1.865,0.172,2.73c-1.849,0.679-3.679-0.417-5.822-3.442
					c-2.542-3.586-3.944-5.896-0.886-8.079c1.065-0.762,1.683-0.375,2.603,0.32c0.396,0.299,0.769,0.581,1.203,0.693
					c0.129,0.034,0.257,0.035,0.381,0.017l1.153,2.973c-1.347-4.49,6.137-9.729,6.137-9.729c-0.599-1.497-1.048-5.088,1.197-6.585
					c2.679-1.786,5.901-1.289,8.379-0.885c-0.114,1.136,0.814,2.739,0.814,2.739c-0.079-0.37,0.627-1.549,1.228-2.466
					c0.123,0.007,0.243,0.013,0.355,0.013c2.395,0-0.149,1.496-0.149,1.496c3.442,1.498,4.041-1.646,4.041-1.646
					c2.244,1.796-1.946,2.994-1.946,2.994c-0.583-0.045,2.479,1.197,3.891-2.095c1.647,1.197-0.149,2.394-0.149,2.394
					c2.097-0.598,1.647-2.096,1.647-2.096c0.229,0.044,0.445,0.055,0.654,0.054c0.296,0.383,0.768,0.693,1.524,0.697
					c0,0-0.206-0.389-0.388-0.928c0.327-0.136,0.61-0.316,0.848-0.51l6.24,11.366l-6.036,1.744l0.002,0.021
					c-0.281,0.072-0.476,0.336-0.449,0.633l0.599,6.585c0.012,0.118,0.059,0.231,0.133,0.323c0.019,0.023,1.913,2.364,2.772,4.081
					c0.163,0.325,0.114,0.521,0.062,0.642c-0.166,0.395-0.784,0.793-1.65,1.063c-1.017,0.317-1.273,0.098-1.567-0.157
					c-0.157-0.134-2.036-1.262-3.192-1.368c-0.653-0.059-0.851,0.937-0.91,1.479c-0.713,0.066-1.267,0.062-1.486-0.029
					c-0.041-0.297,0.271-1.13,0.517-1.339c0.251-0.215,0.279-0.593,0.065-0.844c-0.215-0.25-0.593-0.28-0.844-0.065
					c-0.556,0.476-1.359,2.198-0.67,3.023c0.69,0.83,5.52-0.138,5.738,0.051c0.365,0.314,0.784,0.604,1.499,0.604
					c0.332,0,0.727-0.062,1.208-0.212c0.872-0.272,1.995-0.796,2.396-1.737c0.219-0.517,0.188-1.085-0.094-1.646
					c-0.19-0.385-0.429-0.793-0.681-1.198c0.43,0.048,0.831,0.07,1.205,0.07c1.319,0,2.287-0.266,2.959-0.565
					c0.088,0.704,0.149,1.456,0.172,2.26C85.973,64.354,85.603,68.104,84.811,71.081z"/>
				<path fill="#020202" d="M69.964,57.463c-0.027,0.002-2.813,0.116-6.379-0.843c-0.875-0.236-1.78,0.284-2.016,1.162
					c-0.237,0.878,0.284,1.782,1.161,2.018c3.197,0.861,5.827,0.962,6.892,0.962c0.299,0,0.475-0.008,0.503-0.01
					c0.908-0.045,1.604-0.816,1.562-1.723S70.876,57.427,69.964,57.463z"/>
			</g>
		</g>
	</g>
</g>
</svg>
