<?xml version="1.0" encoding="utf-8"?>
<!-- Generator: Adobe Illustrator 16.0.0, SVG Export Plug-In . SVG Version: 6.00 Build 0)  -->
<!DOCTYPE svg PUBLIC "-//W3C//DTD SVG 1.1 Basic//EN" "http://www.w3.org/Graphics/SVG/1.1/DTD/svg11-basic.dtd">
<svg version="1.1" baseProfile="basic" id="Слой_1"
	 xmlns="http://www.w3.org/2000/svg" xmlns:xlink="http://www.w3.org/1999/xlink" x="0px" y="0px" width="125px" height="125px"
	 viewBox="0 0 125 125" xml:space="preserve">
<g>
	<g>
		<g>
			<g>
				<g>
					<g>
						<g>
							<g>
								<g>
									<g>
										<circle fill="#FFFFFF" cx="62.5" cy="62.5" r="62.5"/>
									</g>
								</g>
							</g>
						</g>
					</g>
				</g>
			</g>
		</g>
	</g>
	<g>
		<path opacity="0.2" d="M82.93,47.475c-1.129,0.162-3.227,2.42-3.227,2.42v-8.39C79.123,31.346,65.36,31.37,62.6,31.478v46.507
			l-4.517-0.506c0,0,3.71,7.745,6.938,12.424l9.842-0.646l-2.579-17.405c3.29-3.11,7.259-4.047,7.259-4.047v-8.713
			c0,0,0.646,1.774,2.421,1.936c1.774,0.161,4.033-2.582,4.033-4.518C85.996,54.574,84.061,47.314,82.93,47.475z"/>
		<g>
			<path fill="#020202" d="M60.483,46.252l-1.505,1.506l-0.015-1.398c0,0-3.414-0.541-6.111-0.498
				c-2.697,0.043-4.737,0.606-4.737,0.606l-1.183,2.582l1.936-1.184l10.863,1.506L60.483,46.252z"/>
			<path fill="#020202" d="M72.203,45.862c-2.698-0.043-6.112,0.498-6.112,0.498l-0.015,1.398l-1.505-1.506l0.752,3.119
				l10.864-1.506l1.937,1.184l-1.185-2.582C76.939,46.468,74.899,45.905,72.203,45.862z"/>
			<path fill="#020202" d="M85.996,56.51c0-1.019-0.084-5.201-0.343-7.407c-0.323-2.743-2.276-2.276-2.686-2.276
				c-0.043,0-0.086,0.003-0.129,0.009c-0.685,0.098-1.552,0.715-2.271,1.334c0.015-3.392-0.591-14.521-0.591-14.521
				s-6.277-5.143-17.533-6.528h-0.375c-11.255,1.385-17.209,6.528-17.209,6.528s-0.605,11.463-0.551,14.518
				c-0.719-0.618-1.583-1.233-2.267-1.331c-0.042-0.006-0.086-0.009-0.128-0.009c-0.41,0-2.572-0.19-2.887,4.211
				c-0.158,2.216,0.484,4.467,0.484,5.486c0,2.136,1.07,5.155,3.256,5.155c0.071,0,0.14-0.003,0.21-0.009
				c0.717-0.065,1.281-0.337,1.716-0.675v6.809c0,0.298,0.206,0.558,0.498,0.628c0.031,0.007,1.283,0.317,2.933,1.133
				c-0.475,2.8-2.068,12.92-1.654,20.378l0.034,0.609h32.314l-0.086-0.722c-0.081-0.682-1.9-15.873-2.93-19.758
				c2.099-1.198,3.853-1.632,3.89-1.641c0.291-0.069,0.497-0.329,0.497-0.628v-6.809c0.436,0.337,1,0.609,1.717,0.675
				c0.069,0.006,0.139,0.009,0.21,0.009c1.012,0,2.139-0.652,3.092-1.787C86.104,58.821,85.996,57.557,85.996,56.51z M76.395,89.262
				H47.727c-0.277-6.911,1.071-15.882,1.595-19.045c2.311,1.369,4.97,3.659,6.215,7.314c0.072,0.211,0.249,0.37,0.466,0.42
				c0.128,0.03,3.18,0.728,5.63,0.728c0.287,0,0.558-0.01,0.808-0.029c0.249,0.02,0.521,0.029,0.808,0.029
				c2.449,0,5.501-0.697,5.629-0.728c0.219-0.05,0.394-0.209,0.467-0.42c0.938-2.758,2.683-4.736,4.476-6.132
				C74.593,75.104,75.753,83.958,76.395,89.262z M83.571,59.063c-0.722,0.861-0.921,0.738-1.55,0.677
				c-1.334-0.121-1.853-0.814-1.873-0.868c-0.107-0.294-0.41-0.469-0.718-0.415c-0.31,0.055-1.18,0.322-1.18,0.636v7.574
				c-1.685,0.504-7.357,2.463-10.183,7.777l-0.002-0.011h-1.29l0.176,1.771c-0.206,0.081-0.434,0.191-0.682,0.311l-0.463-2.082
				h-1.291l0.271,2.704c-0.194,0.062-0.396,0.113-0.603,0.155l-0.636-2.859h-1.936l-0.646,2.905c0,0-0.213,0.024-0.611-0.009
				l0.289-2.896h-1.291l-0.602,2.71c-0.217-0.031-0.427-0.063-0.626-0.097l0.261-2.613h-2.872c-2.877-4.8-7.921-6.64-9.532-7.121
				v-8.22c0-0.313-0.224-0.578-0.53-0.634c-0.308-0.058-0.611,0.118-0.721,0.41c-0.021,0.057-0.541,1.396-1.873,1.517
				c-0.031,0.003-0.063,0.004-0.093,0.004c-1.331,0-1.686-2.294-1.966-3.865c-0.807-4.517-0.646-7.744,1.186-8.379
				c0.669,0.22,1.983,1.4,2.718,2.189c0.181,0.194,0.463,0.259,0.709,0.161c0.247-0.097,0.409-0.335,0.409-0.601v-4.544
				c1.226-1.598,2.813-2.167,2.813-2.167l-0.494-0.658c-1.233-1.438-1.374-3.393-1.307-4.654c0.916-1.671,2.364-2.869,4.034-3.72
				c3.301-1.355,7.292-1.856,9.619-2.041c0.255-0.005,0.501-0.009,0.728-0.009c0.531,0,1.92,0,2.45,0
				c0.088,0,0.181,0.001,0.272,0.002c2.3,0.177,6.313,0.669,9.645,2.023c1.761,0.936,3.261,2.297,4.109,4.258
				c0,1.237-0.243,2.885-1.32,4.141l-0.493,0.658c0,0,1.315,0.508,2.535,1.728v4.983c0,0.265,0.808,0.503,1.055,0.601
				c0.246,0.097,0.527,0.033,0.709-0.161c0.734-0.79,2.049-1.324,2.717-1.544c0.791,0.803,1.469,5.782,1.469,7.734
				C84.362,57.266,84.271,58.229,83.571,59.063z"/>
			<path fill="#020202" d="M56.863,60.263l0.071,0.474l5.581,0.814l0.196,0.006l5.627-0.82l0.071-0.474
				c0.041-0.277,0.943-6.842-5.349-11.746l-0.175-0.136h-0.5l-0.175,0.136C55.919,53.421,56.821,59.985,56.863,60.263z
				 M62.636,49.832c4.457,3.707,4.617,8.286,4.539,9.764c-1.148-0.664-3.167-1.614-3.58-0.375c-0.139,0.416-0.196,0.714-0.188,0.931
				l-0.771,0.112l-0.807-0.118c-0.009-0.211-0.069-0.485-0.191-0.853c-0.405-1.213-2.331-0.353-3.508,0.313l-0.028-0.004
				C58.035,58.135,58.217,53.512,62.636,49.832z"/>
			<path fill="#020202" d="M69.852,64.433l-1.362-3.068h-1.8l0.72,1.978l1.825,0.913l-3.564-1.019l-3.389,1.13l-1.452-0.969
				l-4.894,1.561c1.104,4.413,5.733,5.155,6.689,5.263h0.175c0.931-0.104,5.528-1.1,6.793-5.219L69.852,64.433z M62.799,67.778
				v-0.003c-0.029,0.001-0.175,0.003-0.175,0.003c-2.06,0.043-4.04-0.967-5.305-1.791l0.105-1.199l2.275-0.26l2.581,1.13
				l3.711-1.291l2.93,0.112l0.018,0.797C67.739,66.203,65.274,67.829,62.799,67.778z"/>
			<polygon fill="#020202" points="58.774,61.365 56.975,61.365 55.536,64.603 58.054,63.343 			"/>
			<polygon fill="#020202" points="61.173,62.864 61.413,62.024 59.374,61.665 58.954,62.984 			"/>
			<polygon fill="#020202" points="64.291,62.864 66.51,62.984 66.09,61.665 64.052,62.024 			"/>
			<polygon fill="#020202" points="62.111,62.088 61.777,62.978 62.732,63.508 63.811,63.048 63.452,62.088 62.779,62.199 			"/>
			<path fill="#020202" d="M57.688,52.566c-1.335-3.711-4.305-3.415-4.305-3.415c-2.747,0.668-3.301,2.789-3.301,2.789
				s0.66-0.449,2.414-0.68c-0.073,0.176-0.113,0.369-0.113,0.571c0,0.832,0.674,1.506,1.505,1.506c0.832,0,1.505-0.674,1.505-1.506
				c0-0.186-0.038-0.362-0.1-0.526C56.836,51.674,57.688,52.566,57.688,52.566z"/>
			<path fill="#020202" d="M71.488,49.152c0,0-2.969-0.297-4.304,3.415c0,0,0.683-0.714,1.929-1.129
				c-0.034,0.127-0.059,0.257-0.059,0.394c0,0.832,0.674,1.506,1.505,1.506c0.832,0,1.507-0.674,1.507-1.506
				c0-0.223-0.052-0.433-0.139-0.623c2.093,0.207,2.863,0.732,2.863,0.732S74.235,49.82,71.488,49.152z"/>
		</g>
	</g>
</g>
</svg>
