<?xml version="1.0" encoding="utf-8"?>
<!-- Generator: Adobe Illustrator 16.0.0, SVG Export Plug-In . SVG Version: 6.00 Build 0)  -->
<!DOCTYPE svg PUBLIC "-//W3C//DTD SVG 1.1 Basic//EN" "http://www.w3.org/Graphics/SVG/1.1/DTD/svg11-basic.dtd">
<svg version="1.1" baseProfile="basic" id="Слой_1"
	 xmlns="http://www.w3.org/2000/svg" xmlns:xlink="http://www.w3.org/1999/xlink" x="0px" y="0px" width="125px" height="125px"
	 viewBox="0 0 125 125" xml:space="preserve">
<circle fill="#FFFFFF" cx="63.001" cy="62.5" r="62.5"/>
<g>
	<path opacity="0.2" d="M88.579,51.082c-0.155-0.031-0.908,0.119-1.074,0.119c-2.218,0-5.252,2.631-6.52,3.831V32.042l-0.948-1.439
		c0,0-0.89-1.797-1.37-2.228h-0.286c-1.136-0.624-4.205,0.717-7.08,0.463c-0.354-0.031-0.698-0.045-1.032-0.045
		c-4.549,0-7.407,2.722-8.424,3.89c-0.027-0.024-0.059-0.051-0.087-0.077v37.469v12.08l-0.146,1.011
		c-0.07,0-13.173-6.412-16.659-9.57c0.463,1.864,1.887,4.998,6.249,7.472c6.645,3.767,10.667,3.938,13.99,9.758
		c3.321,5.821,3.848,6.677,3.848,6.677l11.191-6.333c0,0-0.688-12.054-2.291-17.109c-0.136,0.118,3.045-4.201,3.045-4.201
		l0.052-7.294c0.313,0.268,0.885-0.599,1.201-0.599c1.21,0,3.386-2.572,4.884-3.771C89.021,56.674,91.428,51.651,88.579,51.082z"/>
	<g>
		<path d="M57.139,48.92c-0.677-0.452-3.244-1.009-4.508-0.563c-1.153,0.407-2.794,2.027-2.977,2.21l0.726,0.727
			c0.373-0.372,1.353-1.274,2.129-1.738c-0.051,0.16-0.087,0.327-0.087,0.505c0,0.293,0.083,0.567,0.217,0.807h2.888
			c0.135-0.24,0.218-0.514,0.218-0.807c0-0.213-0.044-0.416-0.117-0.603c0.44,0.104,0.796,0.223,0.939,0.319L57.139,48.92z"/>
		<path d="M68.825,50.867h2.89c0.134-0.24,0.217-0.514,0.217-0.807c0-0.178-0.036-0.345-0.087-0.505
			c0.775,0.463,1.756,1.366,2.128,1.738l0.728-0.727c-0.184-0.183-1.825-1.804-2.979-2.21c-1.262-0.445-3.83,0.111-4.507,0.563
			l0.57,0.855c0.144-0.095,0.498-0.214,0.938-0.318c-0.072,0.188-0.116,0.39-0.116,0.602C68.607,50.354,68.691,50.627,68.825,50.867
			z"/>
		<path d="M74.942,64.645l0.94-1.214L61.93,64.424l-13.953-0.993l0.941,1.214c0.167,0.214,4.189,5.271,12.949,5.451h0.133h0.007
			C70.753,69.916,74.775,64.858,74.942,64.645z M61.986,68.725H61.88c-5.403-0.111-8.883-2.264-10.603-3.683l9.944,0.707
			l0.022,1.427h1.371l0.022-1.427l9.945-0.707C70.862,66.461,67.385,68.613,61.986,68.725z"/>
		<path d="M83.576,86.479c-0.659-6.155-1.446-12.814-2.005-15.325c0.239-0.243,0.39-0.406,0.434-0.452
			c0.214-0.23,0.332-0.531,0.332-0.843v-7.307c1.203-0.136,4.039-2.794,4.448-3.123c1.549-1.238,4.232-5.001,3.629-7.479
			c-0.243-1.003-0.998-1.702-2.071-1.917c-0.231-0.046-0.475-0.07-0.724-0.07c-1.689,0-3.601,1.081-5.283,2.375V32.042
			c0-0.647-0.5-1.185-1.146-1.233l-0.241-0.019l-1.004-0.521l-0.434,0.241c-0.001,0-0.001,0-0.001,0l-0.7,0.393l-1.13,0.631
			c1.122,1.304,1.804,2.997,1.804,4.851c0,1.884-0.704,3.6-1.858,4.913c0.841,0.449,1.714,1.011,2.444,1.692v13.068
			C81.338,54.86,85.4,51.2,87.618,51.2c0.165,0,0.326,0.015,0.482,0.045c2.847,0.57-0.191,5.697-2.09,7.216
			c-1.498,1.199-3.971,2.867-3.971,2.867l-1.971-0.037v8.906c0,0-8.896,10.329-17.962,11.964h-0.19
			c-9.063-1.635-18.99-12.306-18.99-12.306v-8.166v-0.759c-0.322,0.281-0.642,0.401-0.967,0.401c-1.212,0-2.473-1.672-3.972-2.87
			c-1.899-1.519-4.937-6.646-2.088-7.216c0.155-0.031,0.316-0.046,0.482-0.046c2.232,0,5.292,2.667,6.544,3.854V45.26
			c0.639-1.704,1.883-3.112,3.472-3.961c-1.153-1.313-1.858-3.028-1.858-4.913c0-1.245,0.307-2.417,0.848-3.446l0.007,0.005
			c0,0,0.001-0.011,0.007-0.029c0.204-0.383,0.439-0.746,0.704-1.086c0.827-0.84,2.591-1.904,6.316-2.233
			c0.223-0.02,0.442-0.033,0.659-0.042c0.068-0.002,0.133-0.002,0.201-0.004c0.14-0.003,0.28-0.006,0.417-0.005
			c0.224,0.001,0.443,0.007,0.659,0.02c0.024,0,0.048,0,0.072,0.002c0.241,0.015,0.477,0.037,0.708,0.064
			c0.064,0.007,0.126,0.018,0.189,0.026c0.167,0.021,0.331,0.045,0.492,0.073c0.073,0.013,0.145,0.026,0.217,0.04
			c0.151,0.029,0.301,0.06,0.448,0.094c0.065,0.015,0.132,0.03,0.197,0.046c0.164,0.04,0.322,0.083,0.478,0.128
			c0.042,0.012,0.085,0.022,0.126,0.035c0.2,0.059,0.396,0.124,0.583,0.191c0.019,0.006,0.036,0.014,0.055,0.02
			c0.167,0.061,0.329,0.123,0.486,0.188c0.051,0.02,0.101,0.042,0.151,0.063c0.124,0.053,0.244,0.106,0.363,0.161
			c0.053,0.024,0.106,0.049,0.158,0.074c0.114,0.055,0.226,0.111,0.335,0.167c0.045,0.023,0.091,0.046,0.135,0.07
			c0.132,0.07,0.26,0.141,0.384,0.212c0.016,0.009,0.032,0.018,0.047,0.027c0.138,0.08,0.27,0.161,0.396,0.241
			c0.041,0.026,0.081,0.052,0.121,0.079c0.066,0.042,0.13,0.085,0.192,0.127l1.267,0.985l1.02-1.021
			c0.09-0.082,0.189-0.165,0.29-0.25c0.011-0.009,0.021-0.017,0.031-0.026c0.095-0.077,0.191-0.155,0.291-0.232
			c0.03-0.023,0.06-0.045,0.09-0.067c0.093-0.071,0.188-0.143,0.288-0.214c0.042-0.03,0.086-0.06,0.129-0.088
			c0.096-0.067,0.191-0.134,0.293-0.2c0.059-0.038,0.121-0.075,0.181-0.113c0.148-0.092,0.304-0.183,0.463-0.272
			c0.097-0.054,0.193-0.109,0.294-0.163c0.074-0.039,0.152-0.076,0.229-0.114c0.105-0.052,0.212-0.104,0.319-0.153
			c0.078-0.036,0.159-0.07,0.239-0.104c0.116-0.049,0.235-0.097,0.356-0.145c0.078-0.03,0.157-0.061,0.235-0.089
			c0.14-0.049,0.281-0.096,0.424-0.14c0.069-0.022,0.135-0.044,0.204-0.065c0.217-0.063,0.437-0.12,0.663-0.17
			c0.022-0.005,0.046-0.009,0.068-0.013c0.205-0.045,0.415-0.083,0.628-0.117c0.078-0.012,0.16-0.021,0.239-0.031
			c0.164-0.021,0.328-0.041,0.497-0.055c0.094-0.008,0.189-0.013,0.284-0.019c0.163-0.01,0.327-0.016,0.494-0.019
			c0.123,0,0.244-0.003,0.37-0.001c0.057,0.001,0.114,0.001,0.171,0.003c0.218,0.007,0.438,0.018,0.665,0.038
			c2.677,0.237,4.369,0.93,5.439,1.661c0.144-0.028,0.298-0.066,0.455-0.115h0.001c0.004-0.001,0.009-0.003,0.013-0.004
			c0.093-0.029,0.188-0.062,0.284-0.1c0.013-0.005,0.026-0.011,0.039-0.016c0.087-0.036,0.176-0.075,0.267-0.118
			c0.012-0.006,0.023-0.011,0.038-0.019c0.09-0.045,0.18-0.095,0.269-0.15c0.027-0.016,0.055-0.032,0.082-0.049
			c0.086-0.054,0.172-0.113,0.26-0.177c0.01-0.007,0.019-0.012,0.027-0.019c0-0.001-0.001-0.001-0.001-0.001
			c0.439-0.331,0.869-0.787,1.24-1.416c0.06-0.168,0.123-0.349,0.194-0.554c0.76-2.152,0.253-3.67,0.253-3.67
			c-0.126,1.139-1.266,0.886-1.266,0.886s0.127-2.786-0.379-5.951c-0.508-3.165-3.799-5.824-3.799-5.824
			c0.126,6.331-13.166,4.558-18.105,6.077c-4.938,1.519-7.216,6.457-7.216,6.457c-0.506-0.506-0.254-1.898-0.254-1.898
			c-2.437,2.245-3.152,4.261-3.263,5.705c-0.471,0.272-1.2,0.734-1.802,1.283c-0.878-0.486-2.214-1.201-2.342-1.128
			c-0.384,0.22-0.161,1.356-0.161,1.8v20.861c-1.69-1.304-3.609-2.394-5.308-2.394c-0.25,0-0.493,0.023-0.724,0.07
			c-1.073,0.215-1.828,0.914-2.072,1.917c-0.603,2.478,2.082,6.24,3.63,7.479c0.411,0.329,0.819,0.713,1.213,1.082
			c1.051,0.986,2.046,1.922,3.26,2.044v1.353c-1.178,1.217-2.751,1.961-2.751,1.961c0.801,1.2,2.067,0.995,2.751,0.767v1.008
			c-1.336,2.211-4.46,2.213-4.46,2.213c1.243,0.967,3.688,1.03,4.932,0.993c0.146,0.153,0.393,0.41,0.736,0.751
			c-0.236,1.039-0.767,3.431-1.151,5.541c-0.22,1.208-0.648,4.981-1.075,9.041c-0.169-0.231-0.287-0.425-0.333-0.563
			c0,0-3.988,11.205-3.798,13.483v0.696h51.395v-0.696c0.191-2.278-3.797-13.483-3.797-13.483
			C84.073,85.813,83.868,86.114,83.576,86.479z M78.63,91.507c-6.29,5.243-12.929,6.349-15.456,6.583h-1.87
			c-2.526-0.234-9.166-1.34-15.457-6.583c0,0-2.311-2.14-3.945-3.892c0.468-4.501,0.962-8.949,1.194-10.229
			c0.299-1.642,0.689-3.462,0.956-4.662c3.438,3.258,10.688,9.401,17.646,10.657c0.072,0.014,0.146,0.019,0.221,0.019h0.19
			c0.073,0,0.147-0.005,0.22-0.019c6.851-1.235,13.984-7.21,17.483-10.504c0.539,3.197,1.278,9.668,1.906,15.633
			C80.237,90.021,78.63,91.507,78.63,91.507z"/>
		<path d="M64.864,70.749c-0.013,0.008-1.227,0.771-2.548,0.771c-0.063,0-0.278,0-0.343,0c-1.321,0-2.535-0.763-2.547-0.771
			c-0.159-0.104-0.371-0.056-0.473,0.104c-0.102,0.159-0.056,0.369,0.104,0.471c0.056,0.037,1.39,0.88,2.916,0.88
			c0.065,0,0.28,0,0.343,0c1.527,0,2.861-0.843,2.917-0.88c0.158-0.102,0.206-0.313,0.104-0.471
			C65.235,70.693,65.023,70.646,64.864,70.749z"/>
		<path d="M71.956,44.727l-6.837,1.013l0.079,1.656c-0.084,0.048-0.158,0.113-0.219,0.195c-0.093,0.128-2.293,3.188-2.639,5.197
			c-0.321,1.86,0.091,3.581,1.223,5.118c0.866,1.175,3.091,1.439,4.205,1.495c0.026,0.176,0.016,0.276,0.007,0.322
			c-0.035,0.003-0.087,0.002-0.115-0.006c-0.058-0.014-0.117-0.022-0.176-0.022h-3.229c-0.227,0-0.438,0.111-0.57,0.294
			c-0.175,0.146-0.898,0.398-1.85,0.591c-0.954-0.192-1.677-0.445-1.853-0.591c-0.13-0.183-0.342-0.294-0.569-0.294h-3.228
			c-0.06,0-0.119,0.008-0.177,0.022c-0.011,0.004-0.072,0.011-0.116,0.006c-0.009-0.046-0.019-0.146,0.007-0.322
			c1.114-0.056,3.338-0.32,4.204-1.495c1.133-1.537,1.544-3.259,1.224-5.118c-0.288-1.666-1.847-4.05-2.425-4.89l0.103-2.158
			l-6.836-1.012l-5.065,2.406l5.659-1.11c1.162,0.989,4.715,2.281,4.792,2.387c0.584,0.807,2.152,3.211,2.396,4.615
			c0.256,1.49-0.062,2.814-0.972,4.05c-0.478,0.647-2.412,0.94-3.635,0.942c-0.305,0-0.576,0.199-0.666,0.491
			c-0.115,0.371-0.468,1.498,0.198,2.196c0.465,0.487,1.117,0.435,1.378,0.39h2.872c0.334,0.251,1.028,0.585,2.542,0.878
			c0.044,0.009,0.287,0.009,0.33,0c1.515-0.293,2.208-0.627,2.542-0.878h2.872c0.262,0.045,0.914,0.097,1.378-0.39
			c0.667-0.699,0.313-1.826,0.197-2.196c-0.091-0.292-0.361-0.491-0.666-0.491c-1.221,0-3.154-0.293-3.635-0.942
			c-0.909-1.235-1.228-2.56-0.97-4.05c0.241-1.402,1.811-3.807,2.395-4.615c0.051-0.071,4.011-1.299,5.299-2.432l5.889,1.155
			L71.956,44.727z"/>
	</g>
</g>
</svg>
