<?xml version="1.0" encoding="utf-8"?>
<!-- Generator: Adobe Illustrator 16.0.0, SVG Export Plug-In . SVG Version: 6.00 Build 0)  -->
<!DOCTYPE svg PUBLIC "-//W3C//DTD SVG 1.1 Basic//EN" "http://www.w3.org/Graphics/SVG/1.1/DTD/svg11-basic.dtd">
<svg version="1.1" baseProfile="basic" id="Слой_1"
	 xmlns="http://www.w3.org/2000/svg" xmlns:xlink="http://www.w3.org/1999/xlink" x="0px" y="0px" width="125px" height="125px"
	 viewBox="0 0 125 125" xml:space="preserve">
<g>
	<g>
		<g>
			<g>
				<g>
					<g>
						<g>
							<g>
								<g>
									<g>
										<g>
											<g>
												<g>
													<g>
														<g>
															<g>
																<g>
																	<g>
																		<g>
																			<g>
																				<g>
																					<g>
																						<g>
																							<circle fill="#FFFFFF" cx="62.984" cy="62.5" r="62.5"/>
																						</g>
																					</g>
																				</g>
																			</g>
																		</g>
																	</g>
																</g>
															</g>
														</g>
													</g>
												</g>
											</g>
										</g>
									</g>
								</g>
							</g>
						</g>
					</g>
				</g>
			</g>
		</g>
	</g>
	<g>
		<path opacity="0.2" fill="#020202" d="M84.882,52.807c-0.873-1.227-2.623-0.362-3.436,0.353l-0.081-5.192
			c0.111-0.791,2.029-7.927-2.641-13.368c-3.201-3.729-8.216-5.632-14.906-5.665v56.613l-0.076,0.03l-14.184-7.854
			c0,0,1.41,14.569,14.801,14.195c8.608-0.24,11.92-7.88,13.188-13.308c1.163-1.389,3.131-10.487,3.29-12.936
			c0.208,0.073,2.705-0.021,3.076-0.358c1.125-1.025,0.793-2.751,0.793-4.582c0-0.619,0.118-1.85,0.264-3.083
			C85.45,53.612,85.454,53.611,84.882,52.807z"/>
		<g>
			<path fill="#020202" d="M68.292,71.94c-1.662,0-3.648-0.022-4.873,0.112c-1.224-0.135-3.212-0.112-4.874-0.112
				c-1.691,0-2.437-0.814-2.437-0.814c0,2.021,2.032,1.592,2.032,1.592h5.211h0.135h5.212c0,0,2.031,0.43,2.031-1.592
				C70.729,71.126,69.985,71.94,68.292,71.94z"/>
			<path fill="#020202" d="M66.645,73.975h-6.031C63.355,77.335,66.645,73.975,66.645,73.975z"/>
			<path fill="#020202" d="M68.524,62.093c-0.354-0.967-2.104-5.751-2.833-7.493l0.706-2.765c0.054-0.213,0.006-0.44-0.131-0.612
				c-0.137-0.172-0.348-0.266-0.567-0.267l-4.244,0.088c-0.211,0.004-0.409,0.103-0.539,0.269c-0.131,0.165-0.18,0.381-0.135,0.587
				l0.647,2.938c-0.278,1.179-1.979,4.93-3.125,7.313c-0.934,1.003-2.251,2.744-1.268,3.722c0.372,0.37,0.811,0.558,1.302,0.558l0,0
				c0.438,0,0.84-0.146,1.228-0.288c0.357-0.13,0.695-0.253,1.028-0.253c0.267,0,0.689,0.069,1.275,0.677
				c0.132,0.139,0.316,0.216,0.507,0.216h2.575c0.191,0,0.375-0.077,0.508-0.216c0.586-0.607,0.996-0.677,1.254-0.677
				c0.32,0,0.646,0.122,0.988,0.25c0.38,0.143,0.773,0.291,1.208,0.291c0.485,0,0.921-0.188,1.293-0.558
				c0.221-0.22,0.333-0.509,0.324-0.837C70.5,64.045,69.208,62.725,68.524,62.093z M68.908,65.022c-0.179,0-0.438-0.097-0.712-0.2
				c-0.404-0.153-0.908-0.342-1.484-0.342c-0.725,0-1.397,0.293-2.049,0.894h-2.001c-0.652-0.601-1.332-0.894-2.069-0.894
				c-0.582,0-1.076,0.181-1.511,0.339c-0.286,0.105-0.555,0.203-0.745,0.203c-0.065,0-0.135-0.008-0.231-0.08
				c0.065-0.353,0.649-1.217,1.297-1.903c0.049-0.053,0.091-0.113,0.122-0.178c0.312-0.646,3.055-6.358,3.318-7.91
				c0.015-0.09,0.013-0.181-0.007-0.27l-0.494-2.245l2.459-0.051l-0.534,2.097c-0.039,0.152-0.026,0.312,0.036,0.455
				c0.695,1.598,2.932,7.739,2.955,7.801c0.04,0.109,0.105,0.206,0.191,0.283c0.766,0.688,1.49,1.557,1.639,1.949
				C69.017,65.017,68.96,65.022,68.908,65.022z"/>
			<path fill="#020202" d="M56.563,52.141c-0.884-0.173-5.354-0.986-6.589,0.03c-0.264,0.217-0.404,0.506-0.404,0.834
				c0,0.292,0.235,0.53,0.527,0.53s0.527-0.235,0.527-0.526c0.138-0.224,0.896-0.314,1.961-0.283
				c-0.297,0.297-0.481,0.708-0.481,1.162c0,0.908,0.736,1.644,1.645,1.644c0.907,0,1.644-0.736,1.644-1.644
				c0-0.343-0.105-0.66-0.285-0.924c0.412,0.061,0.831,0.131,1.252,0.213c0.286,0.057,0.564-0.13,0.62-0.417
				C57.037,52.475,56.85,52.197,56.563,52.141z"/>
			<path fill="#020202" d="M85.494,51.125c-0.224-0.218-0.516-0.315-0.823-0.27c-0.793,0.112-1.81,0.864-2.622,1.578l-0.019-1.892
				c1.229-4.935,2.559-15.447-0.584-20.64c-1.717-2.836-9.566-3.363-12.733-3.46c-1.607-0.513-3.109-0.824-4.327-0.99
				c-2.838-0.951-6.55-1.717-6.55-1.717c-1.797-0.014-10.572-0.881-10.572-0.881c0.225,2.11,2.731,3.653,2.731,3.653
				c-1.977,0.918-6.635,0.018-6.635,0.018c0.357,1.427,0.95,2.77,1.647,3.993c-0.359,0.17-0.727,0.529-1.091,1.146
				c-2.172,3.677-4.023,11.949-0.151,20.609c-0.861-0.661-1.866-1.314-2.592-1.417c-0.312-0.045-0.613,0.059-0.827,0.284
				c-0.625,0.657-0.393,2.221,0.326,5.901c0.284,1.456,0.578,2.961,0.578,3.675c0,0.271-0.006,0.558-0.013,0.85
				c-0.034,1.692-0.071,3.442,0.862,4.313c0.245,0.228,0.659,0.483,1.285,0.483c0.07,0,0.144-0.004,0.219-0.011
				c0.296-0.026,0.544-0.09,0.764-0.171c0.202,1.866,0.559,4.546,1.078,6.389l-0.037-0.002l-1.62,24.663
				c-0.012,0.194,0.057,0.385,0.191,0.526c0.132,0.141,0.318,0.222,0.513,0.222h37.707c0.199,0,0.389-0.084,0.522-0.231
				c0.134-0.148,0.199-0.346,0.18-0.544l-2.468-23.023h-0.009c0.035-0.065,0.072-0.126,0.107-0.192
				c0.812-1.531,1.184-5.342,1.344-7.79c0.207,0.073,0.441,0.13,0.716,0.154c0.075,0.007,0.152,0.011,0.226,0.011
				c0.521,0,0.986-0.176,1.357-0.514c1.126-1.024,1.126-3.302,1.126-5.132c0-0.62,0.139-1.785,0.284-3.018
				C86.064,53.657,86.2,51.815,85.494,51.125z M69.387,79.773l-6.045,1.591l-6.045-1.591l-3.057-5.81l1.042-2.832
				c0,0,0.93-1.594,3.171-1.41c1.867,0.154,4.663-0.073,5.381-0.153c0.719,0.08,2.529,0.308,4.397,0.153
				c2.241-0.184,3.171,1.41,3.171,1.41l1.042,2.832L69.387,79.773z M80.714,96.568H45.241l1.406-21.37
				c5.979,10.248,13.547,10.595,13.877,10.663c0.013,0.002,0.026,0.005,0.039,0.007c0,0,2.695,0.357,2.775,0.332l2.279-0.338
				c0.322-0.063,7.211-0.369,13.009-8.741L80.714,96.568z M84.184,57.532c-0.158,1.331-0.294,2.48-0.294,3.184
				c0,1.303,0,3.485-0.665,4.091c-0.088,0.079-0.223,0.167-0.505,0.141c-0.359-0.033-0.606-0.143-0.759-0.332
				c0.012-0.262,0.02-0.451,0.021-0.549c0.007-0.204,0.074-1.235-0.786-1.226c-0.392,0.004-1.607-0.054-1.366,2.095
				c-0.065,1.283-0.293,3.114-0.602,4.779l-5.181,2.982l-0.848-3.09l-2.616-1.105c-1.961-0.646-5.717,0.634-6.75,0.965
				c-1.033-0.331-5.774-1.61-7.735-0.965l-2.615,1.105l-0.848,3.09l-6.251-3.599c-0.334-2.696-0.554-5.633-0.565-5.689
				c-0.069-0.384-0.438-0.637-0.819-0.568c-0.329,0.06-0.988,0.196-0.832,1.259c0.014,0.094,0.023,0.28,0.046,0.536
				c-0.153,0.177-0.393,0.28-0.738,0.312c-0.283,0.028-0.374-0.063-0.415-0.101c-0.472-0.44-0.438-2.066-0.414-3.253
				c0.006-0.302,0.013-0.598,0.013-0.878c0-0.85-0.294-2.353-0.605-3.945c-0.262-1.344-0.675-3.456-0.671-4.379
				c0.835,0.396,2.219,1.512,3.085,2.319c0.285,0.266,0.731,0.25,0.997-0.035c0.205-0.219,0.254-0.788,0.254-0.788l0.024-2.419
				l2.586-8.2c0,0-1.566-3.523,1.284-5.284c2.765-1.708,0.777,0.006,13.095-0.23c12.317,0.236,11.036-1.478,13.799,0.23
				c2.85,1.761,1.284,5.284,1.284,5.284l2.095,8.319c0.006,1.46,0.045,3.002,0.176,3.124c0.286,0.265,1.436,0.248,1.701-0.037
				c0.736-0.793,1.657-0.89,2.428-1.257C84.33,54.394,84.363,56.015,84.184,57.532z"/>
			<path fill="#020202" d="M59.95,52.631l-0.535-2.609l-2.989-1.62l-6.695-0.881l-2.115,2.819c0,0,1.869-1.356,3.349-1.41
				C55.897,48.755,59.95,52.631,59.95,52.631z"/>
			<path fill="#020202" d="M69.797,52.141c-0.286,0.056-0.474,0.333-0.417,0.62c0.057,0.287,0.331,0.474,0.62,0.417
				c0.421-0.082,0.84-0.153,1.252-0.213c-0.179,0.264-0.285,0.582-0.285,0.924c0,0.908,0.737,1.644,1.646,1.644
				c0.907,0,1.644-0.736,1.644-1.644c0-0.455-0.185-0.866-0.482-1.164c1.064-0.034,1.822,0.056,1.96,0.275l0.001,0.005
				c0,0.292,0.236,0.528,0.528,0.528s0.528-0.236,0.528-0.528c0-0.328-0.141-0.617-0.404-0.834
				C75.151,51.155,70.682,51.968,69.797,52.141z"/>
			<path fill="#020202" d="M70.639,48.402l-2.988,1.62l-0.535,2.609c0,0,4.053-3.876,8.986-3.7c1.479,0.053,3.348,1.41,3.348,1.41
				l-2.525-3.465L70.639,48.402z"/>
		</g>
	</g>
</g>
</svg>
