<?xml version="1.0" encoding="utf-8"?>
<!-- Generator: Adobe Illustrator 16.0.0, SVG Export Plug-In . SVG Version: 6.00 Build 0)  -->
<!DOCTYPE svg PUBLIC "-//W3C//DTD SVG 1.1 Basic//EN" "http://www.w3.org/Graphics/SVG/1.1/DTD/svg11-basic.dtd">
<svg version="1.1" baseProfile="basic" id="Слой_1"
	 xmlns="http://www.w3.org/2000/svg" xmlns:xlink="http://www.w3.org/1999/xlink" x="0px" y="0px" width="70px" height="70px"
	 viewBox="0 0 70 70" xml:space="preserve">
<g>
	<g>
		<g>
			<g>
				<g>
					<g>
						<g>
							<g>
								<g>
									<g>
										<g>
											<g>
												<g>
													<g>
														<g>
															<g>
																<g>
																	<g>
																		<circle fill="#FFFFFF" cx="35" cy="35" r="35"/>
																	</g>
																</g>
															</g>
														</g>
													</g>
												</g>
											</g>
										</g>
									</g>
								</g>
							</g>
						</g>
					</g>
				</g>
			</g>
		</g>
	</g>
	<g>
		<g>
			<path opacity="0.2" fill="#020202" d="M29.847,39.958l-1.051-3.149l-0.936-1.843l-0.438,0.472c0,0,2.502,15.502,9.608,15.34
				l1.613-5.086l-2.824-0.082L29.847,39.958z"/>
			<polygon opacity="0.2" fill="#020202" points="45.15,28.291 44.75,27.123 44.623,27.15 43.09,22.922 41.877,19.126 
				37.033,17.755 39.295,22.761 41.639,29.279 41.826,29.223 43.412,33.768 44.111,35.629 42.98,36.514 41.582,36.243 41.682,38.13 
				43.338,38.104 43.42,40.564 44.91,36.678 46.121,33.527 			"/>
		</g>
		<g>
			<path d="M39.824,30.238l0.01-1.489l-0.422,1.131l0.07-0.632l-4.629-0.754l-2.745,1.777c0,0,2.213-0.235,2.954-0.295
				C36.219,29.885,39.824,30.238,39.824,30.238z"/>
			<path d="M34.025,39.212c0,0,0.674-1.467,2.417-2.063C36.441,37.148,34.353,37.159,34.025,39.212z"/>
			<path d="M43.691,22.203c-0.273-3.006-0.971-7.258-2.711-7.596c-2.713-0.525-6.684-0.502-10.657,1.078
				c-3.949,1.57-7.706,1.563-5.74,12.244c-0.193-0.016-0.392-0.025-0.582-0.025c-0.584,0-1.045,0.084-1.365,0.252
				c-0.09,0.047-0.152,0.134-0.168,0.234c-0.029,0.182-0.703,4.475,0.479,6.332c0.501,0.788,1.479,1.258,2.615,1.258
				c0.127,0,0.255-0.006,0.383-0.018l-0.625,9.385c-0.005,0.075,0.017,0.15,0.062,0.213c1.801,2.453,10.713,7.16,11.09,7.36
				c0.049,0.024,0.1,0.036,0.152,0.036c0.043,0,0.088-0.009,0.129-0.027c0.09-0.039,0.156-0.117,0.184-0.213l1.752-6.695l3.279-0.17
				c0.133-0.006,0.248-0.095,0.291-0.222l2.742-8.302l1.42-3.684c0.025-0.068,0.027-0.145,0.008-0.213l-1.086-3.453V28.25
				c0-0.045-0.01-0.09-0.027-0.131l-1.014-2.279c1.459-0.076,5.496-0.492,5.936-2.781C50.484,21.787,47.393,21.693,43.691,22.203z
				 M35.938,51.924c-1.686-0.906-8.305-4.563-9.963-6.654l0.625-9.375l0.222-0.101c0.329-0.099,0.647-0.233,0.953-0.401l1.771,4.678
				c0.018,0.047,0.045,0.088,0.08,0.121l5.975,5.651c0.061,0.058,0.141,0.089,0.223,0.089l1.555,0.035L35.938,51.924z
				 M41.965,40.236c-0.469,0.195-1.299,0.367-2.582,0.066c-1.578-0.369-2.205-0.722-2.432-0.889l-0.652-0.691l5.221,0.106
				l1.615-0.483L41.965,40.236z M43.756,38.372l-0.379-1.131h-2.26l-2.424-0.081l-3.066,0.646l-1.696,2.422l-0.23-0.123l0.393-0.522
				l-0.404-0.243l-0.178,0.663l-0.28-0.149l-0.161-0.918l-0.158,0.746l-0.351-0.188l-0.041-0.036l0.36-1.004l-0.457-0.113
				l0.041,1.067l-0.625-0.562l0.314-0.879l-0.457-0.111l0.034,0.894l-0.627-0.565l0.646-0.86l-0.404-0.242l-0.283,1.067
				l-0.594-0.535l-0.191-1.086l-0.163,0.769l-0.378-0.341l0.4-0.958l-0.689,0.698l-0.529-0.478l0.266-0.737l-0.459-0.111
				l0.027,0.701l-0.047-0.043l-0.306-0.811l0.5-0.665l-0.404-0.241l-0.182,0.681l-0.222-0.583l0,0l0.484-1.156l-0.667,0.675
				l-0.022-0.058c-0.063-0.167-0.248-0.251-0.416-0.188c-0.166,0.063-0.25,0.248-0.188,0.416l0.25,0.662l-0.939,0.428
				c-0.184,0.053-0.369,0.09-0.554,0.113c0.134-0.117,0.22-0.289,0.22-0.48c0-0.356-0.291-0.646-0.646-0.646
				s-0.646,0.289-0.646,0.646c0,0.199,0.094,0.377,0.235,0.494c-0.755-0.082-1.378-0.418-1.708-0.938
				c-0.929-1.458-0.525-4.896-0.413-5.709c0.226-0.078,0.538-0.118,0.921-0.118c0.711,0,1.418,0.134,1.691,0.205
				c0.045,0.013,0.378-0.032,0.471-0.12l0.391,0.131c0,0,0.367-0.24,1.027-0.602l-0.64,0.646l0.368,0.295l0.43-1.028
				c1.334-0.72,3.697-1.845,6.582-2.585c2.776-0.2,7.426-0.5,8.786,0.148l1.318,2.45l-2.789,1.187l2.104,6.271
				c-0.32,0.331-0.68,0.622-0.801,0.644c-0.127,0.018-0.354-0.062-0.574-0.135c-0.291-0.101-0.629-0.213-0.977-0.215
				c-0.008-0.041-0.016-0.086-0.033-0.134c-0.238-0.722-1.324,0.03-1.867,0.464c-0.375,0.033-0.666,0.029-0.779-0.02
				c-0.033-0.153,0.096-0.574,0.203-0.67c0.113-0.01,0.449,0.062,0.732,0.156c0.168,0.057,0.352-0.033,0.408-0.201
				c0.059-0.17-0.033-0.353-0.199-0.41c-0.4-0.135-0.936-0.27-1.215-0.131c-0.293,0.142-0.477,0.563-0.543,0.881
				c-0.051,0.24-0.072,0.572,0.111,0.793c0.162,0.197,0.512,0.27,0.939,0.27c0.555,0,1.246-0.121,1.846-0.258
				c0.023-0.006,0.047-0.014,0.068-0.023c0.316-0.154,0.713-0.021,1.096,0.109c0.303,0.104,0.586,0.198,0.857,0.165
				c0.441-0.054,1.08-0.708,1.332-0.987c0.08-0.087,0.104-0.21,0.066-0.322l-1.49-4.375c0.107-0.123,0.236-0.215,0.377-0.287
				c-0.039,0.104-0.053,0.217-0.031,0.33c0.072,0.404,0.541,0.656,1.045,0.564c0.354-0.064,0.629-0.279,0.738-0.542l0.529,2.233
				L43.756,38.372z M42.697,30.48l-0.186-0.547l2.188-1.07v1.146C44.197,29.971,43.338,29.989,42.697,30.48z"/>
			<polygon points="29.39,33.754 29.138,34.939 29.607,34.988 			"/>
			<polygon points="29.275,36.488 30.001,35.52 29.597,35.277 			"/>
			<polygon points="27.677,33.566 27.8,32.32 27.24,33.395 			"/>
			<polygon points="31.304,36.535 31.673,36.83 32.156,35.674 			"/>
			<polygon points="30.222,36.162 30.593,35.01 30.132,34.913 			"/>
			<polygon points="30.792,37.052 31.202,35.912 30.744,35.8 			"/>
			<polygon points="28.306,31.941 27.983,33.15 28.708,32.184 			"/>
			<polygon points="27.731,32.114 27.853,30.867 27.292,31.941 			"/>
			<polygon points="28.037,31.698 28.763,30.729 28.36,30.486 			"/>
			<polygon points="28.683,32.689 28.731,33.941 29.14,32.802 			"/>
			<polygon points="33.044,38.203 33.528,37.047 32.677,37.907 			"/>
			<polygon points="32.112,36.938 32.48,37.234 32.962,36.077 			"/>
			<polygon points="28.82,32.012 29.302,30.855 28.452,31.718 			"/>
			<polygon points="28.23,28.982 27.669,30.057 28.108,30.23 			"/>
			<polygon points="26.8,29.034 26.476,30.245 27.203,29.275 			"/>
			<polygon points="28.235,27.952 27.783,29.121 28.611,28.236 			"/>
			<polygon points="27.175,29.783 27.224,31.035 27.634,29.895 			"/>
			<path d="M38.037,31.527c0.08,0.016,0.158,0.035,0.234,0.058c0.172,0.051,0.354-0.046,0.402-0.216
				c0.053-0.171-0.045-0.352-0.219-0.402c-1.809-0.542-3.877,0.719-3.964,0.772c-0.151,0.095-0.198,0.293-0.104,0.444
				c0.062,0.099,0.166,0.153,0.274,0.153c0.058,0,0.117-0.017,0.169-0.048c0.012-0.007,0.645-0.395,1.473-0.63
				c-0.021,0.062-0.031,0.125-0.031,0.19c0,0.41,0.414,0.743,0.928,0.743s0.93-0.333,0.93-0.743
				C38.129,31.734,38.096,31.625,38.037,31.527z"/>
		</g>
	</g>
</g>
</svg>
