<?xml version="1.0" encoding="utf-8"?>
<!-- Generator: Adobe Illustrator 16.0.0, SVG Export Plug-In . SVG Version: 6.00 Build 0)  -->
<!DOCTYPE svg PUBLIC "-//W3C//DTD SVG 1.1 Basic//EN" "http://www.w3.org/Graphics/SVG/1.1/DTD/svg11-basic.dtd">
<svg version="1.1" baseProfile="basic" id="Слой_1"
	 xmlns="http://www.w3.org/2000/svg" xmlns:xlink="http://www.w3.org/1999/xlink" x="0px" y="0px" width="70px" height="70px"
	 viewBox="0 0 70 70" xml:space="preserve">
<g>
	<g>
		<g>
			<g>
				<g>
					<g>
						<g>
							<g>
								<g>
									<g>
										<g>
											<g>
												<g>
													<g>
														<g>
															<g>
																<g>
																	<g>
																		<g>
																			<g>
																				<g>
																					<g>
																						<g>
																							<g>
																								<circle fill="#FFFFFF" cx="35" cy="35" r="35"/>
																							</g>
																						</g>
																					</g>
																				</g>
																			</g>
																		</g>
																	</g>
																</g>
															</g>
														</g>
													</g>
												</g>
											</g>
										</g>
									</g>
								</g>
							</g>
						</g>
					</g>
				</g>
			</g>
		</g>
	</g>
	<g>
		<path opacity="0.2" d="M46.931,29.72c-0.787,0.225-2.346,2.076-3.115,3.04l0.677-7.744l-0.542-2.718c0,0-4.865-0.454-8.996-0.676
			l0.035,30.106l1.329-0.195c0.364,0.767,1.131,2.228,2.479,4.184l2.038-0.381l-0.011-8.65c0,0-0.058-0.446,2.241-2.242l0.385-5.993
			c0.097,0.024,0.201,0.036,0.32,0.033c1.528-0.052,2.088-1.375,2.548-2.189c0.458-0.816,1.223-4.382,1.426-5.351
			C47.949,29.975,48,29.414,46.931,29.72z"/>
		<g>
			<path d="M31.217,33.235c0.733,0.022,1.255,0.045,1.255,0.045s-0.47-0.164-1.068-0.311c-0.336-0.083-0.711-0.158-1.067-0.199
				l-0.275-0.662l-0.146,0.632c-0.01,0-0.021-0.001-0.03-0.001l-0.264-0.63l-0.15,0.648c-0.005,0-0.012,0-0.019,0.001l-0.271-0.649
				l-0.156,0.677l-0.283-0.677l-0.188,0.816c-0.508,0.133-0.872,0.287-0.872,0.287c0.389-0.015,0.852-0.02,1.334-0.019
				c0.283,0.669,1.043,0.732,1.043,0.732C30.741,33.875,31.085,33.45,31.217,33.235z"/>
			<path d="M47.416,29.229c-0.168,0-0.364,0.032-0.597,0.099c-0.518,0.148-1.296,0.812-2.32,1.976
				c0.256-1.742,0.767-5.67,0.734-9.052c0.583-0.707,3.595-4.531,3.164-7.356c0,0-1.321,2.043-2.979,2.846
				c-0.038-0.155-0.079-0.306-0.123-0.452c0.657-1.176,1.477-2.221,1.063-4.229l-4.304-0.516L40.494,9.08l-3.328,2.242l-3.532-2.648
				l-3.091,2.445l-3.159-1.494l-0.814,3.329l-2.93,0.109c-0.412,2.008-0.478,2.383,0.179,3.56c-0.043,0.145-0.084,0.295-0.123,0.451
				c-1.657-0.803-2.093-2.177-2.093-2.177c-0.43,2.825,2.582,6.649,3.164,7.357c-0.032,3.36,0.473,7.26,0.73,9.019
				c-1.011-1.145-1.778-1.797-2.288-1.942c-0.233-0.067-0.43-0.1-0.598-0.1c-0.36,0-0.56,0.154-0.665,0.283
				c-0.281,0.346-0.199,0.868-0.063,1.514c0.357,1.702,1.026,4.676,1.47,5.466c0.042,0.076,0.086,0.156,0.131,0.239
				c0.452,0.834,1.134,2.092,2.732,2.158l0.551,6.27c0.008,0.094,0.049,0.182,0.115,0.249l1.915,1.954l-0.208,8.799h12.858
				l-0.213-9.438c0.536-0.62,1.217-1.28,2.085-1.958c0.092-0.073,0.148-0.18,0.155-0.295l0.358-5.581
				c1.583-0.077,2.261-1.327,2.711-2.158c0.045-0.083,0.089-0.163,0.132-0.239c0.444-0.79,1.11-3.763,1.47-5.466
				c0.137-0.647,0.218-1.168-0.063-1.514C47.977,29.382,47.776,29.229,47.416,29.229z M42.252,44.189c0,0-0.881,0.957-1.822,2.215
				c-0.354,0.429-0.646,0.84-0.887,1.226v-3.092l-1.124,5.108l-4.514,0.768c-0.311-0.408-1.114-1.422-2.251-2.559
				c-0.012-0.012-0.023-0.023-0.035-0.033l-1.043-3.828v2.847c-1.341-1.204-2.794-2.348-2.794-2.348l-1.469-11.587
				c0.11-0.083,0.175-0.216,0.162-0.358l-0.12-1.37v-3.948c0.296-2.034,0.747-4.931,0.747-4.931h12.038
				c1.585,0.118,2.944,0.237,3.802,0.315c0.155,0.999,0.64,4.145,0.852,5.691l-0.385,4.419c-0.017,0.179,0.086,0.348,0.253,0.414
				c0.035,0.014,0.07,0.019,0.105,0.023L42.252,44.189z M26.3,38.075h-0.031c-1.149-0.038-1.638-0.938-2.068-1.731
				c-0.047-0.088-0.093-0.173-0.138-0.252c-0.281-0.5-0.798-2.457-1.382-5.233c-0.036-0.166-0.136-0.647-0.104-0.814
				c0.049-0.004,0.168-0.001,0.408,0.067c0.354,0.101,1.268,0.871,2.77,2.729c0.058,0.073,0.139,0.119,0.225,0.139l0.512,5.073
				c-0.003,0.001-0.006,0-0.009,0.002C26.425,38.068,26.366,38.075,26.3,38.075z M40.612,55.346H29.423l0.168-7.17l3.878,3.957
				c0.078,0.078,0.183,0.122,0.291,0.122c0.027,0,0.053-0.002,0.08-0.008l5.095-1.02c0.195-0.037,0.334-0.216,0.328-0.414
				c-0.001-0.02-0.018-1.275,1.179-3.057L40.612,55.346z M47.347,30.859c-0.585,2.776-1.102,4.733-1.383,5.233
				c-0.045,0.08-0.091,0.164-0.138,0.252c-0.41,0.756-0.875,1.607-1.913,1.718l0.381-5.246c1.482-1.833,2.392-2.602,2.748-2.704
				c0.239-0.068,0.359-0.071,0.408-0.066C47.483,30.211,47.381,30.692,47.347,30.859z"/>
			<path d="M32.419,30.586l0.05-1.732l-0.408,0.968l-0.254-1.121l-2.853,0.203l-1.478,1.988c0.356-0.357,1.324-1.121,1.783-1.121
				C29.719,29.771,32.419,30.586,32.419,30.586z"/>
			<path d="M38.074,28.701l-0.254,1.121l-0.408-0.968l0.051,1.732c0,0,2.701-0.815,3.159-0.815c0.459,0,0.884,0.221,1.784,1.121
				l-1.479-1.987L38.074,28.701z"/>
			<path d="M30.936,38.181c-0.185,0.027-0.328,0.176-0.348,0.361c-0.005,0.044-0.11,1.097,0.295,1.906
				c0.091,0.183,0.306,0.269,0.499,0.202c0.002-0.001,0.192-0.064,0.43-0.064c0.193,0,0.359,0.041,0.491,0.126
				c0.551,0.352,1.577,0.714,2.126,0.804c0.022,0.004,0.044,0.007,0.066,0.007h0.828c0.023,0,0.045-0.003,0.066-0.007
				c0.549-0.09,1.576-0.453,2.127-0.804c0.13-0.084,0.297-0.126,0.49-0.126c0.236,0,0.427,0.063,0.427,0.063
				c0.195,0.07,0.41-0.017,0.502-0.201c0.406-0.811,0.301-1.862,0.295-1.906c-0.02-0.186-0.163-0.334-0.347-0.361l-0.518-0.073
				l-2.295-4.004c-0.072-0.128-0.206-0.205-0.353-0.205h-1.618c-0.146,0-0.28,0.078-0.353,0.205l-2.296,4.004L30.936,38.181z
				 M32.06,38.685l2.277-3.971h1.145l2.276,3.971c0.063,0.109,0.172,0.185,0.296,0.201l0.377,0.055
				c-0.002,0.241-0.028,0.56-0.113,0.852c-0.094-0.013-0.198-0.022-0.312-0.022c-0.352,0-0.664,0.086-0.929,0.254
				c-0.433,0.275-1.328,0.598-1.789,0.683H34.53c-0.46-0.084-1.357-0.407-1.79-0.683c-0.265-0.168-0.577-0.254-0.928-0.254
				c-0.113,0-0.219,0.01-0.313,0.022c-0.089-0.302-0.111-0.624-0.113-0.852l0.376-0.055C31.889,38.869,31.998,38.794,32.06,38.685z"
				/>
			<path d="M41.133,32.108l-0.283,0.678l-0.156-0.678l-0.271,0.651c-0.006-0.001-0.012-0.002-0.018-0.002l-0.15-0.649l-0.263,0.63
				c-0.009,0-0.021,0.001-0.031,0.001l-0.146-0.631l-0.275,0.661c-0.358,0.041-0.736,0.117-1.074,0.2
				c-0.599,0.147-1.069,0.311-1.069,0.311s0.523-0.023,1.256-0.045c0.132,0.215,0.476,0.641,1.155,0.691
				c0,0,0.762-0.062,1.044-0.732c0.481-0.001,0.944,0.003,1.334,0.019c0,0-0.36-0.152-0.864-0.285L41.133,32.108z"/>
			<polygon points="30.169,43.18 30.578,43.859 34.141,43.238 34.99,43.748 36.675,43.259 39.679,43.859 39.815,43.316 
				35.333,41.958 			"/>
			<polygon points="33.837,46.305 35.739,47.663 37.099,45.897 35.604,46.577 			"/>
			<polygon points="31.053,44.063 31.8,45.219 32.785,45.26 32.785,45.065 37.88,45.065 37.88,45.262 38.592,45.219 39.204,44.063 
				35.536,45.015 			"/>
		</g>
	</g>
</g>
</svg>
