<?xml version="1.0" encoding="utf-8"?>
<!-- Generator: Adobe Illustrator 16.0.0, SVG Export Plug-In . SVG Version: 6.00 Build 0)  -->
<!DOCTYPE svg PUBLIC "-//W3C//DTD SVG 1.1 Basic//EN" "http://www.w3.org/Graphics/SVG/1.1/DTD/svg11-basic.dtd">
<svg version="1.1" baseProfile="basic" id="Слой_1"
	 xmlns="http://www.w3.org/2000/svg" xmlns:xlink="http://www.w3.org/1999/xlink" x="0px" y="0px" width="70px" height="70px"
	 viewBox="0 0 70 70" xml:space="preserve">
<g>
	<g>
		<g>
			<g>
				<g>
					<g>
						<g>
							<g>
								<g>
									<g>
										<g>
											<g>
												<g>
													<g>
														<g>
															<g>
																<g>
																	<g>
																		<g>
																			<circle fill="#FFFFFF" cx="35" cy="35" r="35"/>
																		</g>
																	</g>
																</g>
															</g>
														</g>
													</g>
												</g>
											</g>
										</g>
									</g>
								</g>
							</g>
						</g>
					</g>
				</g>
			</g>
		</g>
	</g>
	<g>
		<path opacity="0.2" fill="#020202" d="M45.962,28c-0.109-0.106-0.251-0.153-0.401-0.131c-0.386,0.055-0.882,0.42-1.276,0.768
			l-0.017-1.686c0.055-0.385,0.479-5.675-1.795-8.325c-1.559-1.815-4.001-2.743-7.259-2.758v0.229v29.236l-2.405-0.528l-4.057-3.059
			c0,0,0.396,6.978,6.917,6.806c4.595-0.12,6.091-4.667,6.575-7.343c0.446-0.607,0.886-1.293,1.3-2.076
			c0.396-0.746,0.577-2.602,0.654-3.792c0.101,0.035,0.216,0.062,0.349,0.074c0.038,0.004,0.074,0.005,0.109,0.005
			c0.254,0,0.48-0.084,0.662-0.249c0.548-0.5,0.548-1.609,0.548-2.5c0-0.302,0.067-0.869,0.139-1.47
			C46.238,29.232,46.305,28.335,45.962,28z"/>
		<g>
			<path fill="#020202" d="M32.727,27.479l-0.473,0.558l-0.386-0.515c-2.788,0.472-3.561,1.158-3.561,1.158l4.162-0.257
				L32.727,27.479z"/>
			<path fill="#020202" d="M37.874,28.037l-0.472-0.558l0.257,0.944l4.162,0.257c0,0-0.772-0.686-3.561-1.158L37.874,28.037z"/>
			<path fill="#020202" d="M33.287,38.511c-0.669,0-0.964-0.567-0.964-0.567c0,0.984,0.803,0.945,0.803,0.945h2.062h0.053h2.063
				c0,0,0.803,0.038,0.803-0.945c0,0-0.294,0.567-0.964,0.567c-0.657,0-1.442-0.183-1.927-0.116
				C34.73,38.327,33.944,38.511,33.287,38.511z"/>
			<path fill="#020202" d="M36.782,40.985h-2.937C35.18,42.621,36.782,40.985,36.782,40.985z"/>
			<path fill="#020202" d="M38.232,33.34c-0.054-0.085-0.141-0.142-0.239-0.158l-0.562-0.086l-0.062-0.136
				c-0.531-1.154-0.882-1.899-1.186-2.297l0.837-1.828l-0.623-0.286l-0.93,2.03c-0.063,0.136-0.03,0.297,0.082,0.397
				c0.26,0.236,0.715,1.224,1.198,2.27l0.14,0.304c0.047,0.104,0.146,0.178,0.259,0.195l0.586,0.09
				c0.121,0.201,0.267,0.46,0.382,0.694c-0.734,0.002-2.033,0.125-2.882,0.878c-0.828-0.739-2.018-0.871-2.71-0.877
				c0.123-0.25,0.278-0.521,0.386-0.702l0.425-0.085c0.107-0.021,0.198-0.093,0.245-0.192c0.23-0.499,0.414-0.955,0.576-1.357
				c0.224-0.554,0.435-1.077,0.589-1.216c0.102-0.093,0.139-0.238,0.093-0.369l-0.719-2.03l-0.647,0.229l0.653,1.843
				c-0.196,0.275-0.369,0.701-0.605,1.286c-0.142,0.352-0.301,0.745-0.491,1.167l-0.399,0.08c-0.093,0.019-0.173,0.075-0.224,0.155
				c-0.062,0.098-0.604,0.975-0.729,1.472c-0.027,0.109,0.001,0.224,0.075,0.309c0.074,0.085,0.185,0.127,0.297,0.116
				c0.018-0.002,1.848-0.199,2.808,0.759c0.063,0.065,0.152,0.1,0.243,0.1h0.27c0.092,0,0.179-0.034,0.243-0.1
				c0.957-0.957,2.962-0.762,2.983-0.759c0.111,0.012,0.222-0.032,0.295-0.117c0.072-0.084,0.101-0.199,0.073-0.308
				C38.837,34.315,38.293,33.438,38.232,33.34z"/>
			<path fill="#020202" d="M45.962,28c-0.109-0.106-0.251-0.153-0.401-0.131c-0.386,0.055-0.882,0.42-1.276,0.768l-0.017-1.686
				c0.029-0.21,0.169-1.889-0.081-3.799c-0.137-3.429-1.915-5.548-3.932-6.85l-0.518-1.943l-2.175,0.572l-1.601-1.602l-1.33,1.108
				h-0.078l-1.566-1.566l-1.242,1.492l-2.762,0.224l-0.558,2.492c-1.708,1.456-3.02,3.652-2.884,6.957l0.384,3.421l-0.013,1.315
				c-0.462-0.379-1.1-0.842-1.533-0.904c-0.152-0.022-0.298,0.028-0.403,0.138c-0.304,0.32-0.191,1.082,0.159,2.874
				c0.138,0.709,0.281,1.441,0.281,1.789c0,0.132-0.002,0.271-0.005,0.414c-0.018,0.824-0.035,1.676,0.42,2.1
				c0.119,0.111,0.32,0.235,0.625,0.235c0.035,0,0.07-0.001,0.106-0.005c0.144-0.013,0.265-0.044,0.372-0.083
				c0.099,0.909,0.272,2.214,0.525,3.111H26.44l-0.789,12.695c-0.005,0.096,0.028,0.188,0.092,0.257
				c0.065,0.069,0.155,0.108,0.25,0.108h18.361c0.098,0,0.19-0.041,0.255-0.113c0.065-0.072,0.097-0.168,0.087-0.265l-1.201-11.897
				h-0.005c0.017-0.032,0.036-0.063,0.052-0.094c0.396-0.746,0.577-2.603,0.655-3.794c0.101,0.036,0.216,0.063,0.349,0.075
				c0.036,0.004,0.073,0.006,0.109,0.006c0.253,0,0.48-0.085,0.661-0.249c0.548-0.5,0.548-1.609,0.548-2.5
				c0-0.302,0.068-0.869,0.139-1.47C46.238,29.232,46.305,28.335,45.962,28z M43.634,50.814H26.36l0.688-11.083
				c2.911,5.031,6.593,5.836,6.755,5.869c0.006,0.001,0.012,0.002,0.018,0.003l1.089,0.162c0.034,0.01,0.068,0.015,0.104,0.015
				c0.009,0,0.017,0,0.025-0.001h0.006h0.006c0.042,0.004,0.083-0.002,0.122-0.014l1.11-0.164c0.156-0.031,3.506-0.733,6.329-4.914
				L43.634,50.814z M45.324,31.119c-0.077,0.648-0.145,1.208-0.145,1.551c0,0.634,0,1.697-0.323,1.992
				c-0.042,0.039-0.107,0.082-0.246,0.068c-0.175-0.016-0.295-0.069-0.369-0.161c0.007-0.128,0.01-0.22,0.012-0.267
				c0.002-0.099,0.035-0.602-0.384-0.597c-0.19,0.002-0.783-0.026-0.665,1.02c-0.061,1.202-0.413,3.395-0.779,4.085
				c-0.81,1.527-1.674,2.679-2.492,3.55c0.383-2.119,0.173-4.915,0.173-4.915l-1.256-1.497c-1.077-0.359-3.584,0.499-3.584,0.499
				s1.521-0.141,2.598-0.23c1.076-0.09,1.885,1.768,1.885,1.768l-0.629,4.964c-0.269,0.718-3.321,1.614-3.321,1.614h-1.115
				c0,0-3.052-0.896-3.321-1.614l-0.628-5.021c0,0,0.808-1.8,1.884-1.71c1.077,0.09,2.556,0.229,2.556,0.229s-2.466-0.857-3.543-0.5
				l-1.257,1.44c0,0-0.267,3.609,0.354,5.751c-1.102-0.922-2.329-2.294-3.407-4.327c-0.368-0.692-0.671-4.782-0.68-4.829
				c-0.033-0.186-0.213-0.31-0.399-0.276c-0.16,0.029-0.481,0.095-0.406,0.613c0.008,0.046,0.012,0.137,0.023,0.261
				c-0.074,0.086-0.191,0.136-0.358,0.151c-0.139,0.014-0.183-0.03-0.203-0.049c-0.229-0.214-0.213-1.006-0.201-1.583
				c0.002-0.147,0.006-0.292,0.006-0.428c0-0.414-0.142-1.146-0.294-1.92c-0.128-0.655-0.328-1.683-0.327-2.133
				c0.407,0.193,1.081,0.737,1.502,1.13c0.139,0.129,0.356,0.121,0.485-0.017c0.1-0.107,0.123-0.384,0.123-0.384l0.024-2.415
				c0-0.023-0.001-0.046-0.006-0.07c-0.001-0.004-0.014-0.119-0.029-0.314l0.425-3.059c0,0-0.246-1.217-0.204-2.425
				c0.143-0.743,0.764-2.167,0.829-2.207c1.346-0.832,1.236,0.003,7.235-0.112c5.998,0.116,5.888-0.719,7.234,0.112
				c0.028,0.018,0.055,0.039,0.082,0.058c0.342,0.659,0.582,1.437,0.75,2.246c0.025,1.175-0.207,2.329-0.207,2.329l0.51,3.67
				c-0.008,0.652-0.019,2.495,0.082,2.589c0.14,0.129,0.699,0.121,0.829-0.018c0.358-0.386,0.806-0.434,1.181-0.612
				C45.395,29.591,45.411,30.38,45.324,31.119z"/>
			<path fill="#020202" d="M30.312,29.419c-1.342,0.271-1.614,1.134-1.614,1.134s0.314-0.178,1.149-0.273
				c-0.036,0.078-0.058,0.162-0.058,0.251c0,0.38,0.371,0.688,0.828,0.688s0.829-0.308,0.829-0.688c0-0.07-0.016-0.137-0.04-0.2
				c0.653,0.166,1.011,0.478,1.011,0.478C31.764,29.298,30.312,29.419,30.312,29.419z"/>
			<path fill="#020202" d="M39.866,29.419c0,0-1.451-0.121-2.105,1.389c0,0,0.359-0.312,1.012-0.478
				c-0.023,0.064-0.039,0.13-0.039,0.2c0,0.38,0.37,0.688,0.827,0.688c0.458,0,0.829-0.309,0.829-0.688
				c0-0.089-0.022-0.174-0.059-0.251c0.835,0.094,1.15,0.273,1.15,0.273S41.208,29.69,39.866,29.419z"/>
		</g>
	</g>
</g>
</svg>
