<?xml version="1.0" encoding="utf-8"?>
<!-- Generator: Adobe Illustrator 16.0.0, SVG Export Plug-In . SVG Version: 6.00 Build 0)  -->
<!DOCTYPE svg PUBLIC "-//W3C//DTD SVG 1.1 Basic//EN" "http://www.w3.org/Graphics/SVG/1.1/DTD/svg11-basic.dtd">
<svg version="1.1" baseProfile="basic" id="Слой_1"
	 xmlns="http://www.w3.org/2000/svg" xmlns:xlink="http://www.w3.org/1999/xlink" x="0px" y="0px" width="125px" height="125px"
	 viewBox="0 0 125 125" xml:space="preserve">
<g>
	<g>
		<g>
			<g>
				<g>
					<g>
						<circle fill="#FFFFFF" cx="62.5" cy="62.5" r="62.5"/>
					</g>
				</g>
			</g>
		</g>
	</g>
	<g>
		<g>
			<path d="M57.83,46.619l-0.969,1.146l-0.793-1.058c-5.727,0.969-5.903,2.379-5.903,2.379l7.136-0.529L57.83,46.619z"/>
			<path d="M69.195,46.707l-0.794,1.058l-0.969-1.146l0.529,1.938l7.136,0.529C75.098,49.085,74.921,47.675,69.195,46.707z"/>
			<path d="M57.574,69.206c-1.902,0-2.74-1.166-2.74-1.166c0,2.021,2.285,1.943,2.285,1.943h5.861h0.151h5.862
				c0,0,2.283,0.078,2.283-1.943c0,0-0.837,1.166-2.74,1.166c-1.869,0-4.104-0.374-5.481-0.239
				C61.678,68.832,59.444,69.206,57.574,69.206z"/>
			<path d="M66.161,74.354h-6.032C62.872,77.715,66.161,74.354,66.161,74.354z"/>
			<path d="M69.755,58.743c-0.115-0.183-0.309-0.305-0.524-0.328l-1.832-0.193l-0.119-0.257c-1.091-2.37-1.811-3.901-2.434-4.718
				l1.717-3.753l-1.281-0.585l-1.908,4.168c-0.128,0.28-0.061,0.61,0.168,0.816c0.534,0.484,1.469,2.514,2.458,4.662l0.286,0.623
				c0.104,0.225,0.319,0.379,0.566,0.405l1.885,0.199c0.246,0.411,0.54,0.935,0.772,1.407c-1.676-0.011-4.795,0.209-6.62,1.805
				h-0.003c-1.826-1.597-4.954-1.814-6.621-1.805c0.244-0.498,0.551-1.036,0.773-1.407l1.885-0.199
				c0.247-0.026,0.462-0.18,0.566-0.405c0.472-1.024,0.849-1.958,1.182-2.784c0.459-1.139,0.894-2.214,1.21-2.5
				c0.21-0.191,0.287-0.49,0.191-0.758l-1.477-4.169l-1.328,0.471l1.341,3.786c-0.404,0.563-0.759,1.442-1.245,2.644
				c-0.286,0.71-0.606,1.504-0.989,2.356l-1.832,0.193c-0.215,0.022-0.409,0.145-0.524,0.328c-0.126,0.202-1.24,2.004-1.496,3.021
				c-0.055,0.222,0,0.457,0.149,0.63c0.148,0.173,0.373,0.262,0.599,0.244c0.048-0.005,4.868-0.412,6.838,1.559
				c0.132,0.132,0.312,0.206,0.498,0.206h0.559c0.188,0,0.366-0.074,0.498-0.206c1.971-1.97,6.79-1.563,6.84-1.559
				c0.228,0.02,0.45-0.071,0.599-0.244c0.147-0.173,0.203-0.407,0.147-0.629C70.996,60.747,69.881,58.945,69.755,58.743z"/>
			<path d="M57.045,52.596c0-0.728-0.477-1.338-1.133-1.554c0.478,0.084,0.976,0.236,1.485,0.484
				c0.088,0.042,0.193,0.005,0.235-0.083c0.043-0.087,0.007-0.193-0.081-0.235c-3.294-1.598-6.136,0.487-6.164,0.507
				c-0.078,0.059-0.093,0.169-0.036,0.247c0.035,0.046,0.088,0.07,0.142,0.07c0.037,0,0.074-0.011,0.105-0.035
				c0.02-0.016,1.562-1.144,3.659-1.032c-0.839,0.074-1.501,0.77-1.501,1.63c0,0.908,0.737,1.645,1.645,1.645
				S57.045,53.504,57.045,52.596z"/>
			<path d="M68.174,51.208c-0.088,0.042-0.124,0.148-0.082,0.235c0.043,0.088,0.148,0.125,0.236,0.083
				c0.508-0.247,1.005-0.4,1.481-0.483c-0.654,0.216-1.129,0.826-1.129,1.553c0,0.908,0.735,1.645,1.645,1.645
				c0.907,0,1.645-0.736,1.645-1.645c0-0.858-0.659-1.554-1.498-1.629c2.094-0.109,3.634,1.016,3.654,1.032
				c0.031,0.023,0.068,0.035,0.105,0.035c0.054,0,0.106-0.024,0.142-0.07c0.058-0.079,0.043-0.188-0.036-0.247
				C74.309,51.695,71.468,49.61,68.174,51.208z"/>
			<path d="M85.011,47.686c-0.224-0.218-0.516-0.314-0.823-0.27c-0.793,0.113-1.811,0.864-2.622,1.578l-0.034-3.463
				c0.073-0.521,0.477-3.885-0.593-7.674C78.655,27.499,68.191,24.292,63.417,23.36h-2.386c-5.498,1.073-18.548,5.157-17.954,19.711
				l0.774,4.771l-0.014,1.431c-0.948-0.779-2.258-1.73-3.147-1.857c-0.312-0.045-0.613,0.059-0.828,0.284
				c-0.624,0.658-0.393,2.222,0.326,5.902c0.284,1.455,0.578,2.961,0.578,3.674c0,0.272-0.006,0.558-0.012,0.85
				c-0.035,1.693-0.071,3.443,0.863,4.313c0.244,0.228,0.658,0.483,1.284,0.483c0.07,0,0.144-0.004,0.219-0.01
				c0.296-0.027,0.545-0.09,0.764-0.171c0.203,1.867,0.559,4.546,1.078,6.389l-0.036-0.002l-1.62,26.073
				c-0.012,0.193,0.057,0.385,0.19,0.525c0.133,0.142,0.319,0.222,0.514,0.222h37.707c0.199,0,0.389-0.084,0.521-0.23
				c0.135-0.148,0.2-0.347,0.18-0.544L79.949,70.74l-0.009,0.001c0.035-0.066,0.071-0.128,0.106-0.194
				c0.813-1.53,1.184-5.341,1.345-7.789c0.207,0.073,0.441,0.129,0.715,0.154c0.076,0.006,0.152,0.01,0.226,0.01
				c0.521,0,0.987-0.175,1.358-0.513c1.125-1.025,1.125-3.303,1.125-5.133c0-0.62,0.139-1.784,0.284-3.018
				C85.58,50.219,85.717,48.376,85.011,47.686z M80.23,94.539H44.758l1.414-22.76c5.977,10.332,13.538,11.986,13.869,12.054
				c0.013,0.002,0.025,0.005,0.039,0.006l2.237,0.331c0.067,0.021,0.14,0.032,0.212,0.032c0.017,0,0.034-0.001,0.051-0.002
				l0.01-0.001l0.013,0.001c0.086,0.006,0.17-0.003,0.25-0.028l2.282-0.338c0.32-0.063,7.2-1.506,12.995-10.092L80.23,94.539z
				 M83.7,54.093c-0.158,1.331-0.295,2.48-0.295,3.183c0,1.304,0,3.485-0.665,4.091c-0.087,0.08-0.222,0.168-0.504,0.141
				c-0.359-0.033-0.607-0.141-0.759-0.332c0.012-0.262,0.018-0.452,0.021-0.548c0.008-0.204,0.074-1.236-0.786-1.226
				c-0.391,0.005-1.606-0.054-1.365,2.095c-0.125,2.467-0.848,6.97-1.603,8.39c-1.68,3.167-3.473,5.55-5.17,7.345
				c0.859-4.907,0.409-12.12,0.409-12.12l-2.58-1.105c-2.211-0.737-7.372,1.04-7.372,1.04s3.134-0.303,5.345-0.486
				c2.212-0.185,3.871,1.658,3.871,1.658l-0.917,8.637c-0.47,0.405-0.99,0.82-1.57,1.23c0.112,0.604,0.351,2.046,0.311,3.183
				c-0.353,0.233-0.781,0.464-1.248,0.686v-3.247c-0.651,0.407-1.361,0.798-2.131,1.154l-0.101,3.016
				c-0.44,0.163-0.858,0.309-1.22,0.429l0.077-2.921c-0.816,0.311-1.687,0.58-2.617,0.789h-0.013
				c-0.931-0.209-1.802-0.479-2.617-0.789l0.074,2.806c-0.375-0.128-0.791-0.276-1.221-0.439l-0.097-2.89
				c-0.769-0.356-1.479-0.747-2.131-1.154v3.083c-0.493-0.251-0.928-0.51-1.252-0.768c-0.003-1.091,0.21-2.375,0.315-2.937
				c-0.431-0.305-0.832-0.612-1.202-0.917l-0.95-8.95c0,0,1.658-1.843,3.87-1.658c2.211,0.184,5.345,0.486,5.345,0.486
				s-5.161-1.777-7.372-1.04l-2.58,1.105c0,0-0.558,8.941,0.758,13.687c-2.271-1.893-4.804-4.717-7.028-8.911
				c-0.754-1.424-1.377-9.821-1.396-9.917c-0.069-0.383-0.438-0.635-0.819-0.567c-0.33,0.059-0.988,0.196-0.832,1.259
				c0.013,0.094,0.022,0.281,0.045,0.537c-0.152,0.176-0.392,0.279-0.737,0.311c-0.284,0.029-0.375-0.063-0.415-0.1
				c-0.473-0.441-0.439-2.066-0.415-3.252c0.006-0.302,0.012-0.599,0.012-0.879c0-0.85-0.293-2.353-0.604-3.944
				c-0.262-1.344-0.676-3.456-0.671-4.38c0.835,0.396,2.219,1.512,3.084,2.32c0.285,0.266,0.731,0.25,0.996-0.035
				c0.205-0.22,0.254-0.788,0.254-0.788l0.043-4.339l0.805-4.166c0,0-0.66-3.272-0.341-6.048c0.271-1.056,0.644-2.098,1.145-3.071
				c0.144-0.152,0.304-0.285,0.481-0.394c2.763-1.708,2.538,0.007,14.856-0.23c12.317,0.237,12.092-1.478,14.856,0.23
				c0.095,0.058,0.183,0.124,0.268,0.195c0.612,1.108,1.061,2.31,1.384,3.521c0.254,2.718-0.367,5.797-0.367,5.797l1.037,5.363
				c-0.004,1.641,0.021,3.821,0.177,3.966c0.286,0.265,1.437,0.248,1.701-0.037c0.736-0.793,1.657-0.89,2.427-1.257
				C83.847,50.955,83.88,52.576,83.7,54.093z"/>
		</g>
		<path opacity="0.2" fill="#020202" d="M85.011,47.686c-0.224-0.218-0.516-0.314-0.823-0.27c-0.793,0.113-1.811,0.864-2.622,1.578
			l-0.034-3.463c0.11-0.791,0.984-8.129-3.686-13.57c-3.201-3.729-8.216-5.632-14.907-5.665v1.41v56.16l-8.542-3.956l-5.322-4.82
			c0,0,1.41,15.152,14.8,14.801c9.438-0.248,12.509-9.585,13.501-15.079c0.918-1.247,1.818-2.657,2.671-4.265
			c0.813-1.53,1.184-5.341,1.345-7.789c0.207,0.073,0.441,0.129,0.715,0.154c0.076,0.006,0.152,0.01,0.226,0.01
			c0.521,0,0.987-0.175,1.358-0.513c1.125-1.025,1.125-3.303,1.125-5.133c0-0.62,0.139-1.784,0.284-3.018
			C85.58,50.219,85.717,48.376,85.011,47.686z"/>
	</g>
</g>
</svg>
