<?xml version="1.0" encoding="utf-8"?>
<!-- Generator: Adobe Illustrator 16.0.0, SVG Export Plug-In . SVG Version: 6.00 Build 0)  -->
<!DOCTYPE svg PUBLIC "-//W3C//DTD SVG 1.1 Basic//EN" "http://www.w3.org/Graphics/SVG/1.1/DTD/svg11-basic.dtd">
<svg version="1.1" baseProfile="basic" id="Слой_1"
	 xmlns="http://www.w3.org/2000/svg" xmlns:xlink="http://www.w3.org/1999/xlink" x="0px" y="0px" width="125px" height="125px"
	 viewBox="0 0 125 125" xml:space="preserve">
<g>
	<g>
		<g>
			<g>
				<g>
					<g>
						<g>
							<g>
								<g>
									<g>
										<circle fill="#FFFFFF" cx="62.408" cy="62.5" r="62.5"/>
									</g>
								</g>
							</g>
						</g>
					</g>
				</g>
			</g>
		</g>
	</g>
	<g>
		<g>
			<path fill="#020202" d="M88.907,36.761c0,0-5.477-6.075-5.477-8.032l-1.824-6.206l-10.718,0.935l1.601-1.423l-13.161,0.711
				l-3.913,1.423l1.956-2.667c0,0-3.379,1.067-7.114,3.202c-3.734,2.134-5.523,6.216-5.523,6.216l-3.643,12.537
				c-1.019-0.295-2.115,0-3.255,0.879c-3.656,2.812-1.25,11.951,0.183,14.341c0.413,0.687,0.717,1.477,1.011,2.24
				c0.441,1.144,0.956,2.468,1.923,3.04l-3.206,15.319l0.19,0.262c0.558,0.77,13.843,18.879,29.615,22.913l0.728,0.187l3.407-15.139
				l7.988-1.043l3.48-20.39l0.6-1.271l0.024-0.004c0.222-0.033,0.414-0.166,0.526-0.36c0.11-0.194,0.127-0.428,0.042-0.636
				l-0.058-0.142l2.812-5.973l-0.99-6.444l0.497-3.743l-6.054-14.532C82.484,34.489,86.43,37.283,88.907,36.761z M66.232,100.495
				c-13.966-4-25.257-19.354-26.922-21.559l3.082-14.721c0.153-0.023,0.311-0.055,0.479-0.105c1.416-0.424,2.421-1.081,3.059-1.608
				l4.275,10.351l17.414,15.176l1.461-0.19L66.232,100.495z M83.576,61.877l-5.92-14.681c-0.111-0.276-0.379-0.457-0.677-0.457
				H74.57c-0.393,0-0.714,0.309-0.729,0.701l-0.504,12.602l-1.631-0.181c-0.206-0.024-0.412,0.043-0.567,0.182
				c-0.155,0.138-0.243,0.336-0.243,0.543v3.479c0,0.223,0.101,0.432,0.273,0.57s0.399,0.191,0.614,0.143l2.41-0.534
				c0.235-0.054,0.477-0.08,0.718-0.08c1.624,0,2.865,1.196,2.893,1.223c0.138,0.138,0.322,0.212,0.514,0.212
				c0.036,0,0.073-0.002,0.108-0.008l2.888-0.434l-0.159,0.181l-3.408,19.713l-9.663,1.443L51.424,71.979l-4.559-11.036
				l-0.485-1.165l-0.771,1.003c-0.01,0.012-1.01,1.288-3.157,1.932c-0.104,0.031-0.2,0.05-0.292,0.059
				c-0.061-0.033-0.125-0.061-0.197-0.076c-0.092-0.019-0.183-0.018-0.27-0.003c-0.436-0.225-0.767-0.915-1.301-2.301
				c-0.302-0.783-0.644-1.67-1.121-2.467c-1.488-2.479-3.179-10.406-0.546-12.432c0.75-0.577,1.389-0.59,1.955-0.636
				c3.358-0.266,6.98,10.637,7.087,11.327l-0.122-8.551l6.945-5.032l-0.009-6.01l2.435,0.3c0,0,10.406-3.065,14.732-4.147
				c2.74-0.684,4.597-0.888,5.796-0.911l6.076,13.276l-2.993,0.291l-1.217,1.826l5.134-0.099l0.26,0.566l-0.047,0.997l-4.235-0.066
				c-0.005,0-0.008,0-0.012,0c-0.398,0-0.724,0.32-0.73,0.719c-0.002,0.144,0.04,0.279,0.11,0.394
				c-0.018,0.166-0.018,0.366,0.011,0.621c0.078,0.685,0.655,1.247,1.46,1.247c0.807,0,1.342-0.569,1.461-1.247
				c0.016-0.086,0.025-0.162,0.034-0.238l0.978,0.015c0.099,0.295,0.378,0.497,0.692,0.497c0.03,0,0.061-0.001,0.092-0.005
				c0.016-0.002,0.032-0.008,0.049-0.011l-0.03,0.633l0.532,6.18L83.576,61.877z M82.649,63.483l-4.104,0.614
				c-0.566-0.464-1.913-1.392-3.635-1.392c-0.348,0-0.695,0.038-1.034,0.112l-1.521,0.338v-1.753l1.598,0.178
				c0.201,0.024,0.403-0.04,0.557-0.172c0.154-0.131,0.246-0.322,0.254-0.524L75.271,48.2h1.215L82.649,63.483z"/>
			<path fill="#020202" d="M66.029,71.687l3.164,0.365l2.819-1.322l0.873-0.198c1.294,0.861,3.665,0,3.665,0l1.988,0.131
				l-1.988-2.72l-2.156,1.51l-2.155-1.293l-3.691,3.225L66.029,71.687z"/>
			<path fill="#020202" d="M74.792,74.119c-1.704-0.243-4.991,1.704-4.991,1.704l7.546-0.243
				C77.347,75.58,76.495,74.362,74.792,74.119z"/>
			<polygon fill="#020202" points="60.981,45.339 58.36,49.539 61.71,47.53 72.354,47.835 71.502,46.009 			"/>
			<path fill="#020202" d="M66.882,50.359c0.019-0.099,0.03-0.188,0.039-0.274h2.272c0.403,0,0.73-0.326,0.73-0.73
				c0-0.403-0.327-0.73-0.73-0.73h-6.652l-2.393,1.995c-0.31,0.258-0.352,0.718-0.094,1.028c0.145,0.173,0.352,0.262,0.562,0.262
				c0.165,0,0.33-0.055,0.467-0.169l1.988-1.656h0.869c0.004,0.084,0.011,0.176,0.021,0.274c0.077,0.685,0.655,1.247,1.461,1.247
				C66.229,51.606,66.763,51.038,66.882,50.359z"/>
		</g>
		<g>
			<polygon opacity="0.2" points="56.086,76.78 62.171,99.657 67.733,101.743 71.418,86.271 67.851,87.263 			"/>
			<polygon opacity="0.2" points="85.374,51.242 85.86,47.592 77.746,27.859 73.122,31.023 75.069,47.086 74.57,47.47 
				80.365,64.201 78.317,64.871 74.035,63.532 74.582,69.965 75.51,70.74 73.046,75.029 74.826,86.271 79.046,85.803 82.613,66.8 
				86.347,57.57 			"/>
		</g>
	</g>
</g>
</svg>
