<?xml version="1.0" encoding="utf-8"?>
<!-- Generator: Adobe Illustrator 16.0.0, SVG Export Plug-In . SVG Version: 6.00 Build 0)  -->
<!DOCTYPE svg PUBLIC "-//W3C//DTD SVG 1.1 Basic//EN" "http://www.w3.org/Graphics/SVG/1.1/DTD/svg11-basic.dtd">
<svg version="1.1" baseProfile="basic" id="Слой_1"
	 xmlns="http://www.w3.org/2000/svg" xmlns:xlink="http://www.w3.org/1999/xlink" x="0px" y="0px" width="125px" height="125px"
	 viewBox="0 0 125 125" xml:space="preserve">
<g>
	<g>
		<g>
			<g>
				<g>
					<g>
						<g>
							<g>
								<g>
									<circle fill="#FFFFFF" cx="62.501" cy="62.5" r="62.5"/>
								</g>
							</g>
						</g>
					</g>
				</g>
			</g>
		</g>
	</g>
	<g>
		<g>
			<path opacity="0.2" fill="#020202" d="M84.526,52.837c-0.217-0.213-0.504-0.308-0.803-0.264c-0.775,0.11-1.678,0.178-2.471,0.876
				l-0.035-3.384c0.109-0.773,0.963-7.944-3.6-13.261c-3.129-3.644-8.029-5.504-14.568-5.536v1.378v55.166L49.627,79.7
				c0,0,0.565,18.769,11.585,19.457h18.94l-1.551-22.615c0.398-0.64,0.787-1.315,1.166-2.031c0.795-1.495,1.156-5.219,1.314-7.61
				c0.203,0.07,0.432,0.124,0.699,0.149c0.074,0.007,0.146,0.011,0.219,0.011c0.51,0,0.965-0.171,1.328-0.501
				c1.1-1.002,1.1-3.229,1.1-5.017c0-0.605,0.135-1.744,0.277-2.949C85.175,54.646,85.216,53.511,84.526,52.837z"/>
		</g>
		<g>
			<path d="M65.841,69.284l-3.617,1.206l-1.55-1.033l-5.223,1.664c1.178,4.71,6.119,5.504,7.138,5.616h0.188
				c0.992-0.11,5.902-1.173,7.25-5.567l0.635-0.508L65.841,69.284z M69.331,71.462c-1.281,0.988-3.912,2.723-6.555,2.669v-0.004
				c-0.031,0.002-0.188,0.004-0.188,0.004c-2.197,0.046-4.311-1.032-5.66-1.911l0.112-1.28l2.428-0.277l2.755,1.206l3.96-1.378
				l3.127,0.12L69.331,71.462z"/>
			<path d="M56.361,55.88c0-0.189-0.037-0.369-0.091-0.54h1.467v-1.377h-6.888v1.377h1.989c-0.055,0.171-0.092,0.351-0.092,0.54
				c0,0.998,0.811,1.808,1.807,1.808C55.553,57.688,56.361,56.878,56.361,55.88z"/>
			<path d="M83.724,52.573c-0.076,0.011-0.152,0.021-0.229,0.031l1.357-3.003l3.648,2.526l-5.475-8.265c0,0,0.457-4.132,4.563-0.689
				c0,0-0.229-5.28-4.789-5.969c0,0-1.707-13.464-13.457-11.709c-1.877,0.28-4.488,1.258-6.154,3.298
				c-1.666-2.04-5.654-3.018-7.53-3.298c-11.75-1.755-13.457,11.709-13.457,11.709c-4.561,0.688-4.789,5.969-4.789,5.969
				c4.105-3.443,4.562,0.689,4.562,0.689L36.5,52.127l3.649-2.526l1.405,3.11c-0.242,0.007-0.47,0.103-0.64,0.282
				c-0.61,0.643-0.799,1.363-0.097,4.959c0.278,1.422,0.565,2.893,0.565,3.591c0,0.265-0.005,0.545-0.012,0.83
				c-0.034,1.653-0.07,3.364,0.843,4.215c0.238,0.222,0.642,0.472,1.255,0.472c0.068,0,0.141-0.003,0.214-0.01
				c0.288-0.026,0.532-0.089,0.746-0.167c0.198,1.823,0.546,4.442,1.053,6.243l-0.035-0.002l-1.583,25.479
				c-0.013,0.19,0.055,0.376,0.185,0.515c0.13,0.138,0.312,0.217,0.501,0.217h36.849c0.193,0,0.379-0.082,0.51-0.226
				c0.131-0.146,0.193-0.339,0.176-0.532l-2.412-23.877L79.665,74.7c0.035-0.063,0.068-0.125,0.104-0.189
				c0.795-1.495,1.156-5.219,1.314-7.61c0.203,0.07,0.432,0.124,0.699,0.149c0.074,0.007,0.146,0.011,0.219,0.011
				c0.51,0,0.965-0.171,1.328-0.501c1.1-1.002,1.1-3.229,1.1-5.017c0-0.605,0.135-1.744,0.277-2.949
				c0.469-3.948,0.51-5.083-0.18-5.757C84.31,52.624,84.022,52.529,83.724,52.573z M79.948,97.957H45.284l1.381-22.241
				c2.752,4.757,5.846,7.631,8.384,9.347l0.564,3.166l7.255,2.409l6.949-1.979l0.924-3.723c2.203-1.477,4.771-3.771,7.154-7.303
				L79.948,97.957z M83.339,58.432c-0.154,1.301-0.287,2.424-0.287,3.111c0,1.274,0,3.406-0.652,3.997
				c-0.084,0.078-0.215,0.164-0.492,0.138c-0.352-0.032-0.592-0.139-0.74-0.323c0.01-0.256,0.018-0.442,0.02-0.536
				c0.008-0.199,0.072-1.209-0.768-1.198c-0.383,0.005-1.57-0.053-1.336,2.046c-0.121,2.412-0.828,6.812-1.564,8.199
				c-1.898,3.579-3.945,6.138-5.824,7.96l-8.436,3.361l-10.764-4.06c-1.771-1.763-3.615-4.117-5.283-7.262
				c-0.738-1.391-1.347-9.596-1.365-9.69c-0.067-0.375-0.427-0.621-0.8-0.555c-0.321,0.059-0.966,0.19-0.813,1.229
				c0.014,0.092,0.022,0.275,0.044,0.524c-0.149,0.172-0.383,0.273-0.72,0.304c-0.277,0.029-0.366-0.06-0.405-0.098
				c-0.461-0.43-0.43-2.019-0.405-3.179c0.006-0.295,0.012-0.584,0.012-0.858c0-0.831-0.287-2.3-0.59-3.855
				c-0.256-1.313-0.246-2.569-0.241-3.471c0.224,0.106,0.458,0.205,0.697,0.309l2.771,2.192c0,0,0.572-4.841,0.67-6.833
				c0.247-5.05,1.634-12.168,6.214-15.033c1.741-1.089,3.966-1.629,6.465-1.957c1.844-0.001,3.259,0.455,3.989,0.875h0.912
				c0.709-0.41,1.619-0.854,3.004-0.876c2.84,0.402,5.17,1.205,6.961,2.679c3.881,3.195,5.096,9.618,5.326,14.311
				c0.064,1.337,0.135,2.419,0.207,3.296c0.014,1.238,0.461,3.537,0.461,3.537l1.902-1.504c0.723-0.439,1.609-0.542,1.746-0.136
				C83.39,56.031,83.515,56.949,83.339,58.432z"/>
			<path d="M67.165,49.096l-0.537,1.205l-0.855-0.947l0.076,2.093L64.216,53.9c-0.178,0.267-0.146,0.617,0.066,0.849
				c0.15,0.311,0.238,1.575,0.309,2.595c0.135,1.988,0.305,4.461,1.041,6.057c0.098,0.209,0.293,0.356,0.521,0.392l1.176,0.181
				c0.242,0.405,0.533,0.926,0.766,1.395c-1.305,0.024-3.482,0.308-5.096,1.759c-1.561-1.416-3.534-1.721-4.75-1.757
				c0.243-0.495,0.55-1.032,0.767-1.396l1.176-0.181c0.229-0.035,0.424-0.183,0.521-0.392c0.771-1.671,0.694-4.233,0.632-6.292
				c-0.027-0.924-0.062-2.066,0.046-2.381c0.101-0.118,0.159-0.267,0.164-0.423c0.007-0.188-0.064-0.368-0.194-0.502l-2.409-2.476
				l-0.061,0.059l0.074-2.032l-0.857,0.947l-0.535-1.205L52.43,49.44l-3.417,2.687c0.75-0.603,3.096-0.534,4.06-0.534
				c0.721,0,3.605,0.385,5.009,0.58l-0.118,0.114l2.083,2.142c-0.136,0.554-0.12,1.4-0.08,2.722c0.05,1.676,0.118,3.923-0.373,5.34
				l-1.105,0.17c-0.198,0.03-0.374,0.146-0.479,0.316c-0.124,0.198-1.212,1.958-1.462,2.953c-0.055,0.221,0.003,0.457,0.156,0.626
				c0.153,0.172,0.381,0.254,0.607,0.223c0.03-0.004,3.013-0.39,4.928,1.527c0.131,0.129,0.305,0.201,0.488,0.201h0.545
				c0.182,0,0.357-0.072,0.486-0.201c1.912-1.91,5.25-1.529,5.283-1.525c0.227,0.029,0.449-0.057,0.602-0.227
				c0.148-0.17,0.207-0.404,0.152-0.624c-0.25-0.994-1.34-2.755-1.463-2.953c-0.105-0.17-0.281-0.286-0.479-0.316l-1.109-0.171
				c-0.516-1.39-0.662-3.51-0.781-5.24c-0.102-1.467-0.172-2.37-0.373-2.93l1.467-2.203c1.49-0.204,3.949-0.524,4.607-0.524
				c0.963,0,3.311-0.069,4.059,0.534l-3.418-2.687L67.165,49.096z"/>
			<path d="M67.608,55.34h1.354c-0.053,0.171-0.092,0.351-0.092,0.54c0,0.998,0.809,1.808,1.809,1.808
				c0.998,0,1.809-0.81,1.809-1.808c0-0.189-0.039-0.369-0.094-0.54h2.104v-1.377h-6.889V55.34z"/>
		</g>
	</g>
</g>
</svg>
