<?xml version="1.0" encoding="utf-8"?>
<!-- Generator: Adobe Illustrator 16.0.0, SVG Export Plug-In . SVG Version: 6.00 Build 0)  -->
<!DOCTYPE svg PUBLIC "-//W3C//DTD SVG 1.1 Basic//EN" "http://www.w3.org/Graphics/SVG/1.1/DTD/svg11-basic.dtd">
<svg version="1.1" baseProfile="basic" id="Слой_1"
	 xmlns="http://www.w3.org/2000/svg" xmlns:xlink="http://www.w3.org/1999/xlink" x="0px" y="0px" width="70px" height="70px"
	 viewBox="0 0 70 70" xml:space="preserve">
<g>
	<g>
		<g>
			<g>
				<g>
					<g>
						<g>
							<g>
								<g>
									<g>
										<g>
											<g>
												<g>
													<g>
														<g>
															<g>
																<g>
																	<g>
																		<g>
																			<g>
																				<g>
																					<circle fill="#FFFFFF" cx="35" cy="35" r="35"/>
																				</g>
																			</g>
																		</g>
																	</g>
																</g>
															</g>
														</g>
													</g>
												</g>
											</g>
										</g>
									</g>
								</g>
							</g>
						</g>
					</g>
				</g>
			</g>
		</g>
	</g>
	<g>
		<path opacity="0.2" fill="#020202" d="M38.707,19.414c0,0,2.874,1.15,3.268,6.977l-0.19,3.736l0.835,14.527l2.518-0.188
			c0,0,0.99-1.15,0.83-1.854l1.758-3.864c0,0,0.574-1.054,0.574-2.683s-0.479-9.965-0.479-9.965s-1.437-8.813-6.707-8.047
			C35.844,18.82,38.707,19.414,38.707,19.414z"/>
		<path opacity="0.2" fill="#020202" d="M30.956,44.114c0,0,2.491,3.545,5.749,4.694c3.257,1.149,3.52,0.336,3.52,0.336l0.218-4.646
			L30.956,44.114z"/>
		<g>
			<path d="M39.419,36.168l3.888,0.721l1.772-1.229l-2.353-4.476l0.486-2.681c0.038-0.208-0.101-0.407-0.309-0.444
				c-0.207-0.037-0.407,0.101-0.445,0.309l-0.535,2.939l2.16,4.11l-0.951,0.661l-3.011-0.559l-0.054-0.541l1.464,0.099
				c0.208,0.019,0.396-0.146,0.407-0.356c0.015-0.212-0.146-0.395-0.356-0.408l-2.366-0.158L39.419,36.168z"/>
			<path d="M43.221,39.707c-0.24-0.143-0.623,0.145-1.006,0.336c-0.385,0.191-1.343-0.191-1.343-0.191
				c0.479,0.479,1.294,0.909,2.062,0.767C43.699,40.475,43.459,39.852,43.221,39.707z"/>
			<path d="M44.984,30.479c-0.896,0.043-1.477,0.826-1.5,0.859l0.619,0.453c0.002-0.004,0.287-0.381,0.697-0.505
				c-0.031,0.069-0.05,0.147-0.05,0.231c0,0.316,0.259,0.574,0.575,0.574c0.271,0,0.497-0.188,0.557-0.441
				c0.055,0.053,0.107,0.105,0.161,0.168l0.575-0.506C46.113,30.732,45.561,30.453,44.984,30.479z"/>
			<path d="M36.561,31.852c0,0.396,0.322,0.719,0.72,0.719c0.396,0,0.718-0.322,0.718-0.719c0-0.035-0.006-0.066-0.01-0.099
				c0.139,0.093,0.223,0.179,0.251,0.209l0.573-0.509c-0.017-0.018-1.592-1.755-3.988,0.176l0.48,0.598
				c0.506-0.408,0.953-0.617,1.336-0.701C36.594,31.625,36.561,31.734,36.561,31.852z"/>
			<polygon points="39.506,29.502 39.025,28.352 35.193,27.873 32.99,29.406 35.385,29.119 			"/>
			<path d="M47.262,19.048c-1.049-2.374-3.654-3.412-4.824-3.71c-1.318-0.337-3.959-0.877-5.35-1.02
				c-10-1.023-17.014,6.457-14.139,14.361c-0.271,0.049-0.542,0.133-0.795,0.269c-0.721,0.386-1.174,1.094-1.348,2.103
				c-0.002,0.014-0.004,0.029-0.006,0.045c-0.008,0.152-0.174,3.783,2.232,5.987c0.445,0.408,0.834,0.743,1.182,1.017
				c-0.49,0.656-1.589,2.828-3.298,2.26c0,0,4.003,3.225,5.681,2.201l-0.018,0.594c-0.718,0.849-3.213,3.373-2.884,3.688
				c5.288,5.071,11.608,6.097,14.437,6.103c0.87,0.154,1.908-0.118,2.889-0.049c0.01,0,0.019,0,0.027,0
				c0.092,0,0.182-0.033,0.252-0.095c0.076-0.067,0.123-0.161,0.129-0.265l0.498-7.73c1.75,0.026,3.051,0.041,3.205,0.043
				l0.16,0.002l0.114-0.115c0.035-0.034,0.87-0.883,0.94-2.1c0.025-0.421,0.516-1.349,0.987-2.244
				c0.627-1.188,1.274-2.416,1.313-3.254c0.037-0.824-0.115-4.19-0.252-6.923C49.283,26.754,48.604,22.086,47.262,19.048z
				 M40.499,52.102c-0.521-0.045-1.021-0.104-1.506-0.174c-2.338-1.854-9.538-7.406-11.647-8.736l0.125-3.99l1.33,3.458
				c0.063,0.278,0.469,1.544,2.621,1.805c1.295,0.158,6.002,0.267,9.547,0.326L40.499,52.102z M47.5,37.104
				c-0.031,0.668-0.666,1.871-1.227,2.932c-0.432,0.82-0.816,1.552-0.984,2.113l-0.324-1.055l-0.758,2.43l-1.828-1.854l-2.585,1.961
				l-3.481-2.951l-0.521,3.231c-1.928-0.058-3.594-0.126-4.277-0.209c-1.762-0.213-1.961-1.175-1.967-1.208l-0.006-0.041
				l-1.895-4.932c-0.075-0.197-0.297-0.295-0.494-0.222c-0.167,0.064-0.262,0.231-0.243,0.401c-0.041,0.027-0.079,0.061-0.106,0.104
				c-0.25,0.387-0.432,0.455-0.562,0.473c-0.019,0.002-0.041,0-0.062,0.002l-0.338-0.065c-0.635-0.229-1.533-1-2.291-1.694
				c-2.047-1.877-1.994-5.074-1.983-5.361c0.134-0.75,0.454-1.266,0.948-1.533c0.451-0.244,0.994-0.264,1.479-0.206
				c0.441,0.271,0.938,0.742,1.214,1.569c0.574,1.726,1.086,2.938,1.086,2.938c0.958-0.383-0.639-6.387,1.853-9.836
				c2.492-3.448,7.218-6.515,12.584-2.491c0,0,1.102-1.869,2.959-1.931c0.529,0.401,1.154,0.976,1.764,1.772
				c1.255,2.293,1.568,4.873,1.602,5.113c0.008,0.157,0.084,1.524,0.17,3.231l-0.629-1.05l-2.226-0.143l-0.384,0.958l2.225,0.142
				l1.029,0.396C47.378,32.835,47.536,36.3,47.5,37.104z"/>
			<polygon points="42.234,37.07 39.497,36.688 37.875,37.55 41.223,37.167 42.234,37.55 42.953,37.215 44.246,37.215 
				45.348,37.742 44.582,36.688 43.576,37.07 			"/>
			<path d="M45.918,37.695c0,0.18-0.234,0.318-0.373,0.386c-0.354-0.019-0.859-0.099-1.176-0.386c-0.525-0.479-1.58-0.24-2.012,0.24
				c0,0-0.385,0.144-0.574-0.097c-0.191-0.239-0.862-0.479-1.581-0.097c-0.72,0.385-2.938,0.351-4.04,0.158
				c-0.441-0.192-0.746-0.672-0.746-0.672l0.063,1.726l0.645-0.597c0.754,0.15,2.533,0.461,3.167,0.199
				c0.813-0.336,1.82-0.336,2.252-0.097c0.433,0.239,1.007,0.146,1.198-0.144c0.191-0.287,1.148-0.287,1.964-0.146
				c0.465,0.083,0.802,0.04,1.007-0.013l0.335,0.046C46.046,38.207,45.918,37.439,45.918,37.695z"/>
		</g>
	</g>
</g>
</svg>
