<?xml version="1.0" encoding="utf-8"?>
<!-- Generator: Adobe Illustrator 16.0.0, SVG Export Plug-In . SVG Version: 6.00 Build 0)  -->
<!DOCTYPE svg PUBLIC "-//W3C//DTD SVG 1.1 Basic//EN" "http://www.w3.org/Graphics/SVG/1.1/DTD/svg11-basic.dtd">
<svg version="1.1" baseProfile="basic" id="Слой_1"
	 xmlns="http://www.w3.org/2000/svg" xmlns:xlink="http://www.w3.org/1999/xlink" x="0px" y="0px" width="125px" height="125px"
	 viewBox="0 0 125 125" xml:space="preserve">
<g>
	<g>
		<g>
			<g>
				<g>
					<g>
						<g>
							<g>
								<g>
									<g>
										<g>
											<g>
												<g>
													<g>
														<circle fill="#FFFFFF" cx="62.647" cy="62.5" r="62.5"/>
													</g>
												</g>
											</g>
										</g>
									</g>
								</g>
							</g>
						</g>
					</g>
				</g>
			</g>
		</g>
	</g>
	<g>
		<path opacity="0.2" fill="#020202" d="M78.099,66.509l1.97-5.004l2.122-1.97l4.245-10.005c-2.729-4.395-7.409-0.052-7.821,0.4
			l0.102-6.164c0.225-1.703-0.306-1.633-0.201-2.729c0.698-7.34-6.329-9.21-13.026-9.317l-1.666-0.758l-0.481,49.485l-3.622,0.085
			l8.45,10.795l11.065-0.303C79.234,91.024,77.915,68.244,78.099,66.509z"/>
		<g>
			<path d="M61.445,47.374c0,0-9.264-1.081-10.417-0.647l-1.808,1.087l-0.404,0.707l1.999-0.203l10.127,0.607L61.445,47.374z"/>
			<path d="M76.808,48.116l-2.122-1.011c-1.153-0.433-9.802,1.113-9.802,1.113l-0.102,1.314l9.095-1.011l2.425,0.505L76.808,48.116z
				"/>
			<path d="M59,52.13c-0.035-0.022-0.879-0.525-3.202-1.03c-2.369-0.517-4.85,1.461-4.955,1.545l0.19,0.236
				c0.019-0.014,1.411-1.122,3.048-1.463c-0.313,0.214-0.516,0.53-0.516,0.891c0,0.642,0.633,1.163,1.415,1.163
				s1.416-0.521,1.416-1.163c0-0.351-0.195-0.662-0.495-0.876c2.133,0.48,2.935,0.95,2.941,0.956L59,52.13z"/>
			<path d="M75.073,52.539c-0.055-0.039-1.387-0.933-3.713-1.438c-2.371-0.517-4.176,0.979-4.251,1.043l0.196,0.231
				c0.012-0.01,0.919-0.756,2.253-0.999c-0.265,0.211-0.431,0.506-0.431,0.832c0,0.642,0.633,1.163,1.414,1.163
				s1.414-0.521,1.414-1.163c0-0.279-0.124-0.532-0.325-0.733c2.06,0.502,3.26,1.305,3.271,1.314L75.073,52.539z"/>
			<path d="M85.702,72.723c1.48-5.497-4.253-7.554-4.821-11.037c0.48-0.128,0.892-0.347,1.227-0.661
				c0.951-0.898,1.061-2.318,1.061-3.31c0-0.372,0.752-1.591,1.354-2.571c1.442-2.341,3.077-4.994,2.177-6.653
				c-0.425-0.786-1.333-1.201-2.703-1.234c-0.038-0.001-0.076-0.001-0.115-0.001c-0.374,0-0.735,0.046-1.08,0.126
				c0.193-3.988-0.088-8.275-1.485-12.043c-1.723-8.285-9.417-11.594-17.528-11.179v8.835c1.074-0.402,2.533-0.897,4.89-0.897
				c2.097,0,3.732,0.432,5.019,1.373l2.465,3.287c0.207,0.479,0.395,0.996,0.567,1.556c0.345,1.135,0.661,2.815,0.94,4.682v11.385
				l-0.224,5.155c-0.78,1.467-2.113,3.708-3.361,4.513c-1.372,0.882-0.117,3.759-0.61,6.344c-0.083,0.096-0.168,0.191-0.255,0.285
				l-1.293-4.88l-4.655-2.629c0.205-0.039,0.422-0.112,0.631-0.254c0.571-0.379,0.883-1.08,0.926-2.078
				c0.044-1.012-0.663-1.346-1.179-1.59c-0.376-0.177-0.731-0.345-1.017-0.75c-0.193-0.273-0.573-0.338-0.846-0.145
				c-0.273,0.193-0.338,0.571-0.146,0.845c0.47,0.666,1.06,0.942,1.49,1.146c0.494,0.234,0.493,0.258,0.485,0.441
				c-0.002,0.061-0.008,0.121-0.013,0.178c-0.32-0.244-0.831-0.399-1.608-0.315c-1.398,0.15-1.913,1.196-2.102,1.894
				c-0.258,0.08-0.562,0.158-0.898,0.229c-0.218-0.046-0.422-0.096-0.611-0.146c-0.172-0.724-0.68-1.92-2.149-2.077
				c-0.792-0.086-1.301,0.089-1.616,0.358c0-0.022,0-0.042,0.001-0.063c0.039-0.729,0.152-0.77,0.576-0.915
				c0.388-0.134,0.919-0.319,1.373-0.958c0.887-1.254,1.35-7.543,1.434-8.791c0.022-0.333-0.231-0.623-0.565-0.645
				c-0.329-0.026-0.623,0.23-0.645,0.563c-0.2,2.962-0.708,7.456-1.214,8.174c-0.227,0.32-0.47,0.404-0.777,0.51
				c-0.689,0.238-1.316,0.57-1.391,1.998c-0.047,0.888,0.177,1.546,0.664,1.96c0.418,0.357,0.908,0.42,1.233,0.417l-4.681,2.643
				l-1.449,5.47c-0.436-0.393-0.834-0.835-1.196-1.304c-0.298-2.466,0.752-5.082-0.543-5.915c-1.116-0.72-2.299-2.585-3.095-4.02
				c0,0-0.742-0.737-1.072-0.699c-0.333,0.041-0.569,0.343-0.529,0.676c0.003,0.013-0.011,0.588-0.055,0.592
				c-0.776,0.044-1.335-0.104-1.709-0.456c-0.458-0.432-0.681-1.225-0.681-2.427c0-0.759-0.645-1.693-1.785-3.281
				c-1.188-1.654-2.816-3.917-2.479-5.167c0.097-0.36,0.374-0.639,0.847-0.85c1.825-0.818,6.217,3.059,6.4,3.037L47.7,54.85
				c0.177-2.26,1.042-12.63,2.268-16.536c1.382-4.396,3.837-6.215,8.288-6.215c2.427,0,3.929,0.495,5.036,0.897v-8.835
				c-4.3-0.213-8.487,0.561-11.78,2.492c-8.023,3.876-9.538,12.69-9.206,20.45c-0.657-0.108-1.311-0.067-1.923,0.208
				c-0.815,0.365-1.326,0.918-1.521,1.64c-0.486,1.807,1.188,4.137,2.666,6.192c0.694,0.965,1.557,2.167,1.557,2.573
				c0,0.992,0.11,2.412,1.062,3.31c0.049,0.046,0.102,0.087,0.155,0.129c0.302,3.879-1.369,6.734-4.883,11.568
				c-3.638,5.001-2.273,8.64-2.273,8.64c1.516-2.273,5.002-2.122,5.002-2.122c-3.183,5.912-0.454,8.337-0.454,8.337
				c1.328-2.79,4.402-3.484,5.141-3.612l-0.42,6.939c-0.011,0.167,0.046,0.331,0.161,0.454c0.114,0.122,0.276,0.192,0.443,0.192
				h32.438c0.172,0,0.335-0.073,0.449-0.2c0.115-0.128,0.172-0.297,0.154-0.468l-0.59-5.677c1.317,1.004,3.474,2.057,5.877,0.854
				c0,0-3.638-3.485-2.373-6.82c0,0,4.344,2.425,6.921-0.606C89.894,78.634,84.438,77.421,85.702,72.723z M83.882,48.469
				c0.027,0,0.057,0,0.085,0.001c0.621,0.015,1.414,0.132,1.667,0.6c0.566,1.042-1.064,3.687-2.144,5.438
				c-0.98,1.593-1.535,2.526-1.535,3.208c0,1.202-0.223,1.995-0.681,2.427c-0.373,0.353-0.932,0.5-1.709,0.456
				c-0.12-0.008-1.507-0.712-1.507-0.712l0.914-8.434C79.191,51.48,81.41,48.469,83.882,48.469z M57.817,67.548l5.355-0.31h0.206
				l5.546,0.206l1.707,0.883l-4.111,0.454h-3.093h-0.142h-3.094l-4.263-0.471L57.817,67.548z M47.663,90.337l1.131-16.994
				c0.032,0.064,0.062,0.131,0.094,0.195c1.852,4.813,5.634,9.655,13.376,9.34h1.617c7.035,0.287,10.803-3.689,12.821-8.029
				l1.172,15.488H47.663z"/>
		</g>
	</g>
</g>
</svg>
