<?xml version="1.0" encoding="utf-8"?>
<!-- Generator: Adobe Illustrator 16.0.0, SVG Export Plug-In . SVG Version: 6.00 Build 0)  -->
<!DOCTYPE svg PUBLIC "-//W3C//DTD SVG 1.1 Basic//EN" "http://www.w3.org/Graphics/SVG/1.1/DTD/svg11-basic.dtd">
<svg version="1.1" baseProfile="basic" id="Слой_1"
	 xmlns="http://www.w3.org/2000/svg" xmlns:xlink="http://www.w3.org/1999/xlink" x="0px" y="0px" width="70px" height="70px"
	 viewBox="0 0 70 70" xml:space="preserve">
<g>
	<g>
		<g>
			<g>
				<g>
					<g>
						<g>
							<g>
								<g>
									<g>
										<g>
											<g>
												<g>
													<g>
														<g>
															<g>
																<g>
																	<g>
																		<g>
																			<circle fill="#FFFFFF" cx="35" cy="35" r="35"/>
																		</g>
																	</g>
																</g>
															</g>
														</g>
													</g>
												</g>
											</g>
										</g>
									</g>
								</g>
							</g>
						</g>
					</g>
				</g>
			</g>
		</g>
	</g>
	<g>
		<g>
			<path d="M32.825,33.449c-0.392,0.162-0.598,0.373-0.634,1.068c-0.022,0.432,0.073,0.762,0.288,0.986
				c0.176,0.188,0.43,0.289,0.712,0.289c0.071,0,0.13-0.007,0.167-0.014h0.494c0.159,0.129,0.497,0.302,1.255,0.453
				c0.021,0.006,0.043,0.008,0.065,0.008h0.031c0.021,0,0.043-0.002,0.064-0.008c0.757-0.151,1.095-0.323,1.255-0.453h0.473
				c0.063,0.018,0.168,0.039,0.293,0.039c0.229,0,0.975-0.092,1.025-1.271c0.021-0.534-0.299-0.716-0.533-0.851
				c-0.16-0.09-0.328-0.186-0.48-0.403c-0.301-0.423-0.898-2.763-1.209-4.14c-0.033-0.147-0.164-0.254-0.316-0.254h-1.174
				c-0.155,0-0.289,0.109-0.319,0.263c-0.264,1.328-0.793,3.589-1.089,4.008C33.067,33.348,32.959,33.393,32.825,33.449z
				 M33.723,33.546c0.414-0.585,0.963-3.123,1.145-3.995h0.648c0.205,0.885,0.838,3.531,1.252,4.118
				c0.238,0.338,0.502,0.485,0.691,0.595c0.211,0.12,0.211,0.123,0.205,0.256c-0.027,0.648-0.291,0.648-0.375,0.648
				c-0.076,0-0.135-0.02-0.135-0.02c-0.035-0.013-0.074-0.02-0.111-0.02h-0.66c-0.109,0-0.211,0.055-0.271,0.146
				c-0.08,0.074-0.441,0.209-0.923,0.31c-0.48-0.101-0.843-0.235-0.925-0.31c-0.06-0.092-0.162-0.146-0.271-0.146h-0.66
				c-0.021,0-0.045,0.002-0.065,0.007c-0.001,0-0.209,0.033-0.315-0.079c-0.082-0.088-0.123-0.268-0.109-0.505
				c0.021-0.413,0.07-0.435,0.232-0.502C33.239,33.98,33.491,33.876,33.723,33.546z"/>
			<path d="M29.898,30.92h1.845c0.069-0.127,0.113-0.27,0.113-0.424c0-0.125-0.025-0.242-0.074-0.35
				c0.244,0.058,0.441,0.125,0.521,0.178c0.111,0.074,0.263,0.045,0.338-0.067c0.074-0.112,0.044-0.263-0.068-0.338
				c-0.353-0.235-1.691-0.524-2.347-0.293c-0.577,0.204-1.345,0.61-1.377,0.628c-0.119,0.063-0.164,0.21-0.101,0.329
				c0.043,0.083,0.127,0.129,0.215,0.129c0.039,0,0.076-0.009,0.113-0.028c0.006-0.002,0.348-0.185,0.735-0.36
				c-0.021,0.056-0.031,0.114-0.031,0.172C29.784,30.65,29.829,30.793,29.898,30.92z"/>
			<path d="M41.127,30.074c-0.008-0.002-0.773-0.252-1.332-0.449c-0.656-0.232-1.994,0.059-2.346,0.293
				c-0.113,0.075-0.143,0.227-0.068,0.338s0.227,0.143,0.338,0.067c0.08-0.054,0.277-0.12,0.521-0.177
				c-0.047,0.106-0.074,0.224-0.074,0.349c0,0.155,0.045,0.135,0.115,0.261h1.844c0.07-0.126,0.113-0.105,0.113-0.261
				c0-0.077-0.018-0.149-0.051-0.22c0.416,0.14,0.785,0.26,0.791,0.262c0.023,0.008,0.051,0.011,0.074,0.011
				c0.104,0,0.199-0.065,0.23-0.167C41.326,30.253,41.256,30.115,41.127,30.074z"/>
			<path d="M45.678,28.023c-0.283-0.291-0.662-0.416-1.125-0.375c-0.297,0.026-0.564,0.23-0.789,0.476l-0.008-1.604l0.441-5.593
				c-0.109-4.12-3.689-6.505-7.91-6.09c0,0-5.022-1.948-9.863,1.194c0,0-1.049,3.008-0.984,4.896
				c0.161,4.653,0.587,6.438,0.908,7.119v0.277c-0.434-0.423-0.977-0.813-1.413-0.683c-1.621,0.479-1.126,2.512-0.799,3.857
				c0.101,0.419,0.198,0.814,0.198,1.027c0,0.732,0.256,1.757,0.826,2.275c0.237,0.219,0.516,0.331,0.807,0.331
				c0.035,0,0.068-0.002,0.104-0.005c0.126-0.012,0.234-0.038,0.33-0.07c0.084,1.029,0.243,2.623,0.479,3.687L26.157,50.68
				c-0.005,0.09,0.025,0.178,0.088,0.243c0.062,0.065,0.146,0.104,0.236,0.104h17.4c0.094,0,0.18-0.039,0.242-0.108
				c0.063-0.067,0.092-0.158,0.082-0.25l-1.137-10.95l-0.01,0.01c0.018-0.033,0.037-0.063,0.053-0.099
				c0.4-0.751,0.568-3.164,0.635-4.565c0.094,0.031,0.197,0.055,0.316,0.065c0.035,0.002,0.07,0.005,0.105,0.005
				c0.314,0,0.619-0.129,0.889-0.375c0.596-0.542,0.906-1.533,0.906-2.23c0-0.174,0.037-0.473,0.082-0.819
				C46.203,30.477,46.416,28.792,45.678,28.023z M43.033,50.375H26.827L27.5,40.236c2.586,4.492,5.344,5.128,5.711,5.193
				c0.242,0.086,3.566,0.106,3.853,0c0.348-0.063,2.703-0.611,5.084-4.186L43.033,50.375z M45.4,31.625
				c-0.049,0.384-0.088,0.688-0.088,0.9c0,0.627-0.305,1.396-0.693,1.75c-0.164,0.15-0.328,0.221-0.496,0.203
				c-0.164-0.015-0.277-0.063-0.348-0.15c0.004-0.12,0.006-0.21,0.008-0.258c0.002-0.094-0.037-0.178-0.098-0.239
				c0.004-0.156-0.107-0.296-0.268-0.324c-0.176-0.032-0.344,0.084-0.377,0.263c-0.01,0.043-0.063,0.379,0.078,0.715
				c-0.055,1.429-0.227,4.166-0.582,4.836c-2.635,4.968-5.574,5.468-5.602,5.471c-0.023,0.005-0.049,0.01-0.072,0.02
				c-0.49,0.187-2.939,0.187-3.458-0.002c-0.02-0.009-0.042-0.013-0.064-0.018c-0.028-0.003-2.969-0.503-5.604-5.471
				c-0.355-0.67-0.621-3.389-0.726-4.824c0.145-0.338,0.09-0.682,0.082-0.727c-0.031-0.177-0.199-0.293-0.375-0.262
				c-0.152,0.026-0.261,0.155-0.269,0.303c-0.078,0.065-0.125,0.164-0.119,0.271c0.004,0.048,0.01,0.139,0.018,0.258
				c-0.071,0.078-0.18,0.125-0.335,0.139c-0.147,0.016-0.283-0.039-0.415-0.158c-0.398-0.364-0.613-1.196-0.613-1.795
				c0-0.291-0.102-0.705-0.217-1.183c-0.369-1.52-0.598-2.8,0.35-3.081c0.192-0.035,0.832,0.518,1.319,1.131
				c0.112,0.141,0.315,0.164,0.457,0.053c0.123-0.096,0.155-0.264,0.09-0.397h0.013l0.021-5.364c0-0.012,0.035-0.672,0.305-1.578
				c0.069-0.172,0.146-0.334,0.23-0.485c0.89-0.218,5.292-1.699,7.537,0.173c0,0,4.283-1.518,6.273-1.121
				c0.596,0.119,1.039,0.57,1.365,1.191c0.314,0.973,0.361,1.721,0.365,1.807l0.023,5.378h0.033c-0.002,0-0.002,0.001-0.002,0.002
				c-0.078,0.162-0.01,0.356,0.15,0.435s0.355,0.012,0.436-0.15c0.229-0.475,0.645-1.018,0.875-1.038
				c0.352-0.032,0.51,0.086,0.598,0.179C45.732,29.018,45.523,30.65,45.4,31.625z"/>
			<path d="M33.363,28.705l0.257-1.396l-0.445,0.527l-0.366-0.488c-1.339,0.228-3.55-0.203-4.168,0.029l-0.697,1.165l-0.476,0.345
				l1.775-0.345L33.363,28.705z"/>
			<path d="M41.486,27.378c-0.617-0.233-2.975,0.198-4.314-0.028l-0.365,0.487l-0.447-0.528l0.256,1.397l4.121-0.163l1.938,0.669
				l-0.637-0.669L41.486,27.378z"/>
			<path d="M39.43,37.271h-8.496l-0.756-0.623l-0.309,1.463l0.815-0.221c1.124,1.752,2.088,2.59,4.346,2.59
				c0.134,0,0.273-0.002,0.419-0.01c2.333-0.1,3.904-2.025,4.296-2.563l0.748,0.201l-0.311-1.463L39.43,37.271z M37.916,38.844
				c-0.104-0.01-5.714-0.029-5.714-0.029c-0.246-0.248-0.478-0.543-0.717-0.893h7.417C38.666,38.189,38.332,38.527,37.916,38.844z"
				/>
		</g>
		<path opacity="0.2" fill="#020202" d="M45.111,28.046c-0.117-0.101-1.459,0.409-1.68,0.649c0,0-0.041-4.18-0.055-4.771
			c-0.164-6.827-8.294-4.659-8.294-4.659l0.147,26.195l-1.937-0.348l4.533,5.791l5.938-0.163L42.9,40.398
			c0.094-0.072,0.531-5.438,0.531-5.438s1.166-0.421,1.436-0.667c0.596-0.542,0.855-1.457,0.855-2.154
			C45.723,31.489,45.799,28.643,45.111,28.046z"/>
	</g>
</g>
</svg>
