<?xml version="1.0" encoding="utf-8"?>
<!-- Generator: Adobe Illustrator 16.0.0, SVG Export Plug-In . SVG Version: 6.00 Build 0)  -->
<!DOCTYPE svg PUBLIC "-//W3C//DTD SVG 1.1 Basic//EN" "http://www.w3.org/Graphics/SVG/1.1/DTD/svg11-basic.dtd">
<svg version="1.1" baseProfile="basic" id="Слой_1"
	 xmlns="http://www.w3.org/2000/svg" xmlns:xlink="http://www.w3.org/1999/xlink" x="0px" y="0px" width="125px" height="125px"
	 viewBox="0 0 125 125" xml:space="preserve">
<g>
	<g>
		<g>
			<g>
				<g>
					<g>
						<g>
							<g>
								<g>
									<circle fill="#FFFFFF" cx="62.499" cy="62.5" r="62.5"/>
								</g>
							</g>
						</g>
					</g>
				</g>
			</g>
		</g>
	</g>
	<g>
		<path opacity="0.2" fill="#020202" d="M79.796,50.631l-0.153-4.176c0.101-0.722,1.096-6.453-0.806-12.035
			c-1.446-4.246-9.978-7.53-16.085-7.56l0.952,4.874v16.639v31.995l-5.938-0.644l-6.166-4.664c0,0,0.34,11.227,12.565,10.954
			c10.084-0.226,12.25-10.974,12.7-14.732c0.429-0.682,0.854-1.41,1.275-2.202c0.741-1.397,0.926-5.271,1.072-7.506
			c0.188,0.066,1.332,0.269,1.553-0.132C83.341,56.777,87.522,43.105,79.796,50.631z"/>
		<g>
			<path d="M58.492,61.406c0.003,0,0.006,0,0.009,0l0.625-0.003c1.129,0,2.297,0.064,3.077,0.835
				c0.12,0.119,0.282,0.186,0.452,0.186h2.35c0.17,0,0.332-0.066,0.452-0.186c0.901-0.889,2.022-0.803,2.976-0.766
				c0.216,0.009,0.422,0.017,0.617,0.017c0.459,0,1.532,0,2.003-0.976c0.401-0.832,0.246-1.389,0.045-1.709
				c-0.341-0.543-1.039-0.817-2.075-0.817c-0.1,0-0.194,0.002-0.281,0.007c-0.6-1.196-2.409-4.813-3.054-6.188l0.637-2.375
				c0.053-0.195,0.01-0.404-0.114-0.563c-0.125-0.159-0.307-0.246-0.521-0.247l-3.874,0.077c-0.193,0.004-0.375,0.095-0.495,0.249
				c-0.119,0.153-0.162,0.352-0.119,0.54l0.587,2.532c-0.273,0.963-2.045,4.009-3.28,6.004c-0.196-0.022-0.44-0.043-0.697-0.043
				c-0.908,0-1.536,0.247-1.867,0.733c-0.201,0.295-0.375,0.813-0.063,1.605C56.308,61.402,57.62,61.406,58.492,61.406z
				 M57.007,59.437c0.029-0.044,0.242-0.171,0.804-0.171c0.462,0,0.887,0.085,0.891,0.086c0.265,0.053,0.531-0.062,0.675-0.289
				c0.576-0.92,3.463-5.577,3.705-6.933c0.016-0.085,0.014-0.173-0.006-0.258l-0.441-1.904l2.226-0.044l-0.476,1.773
				c-0.039,0.145-0.025,0.298,0.036,0.435c0.647,1.415,3.256,6.608,3.366,6.829c0.124,0.246,0.395,0.385,0.665,0.348
				c0.003,0,0.254-0.035,0.571-0.035c0.694,0,0.95,0.16,0.985,0.216c0.017,0.025,0.03,0.167-0.114,0.466
				c-0.048,0.099-0.119,0.247-0.844,0.247c-0.179,0-0.369-0.008-0.565-0.016c-0.231-0.009-0.473-0.019-0.719-0.019
				c-0.89,0-2.02,0.115-3.012,0.97h-1.85c-1.103-0.938-2.521-1.021-3.778-1.021l-0.625,0.002c-0.684,0-1.328-0.033-1.423-0.273
				C56.974,59.58,56.991,59.458,57.007,59.437z"/>
			<path d="M55.098,50.466l0.737-0.188c1.4-0.065,2.735,0.709,2.735,0.709c-1.034-1.287-2.481-1.448-2.481-1.448l-5.584,0.644
				l-0.62,1.608l3.719-0.945c-0.067,0.136-0.109,0.289-0.109,0.451c0,0.563,0.456,1.019,1.019,1.019s1.019-0.456,1.019-1.019
				C55.531,50.953,55.359,50.65,55.098,50.466z"/>
			<path d="M60.023,48.383l-0.488-2.382l-4.182-0.804l-4.51,0.287l-1.93,2.573c0,0,1.712-1.33,3.062-1.252
				C55.359,47,60.023,48.383,60.023,48.383z"/>
			<path d="M84.03,47.681c-1.059-0.617-2.592,0.181-3.748,1.014c0.629-3.119,1.443-9.449-0.859-14.54
				c-3.179-7.028-16.083-7.903-16.631-7.937c-0.035-0.002-0.071-0.001-0.106,0.002c-4.039,0.418-15.975,3.266-17.769,10.621
				c-1.156,4.74-0.086,9.579,0.688,12.123c-1.465-0.837-3.511-1.687-4.728-0.805c-1.125,0.816-1.166,2.648-0.127,5.766
				c1.761,5.282,2.736,7.553,4.218,7.938c0.339,0.087,0.686,0.062,1.036-0.068c0.156,1.735,0.477,4.363,0.881,6.172L45.42,90.86
				c-0.011,0.178,0.052,0.352,0.173,0.48c0.121,0.13,0.291,0.203,0.469,0.203h34.421c0.182,0,0.354-0.077,0.477-0.212
				s0.182-0.315,0.163-0.496l-2.252-21.018l-0.008,0.001c0.032-0.061,0.065-0.116,0.098-0.177c0.645-1.217,1.044-5.462,1.218-7.64
				c-0.071-0.022-0.14-0.048-0.208-0.074c0.138-0.009,0.275-0.028,0.412-0.069c1.495-0.445,2.672-2.851,4.063-8.301
				C85.301,50.211,85.169,48.344,84.03,47.681z M77.977,79.534c-2.256,1.189-7.888,3.891-13.133,4.266
				c-5.947,0.425-15.255-3.262-17.399-4.151l0.585-8.899c5.458,9.355,12.366,9.672,12.667,9.734
				c0.012,0.002,0.023,0.004,0.035,0.006l4.614-0.005c0.294-0.058,6.583-0.337,11.875-7.979L77.977,79.534z M83.2,53.24
				c-1.181,4.623-2.252,7.108-3.185,7.386c-0.104,0.03-0.416,0.124-1.087-0.491c0,0-0.608,0.606-0.614,0.67
				c0,0-0.113,0.404-0.043,0.462c-0.246,2.486-0.843,6.699-1.412,7.772c-2.553,4.812-5.392,7.345-7.638,8.682l-3.896-3.089
				l-3.378,0.321l-3.065,3.795c-2.512-0.821-6.839-3.117-10.335-9.709c-0.689-1.3-1.258-8.964-1.274-9.053
				c-0.063-0.35-0.399-0.58-0.748-0.518c-0.218,0.039-0.593,0.117-0.729,0.524c0.025,0.142,0.043,0.283,0.063,0.424
				c-0.229,0.169-0.42,0.236-0.57,0.199c-1.044-0.271-2.414-4.379-3.32-7.099c-1.136-3.408-0.546-4.166-0.338-4.316
				c0.8-0.581,3.346,0.757,4.815,1.845c0.233,0.171,0.551,0.167,0.78-0.011c0.228-0.179,0.309-0.487,0.197-0.754
				c-0.028-0.067-2.797-6.819-1.256-13.135c1.492-6.118,11.787-9.128,16.597-9.64c0.88,0.065,12.717,1.056,15.487,7.179
				c2.92,6.456,0.371,15.468,0.345,15.558c-0.081,0.28,0.036,0.579,0.285,0.729c0.249,0.151,0.568,0.115,0.778-0.086
				c1.307-1.255,3.159-2.424,3.724-2.093C83.468,48.842,84.184,49.387,83.2,53.24z"/>
			<path d="M70.955,45.197l-4.182,0.804l-0.488,2.382c0,0,4.665-1.382,8.048-1.578c1.35-0.078,3.062,1.252,3.062,1.252l-1.93-2.573
				L70.955,45.197z"/>
			<path d="M75.804,50.183l-5.583-0.644c0,0-1.448,0.161-2.482,1.448c0,0,1.335-0.774,2.735-0.709l0.737,0.188
				c-0.261,0.184-0.433,0.487-0.433,0.831c0,0.563,0.456,1.019,1.018,1.019c0.563,0,1.019-0.456,1.019-1.019
				c0-0.163-0.041-0.315-0.109-0.451l3.719,0.945L75.804,50.183z"/>
			<path d="M71.063,64.659c0,0-3.109-2.037-6.755-1.716c-3.646,0.322-6.863,1.395-8.258,2.681c0,0,0.564,3.171,0.655,3.211
				c-0.046,0.096-0.071,0.203-0.063,0.317c0.149,2.331,2.052,3.668,5.219,3.668c2.765,0,6.247-1.034,7.453-2.212
				c1.92-1.876,1.585-3.313,1.576-3.33C71.028,67.218,71.063,64.659,71.063,64.659z M63.492,64.739l0.482,0.048
				c3.723,0.374,4.711,0.473,5.51,1.388l-11.458,1.303c0.646-1.106,2.065-2.775,4.748-2.775
				C63.007,64.702,63.248,64.715,63.492,64.739z M68.415,69.688c-0.753,0.735-3.75,1.846-6.555,1.846
				c-1.538,0-3.362-0.341-3.828-1.864l11.483-1.37C69.351,68.624,69.031,69.086,68.415,69.688z"/>
		</g>
	</g>
</g>
</svg>
