<?xml version="1.0" encoding="utf-8"?>
<!-- Generator: Adobe Illustrator 16.0.0, SVG Export Plug-In . SVG Version: 6.00 Build 0)  -->
<!DOCTYPE svg PUBLIC "-//W3C//DTD SVG 1.1 Basic//EN" "http://www.w3.org/Graphics/SVG/1.1/DTD/svg11-basic.dtd">
<svg version="1.1" baseProfile="basic" id="Слой_1"
	 xmlns="http://www.w3.org/2000/svg" xmlns:xlink="http://www.w3.org/1999/xlink" x="0px" y="0px" width="125px" height="125px"
	 viewBox="0 0 125 125" xml:space="preserve">
<g>
	<g>
		<g>
			<g>
				<g>
					<g>
						<g>
							<g>
								<g>
									<g>
										<g>
											<g>
												<g>
													<g>
														<circle fill="#FFFFFF" cx="62.5" cy="62.5" r="62.5"/>
													</g>
												</g>
											</g>
										</g>
									</g>
								</g>
							</g>
						</g>
					</g>
				</g>
			</g>
		</g>
	</g>
	<g>
		<path opacity="0.2" d="M84.618,47.455c-0.524-0.887-1.256-1.393-2.114-1.465c-0.935-0.078-1.688,0.279-2.282,0.805
			c-0.004-0.373-0.007-0.763-0.011-1.168c0.762-0.152,1.26-0.698,1.413-1.585c0.254-1.458-0.159-2.963-1.23-4.476v-9.103
			c0-0.11-0.028-0.835-0.086-0.93c-0.082-0.138-10.054-9.387-18.209-7.823v3.973V39.59v1.23v8.668v2.406V64.24v1.236v2.828v2.278
			v3.959V76.3v2.279v1.258v8.01v1.229v3.773h0.413l-0.413,0.281v1.976h17.639l-3.812-11.383l-1.641,1.117V77.6
			c1.813-2.605,3.397-4.742,3.432-4.788c0.082-0.109,0.124-0.242,0.122-0.379l-0.15-7.947c0.408,0.111,0.9,0.167,1.483,0.167
			c0.771,0,1.429-0.279,1.957-0.828c1.271-1.327,1.334-3.892,1.327-4.572c0.343-0.687,1.884-3.79,2.61-5.426
			C85.727,52.343,85.674,49.236,84.618,47.455z"/>
		<g>
			<path d="M58.321,60.344h-1.208c-0.34,0-0.615,0.275-0.615,0.615v1.743c0,0.328,0.258,0.599,0.586,0.615
				c0.016,0,1.562,0.088,2.762,1.347c0.723,0.758,1.633,1.193,2.497,1.193c0.906,0,1.667-0.49,2.09-1.345
				c0.537-1.087,1.841-1.204,2.376-1.204c0.112,0,0.183,0.005,0.193,0.006c0.172,0.017,0.343-0.04,0.472-0.157
				c0.128-0.115,0.202-0.282,0.202-0.455v-1.743c0-0.34-0.275-0.615-0.616-0.615h-1.208c-0.086-0.604-0.243-1.651-0.442-2.773
				c-0.241-1.369-1.735-5.778-2.604-8.284c-0.086-0.248-0.319-0.414-0.581-0.414h-0.275c-0.262,0-0.495,0.166-0.581,0.414
				c-0.869,2.506-2.363,6.916-2.605,8.284C58.564,58.692,58.408,59.739,58.321,60.344z M59.465,61.04
				c0.002-0.015,0.208-1.545,0.51-3.255c0.145-0.827,0.923-3.329,2.111-6.806c1.188,3.477,1.965,5.979,2.111,6.806
				c0.302,1.709,0.508,3.24,0.51,3.255c0.041,0.306,0.301,0.534,0.609,0.534h1.128v0.517c-0.886,0.064-2.385,0.401-3.115,1.877
				c-0.216,0.438-0.547,0.659-0.986,0.659c-0.521,0-1.122-0.304-1.606-0.811c-1.045-1.097-2.291-1.499-3.009-1.646v-0.596h1.127
				C59.164,61.574,59.425,61.346,59.465,61.04z"/>
			<path d="M84.618,47.455c-0.524-0.887-1.256-1.393-2.114-1.465c-0.854-0.071-1.557,0.221-2.126,0.674l0.431-1.271
				c0.424-0.269,0.707-0.723,0.815-1.352c0.254-1.458-0.159-2.963-1.23-4.476V28.617c0-0.111-0.028-0.22-0.086-0.315
				c-2.837-4.763-8.824-7.212-17.794-7.281l-0.604,0.014c-3.624,0.097-13.251,0.354-17.369,7.267
				c-0.057,0.095-0.086,0.204-0.086,0.315v11.52c-2.605,2.848-2.702,3.831-2.446,4.415c0.106,0.245,0.405,0.654,1.202,0.654
				c0.16,0,0.333-0.016,0.528-0.046l0.381,1.123c-0.459-0.222-0.997-0.343-1.625-0.292c-0.858,0.072-1.589,0.578-2.114,1.465
				c-1.056,1.782-1.108,4.888-0.448,6.371c0.727,1.636,2.268,4.74,2.61,5.426c-0.006,0.68,0.058,3.245,1.329,4.572
				c0.527,0.549,1.185,0.828,1.956,0.828c0.165,0,0.322-0.006,0.474-0.015l-0.147,7.795c-0.003,0.137,0.04,0.27,0.121,0.379
				c0.035,0.046,1.599,2.156,3.4,4.741v7.566l-2.051-1.396l-3.813,11.383h17.645h0.638h17.644l-3.812-11.383l-1.641,1.117V77.6
				c1.813-2.605,3.397-4.742,3.432-4.788c0.082-0.109,0.124-0.242,0.122-0.379l-0.15-7.947c0.408,0.111,0.9,0.167,1.483,0.167
				c0.771,0,1.429-0.279,1.957-0.828c1.271-1.327,1.334-3.892,1.327-4.572c0.343-0.687,1.884-3.79,2.61-5.426
				C85.727,52.343,85.674,49.236,84.618,47.455z M45.462,50.249l-0.023,0.006l0.02-0.017L45.462,50.249z M73.055,85.677
				l-11.28,7.675l-10.87-7.395v-6.614c1.844,2.719,3.637,5.56,4.084,6.931c0.035,0.105,0.097,0.2,0.181,0.273
				c0.112,0.098,2.791,2.401,5.978,2.51c0,0,1.338,0.325,1.481,0.314l0.217-0.314c3.186-0.108,5.865-2.412,5.977-2.51
				c0.084-0.073,0.147-0.168,0.181-0.273c0.445-1.362,2.22-4.178,4.052-6.885V85.677z M83.328,53.942
				c-0.807,1.812-2.638,5.475-2.655,5.512c-0.047,0.093-0.068,0.197-0.064,0.3c0.029,0.75,0.526,2.285-0.369,3.218
				c-0.29,0.302-0.639,0.448-1.067,0.448c-1.239,0-1.572-0.285-1.646-0.373c-0.026-0.031-0.076-0.059-0.135-0.085l0.082-5.713
				l-5.056,13.378l-5.897,14.324l-4.223-0.309v-0.007l-0.051,0.004l-0.052-0.004v0.007l-4.222,0.309l-5.898-14.324L47.019,57.25
				l0.088,6.108c-0.096-0.03-0.198-0.038-0.298-0.018c-0.271,0.054-0.6,0.081-0.981,0.081c-0.428,0-0.776-0.146-1.066-0.448
				c-0.896-0.933-1.015-3.083-0.986-3.833c0.004-0.104-0.018-0.208-0.064-0.3c-0.018-0.036-1.849-3.7-2.654-5.512
				c-0.525-1.183-0.452-3.835,0.383-5.245c0.317-0.537,0.707-0.828,1.157-0.865c1.92-0.165,2.834,3.007,2.843,3.039l0.023-0.006
				l0.844,2.488l0.549-8.422c0.481-0.155,0.984-0.321,1.509-0.496c3.818-1.269,9.045-3.008,14.166-3.008
				c0.991,0,1.957,0.066,2.866,0.196c3.783,0.541,7.084,1.979,9.737,3.134c1.01,0.44,1.908,0.831,2.697,1.108l0.488,7.488
				l0.877-2.584c0,0,0.693-2.479,2.591-2.321c0.45,0.037,0.84,0.328,1.157,0.865C83.779,50.107,83.853,52.759,83.328,53.942z"/>
			<path d="M71.949,69.645c-0.315-0.085-0.64,0.091-0.744,0.4c-0.003,0.01-0.38,1.06-1.396,1.285
				c-0.057,0.014-0.111,0.02-0.161,0.02c-0.379,0-0.72-0.426-1.286-1.178C67.948,69.622,67.479,69,66.82,68.4
				c-0.478-0.435-1.13-0.655-1.938-0.655c-1.484,0-3.359,0.731-5.173,1.439c-0.912,0.356-1.774,0.691-2.556,0.927
				c-0.359,0.107-0.708,0.162-1.039,0.162c-1.807,0-2.66-1.627-2.694-1.693c-0.096-0.191-0.283-0.319-0.495-0.338
				c-0.214-0.018-0.42,0.073-0.548,0.243l-0.346,0.462c-0.16,0.213-0.164,0.505-0.011,0.723c0.047,0.066,0.852,1.185,2.193,1.836
				c0.684,1.108,2.261,3.673,3.058,5.02c0.106,0.18,0.208,0.358,0.308,0.533c0.806,1.408,1.636,2.86,3.664,2.86
				c0.208,0,0.427-0.016,0.66-0.048c2.451-0.335,3.455-2.031,4.843-4.379c0.122-0.205,0.247-0.417,0.377-0.636
				c0.66-1.102,1.117-1.738,1.415-2.107c0.255,0.117,0.524,0.187,0.809,0.187l0,0c0.05,0,0.101-0.002,0.15-0.007
				c1.507-0.129,2.59-1.087,2.896-2.565C72.459,70.045,72.264,69.73,71.949,69.645z M66.329,73.793L66.203,73.7
				c-0.182,1.096-2.134,1.05-2.82,0.958c-0.687-0.091-0.796-0.638-0.796-0.638c0,0.455-0.217,0.547-0.686,0.821
				c-0.471,0.273-1.844,0.594-2.459,0.548s-0.687-0.502-0.687-0.502l-0.654,0.096l-0.729-0.678c-0.396-0.65-0.82-1.346-1.203-1.97
				c-0.028-0.139-0.004-0.265,0.048-0.372c0.467-0.01,1.838-0.443,2.096-0.549c0.027,0.049,0.047,0.104,0.056,0.17
				c0.035,0.264-0.001,0.093,0.025-0.201c0.923-0.376,2.217-0.886,3.347-1.282c0.236,0.803,0.244,1.228,0.415,0.771
				c0.069-0.186,0.165-0.586,0.319-1.021c0.538-0.175,0.997-0.304,1.294-0.35c0.41-0.063,0.753-0.095,1.045-0.095
				c0.769,0,1.021,0.211,1.167,0.417c0.071,0.102,0.158,0.243,0.262,0.41c0.324,0.521,0.762,1.224,1.305,1.781
				C67.198,72.451,66.79,73.046,66.329,73.793z"/>
			<path d="M60.596,46.743l-0.616,1.461l-0.384-1.692l-9.444,1.073l-2.231,3c0.538-0.539,2-1.077,2.692-1.077s9.905-0.15,9.905-0.15
				L60.596,46.743z"/>
			<path d="M65.328,46.666l-0.384,1.692l-0.615-1.461l0.076,2.615c0,0,9.213,0.149,9.905,0.149s2.154,0.539,2.692,1.077l-2.23-3
				L65.328,46.666z"/>
			<path d="M65.021,65.39c-0.668,0.352-2.922,0.909-2.922,0.909s-2.46-0.489-3.769-1.609c-1.523-1.305-4.024,0.279-5.255,2.706
				c0,0,1.846,2.054,3.076,2.054c1.231,0,5.948-1.96,5.948-1.96s1.794-0.653,3.537-0.561c1.744,0.094,2.923,2.801,3.846,3.08
				c0.923,0.28,2.425-1.527,2.425-1.527s-2.309-2.805-3.348-3.651C66.842,63.429,65.81,64.973,65.021,65.39z"/>
			<path d="M52.986,52.197c0.427,1.01,1.575,1.104,1.575,1.104c1.028-0.076,1.547-0.718,1.746-1.042
				c1.106,0.034,1.896,0.068,1.896,0.068s-0.71-0.247-1.614-0.469c-0.743-0.184-1.618-0.351-2.335-0.351
				c-1.589,0-3.281,0.718-3.281,0.718C51.56,52.202,52.259,52.194,52.986,52.197z"/>
			<path d="M67.813,51.858c-0.902,0.223-1.613,0.469-1.613,0.469s0.789-0.034,1.896-0.068c0.198,0.325,0.717,0.966,1.745,1.042
				c0,0,1.148-0.094,1.575-1.104c0.729-0.003,1.426,0.004,2.013,0.028c0,0-1.69-0.718-3.28-0.718
				C69.431,51.507,68.557,51.674,67.813,51.858z"/>
		</g>
	</g>
</g>
</svg>
