<?xml version="1.0" encoding="utf-8"?>
<!-- Generator: Adobe Illustrator 16.0.0, SVG Export Plug-In . SVG Version: 6.00 Build 0)  -->
<!DOCTYPE svg PUBLIC "-//W3C//DTD SVG 1.1 Basic//EN" "http://www.w3.org/Graphics/SVG/1.1/DTD/svg11-basic.dtd">
<svg version="1.1" baseProfile="basic" id="Слой_1"
	 xmlns="http://www.w3.org/2000/svg" xmlns:xlink="http://www.w3.org/1999/xlink" x="0px" y="0px" width="70px" height="70px"
	 viewBox="0 0 70 70" xml:space="preserve">
<g>
	<g>
		<g>
			<g>
				<g>
					<g>
						<g>
							<g>
								<g>
									<g>
										<g>
											<g>
												<g>
													<g>
														<g>
															<g>
																<circle fill="#FFFFFF" cx="35" cy="35" r="35"/>
															</g>
														</g>
													</g>
												</g>
											</g>
										</g>
									</g>
								</g>
							</g>
						</g>
					</g>
				</g>
			</g>
		</g>
	</g>
	<g>
		<g>
			<path d="M37.416,35.25c-0.307-0.432-0.922-2.829-1.238-4.238c-0.033-0.152-0.168-0.26-0.324-0.26h-1.202
				c-0.159,0-0.295,0.112-0.327,0.268c-0.27,1.359-0.813,3.676-1.115,4.105c-0.43,0.605-0.533,0.732-0.535,0.736
				c-0.03,0.035-0.054,0.076-0.066,0.121c-0.145,0.478-0.127,0.826,0.05,1.064c0.127,0.17,0.327,0.266,0.563,0.266
				c0.067,0,0.125-0.008,0.166-0.017h0.483c0.319,0.347,1.042,0.912,1.3,0.964c0.021,0.006,0.043,0.008,0.065,0.008
				c0.065,0,0.129-0.02,0.185-0.057c0.355-0.236,0.927-0.632,1.208-0.915h0.488c0.039,0.009,0.098,0.017,0.166,0.017
				c0.236,0,0.436-0.096,0.563-0.266c0.164-0.223,0.189-0.541,0.076-0.971C37.918,35.96,37.797,35.79,37.416,35.25z M37.322,36.641
				c-0.006,0.002-0.02,0.004-0.039,0.004c-0.025,0-0.047-0.002-0.043-0.002c-0.029-0.009-0.059-0.013-0.088-0.013h-0.676
				c-0.115,0-0.223,0.06-0.283,0.158c-0.078,0.11-0.541,0.46-0.98,0.76c-0.271-0.176-0.813-0.616-0.9-0.757
				c-0.061-0.1-0.169-0.161-0.285-0.161h-0.676c-0.025,0-0.059,0.005-0.082,0.011c0,0-0.021,0.004-0.049,0.004
				c-0.017,0-0.028,0-0.029,0.002c-0.01-0.021-0.041-0.129,0.038-0.414c0.067-0.088,0.215-0.285,0.524-0.723
				c0.422-0.6,0.985-3.199,1.17-4.091h0.666c0.207,0.905,0.859,3.616,1.283,4.216c0.271,0.385,0.365,0.524,0.398,0.575
				C37.361,36.533,37.316,36.639,37.322,36.641z"/>
			<path d="M39.713,39.323h-8.896c-0.122,0-0.234,0.065-0.292,0.172c-0.06,0.104-0.056,0.235,0.01,0.339
				c1.187,1.881,2.166,2.775,4.529,2.775c0.138,0,0.28-0.004,0.43-0.01c2.719-0.115,4.424-2.652,4.497-2.762
				c0.066-0.104,0.074-0.232,0.016-0.341C39.947,39.391,39.834,39.323,39.713,39.323z M38.018,40.934
				c-0.105-0.01-0.213-0.021-0.316-0.029h-5.535c-0.25-0.256-0.488-0.559-0.734-0.914h7.595
				C38.785,40.264,38.443,40.609,38.018,40.934z"/>
			<path d="M30.172,52.76h-0.563C29.608,52.76,29.812,52.768,30.172,52.76z"/>
			<path d="M33.357,30.551l0.264-1.431l-0.458,0.542l-0.375-0.5c-1.371,0.232-3.507-0.33-4.14-0.092l-1.33,1.666
				c0,0,1.405-0.663,1.913-0.723C30.264,29.895,33.357,30.551,33.357,30.551z"/>
			<path d="M37.504,29.163l-0.375,0.5l-0.457-0.542l0.264,1.431c0,0,3.092-0.657,4.125-0.536c0.508,0.059,1.912,0.723,1.912,0.723
				l-1.328-1.668C41.01,28.833,38.875,29.395,37.504,29.163z"/>
			<path d="M46.494,29.236c1.332-0.887,1.111-2.219,1.111-2.219c-0.111-1.776-1.557-2-1.557-2s0.83-1.34,0.666-2.22
				c-0.332-1.776-1.887-2.332-1.887-2.332c0.666-4.774-2.441-5.661-3.998-6.327c-1.553-0.666-4.551,0.332-4.551,0.332
				s-1.554-1.554-3.552-1.554c-1.999,0-2.887,1.554-2.887,1.554c-1-0.555-3-0.666-3-0.666c-2.441-0.222-3.662,2-3.662,2
				c1.442-0.556,1.664,0.555,1.664,0.555c-1.888,1.554-2.558,1.521-3.107,3.33c-0.777,2.555,0.666,4.441,0.666,4.441
				c-1.443,0.555-1.555,1.887-1.555,1.887c-0.777,2.109,2.221,4.107,2.221,4.107c-2.109,1.889-0.777,2.998-0.777,2.998
				c0.531,0.909,1.319,0.991,1.768,0.951c0.031,0.156,0.051,0.292,0.051,0.391c0,0.75,0.265,1.799,0.846,2.329
				c0.245,0.224,0.528,0.339,0.827,0.339c0.036,0,0.071-0.002,0.106-0.005c0.139-0.013,0.257-0.043,0.359-0.081
				c0.09,0.828,0.244,1.997,0.467,2.857l-0.74,12.479c-0.006,0.093,0.027,0.183,0.091,0.25c0.063,0.066,0.149,0.104,0.243,0.104
				h4.457c-0.229,0.011-0.428,0.017-0.594,0.02H45.01l-0.832-5.992c-0.082,0.112-0.166,0.225-0.252,0.334l-0.635-6.271l-0.008,0.009
				c0.018-0.034,0.035-0.065,0.055-0.101c0.383-0.723,0.561-2.524,0.635-3.682c0.1,0.034,0.209,0.062,0.34,0.073
				c0.035,0.003,0.072,0.005,0.109,0.005c0.318,0,0.631-0.131,0.906-0.383c0.611-0.557,0.93-1.57,0.93-2.286
				c0-0.178,0.039-0.483,0.084-0.839c0.037-0.302,0.08-0.63,0.109-0.965c1.424,0.122,1.707-2.313,1.707-2.313
				C46.826,30.236,46.494,29.236,46.494,29.236z M40.18,41.45c0,0-2.055-0.277-2.359,1.026c-0.168,0.725-0.133,1.08-0.068,1.252
				c-0.563-0.097-0.715-0.711-0.715-0.711c-0.148,0.174-0.156,0.379-0.109,0.567c-0.598-0.112-1.334-0.091-1.763,0.521
				c-0.438-0.623-1.195-0.635-1.799-0.513c0.049-0.192,0.042-0.399-0.107-0.575c0,0-0.145,0.588-0.679,0.705
				c0.063-0.176,0.095-0.531-0.071-1.246c-0.305-1.305-2.358-1.025-2.358-1.025c0.377-0.637,0.045-1.284-0.175-1.602
				c0.146-0.295,0.449-0.703,1.008-0.703c0.874,0,3.081-0.25,3.081-0.25s0.76,0.59,1.149,0.082c0.39,0.506,1.283-0.082,1.283-0.082
				s2.207,0.25,3.082,0.25c0.455,0,0.74,0.271,0.91,0.531C40.344,39.842,39.709,40.657,40.18,41.45z M42.9,48.241
				c-2.16,2.102-4.98,3.229-7.465,3.834h-8.771l0.691-10.71c2.769,4.834,5.722,5.613,5.851,5.646
				c0.022,0.007,1.573,0.414,2.077,0.427c0.508,0.013,1.809-0.203,2.274-0.408c0.75-0.334,1.646-1.107,2.148-1.538
				c0.803-0.689,1.723-1.677,2.648-3.087L42.9,48.241z M45.682,33.542c-0.051,0.394-0.09,0.703-0.09,0.923
				c0,0.643-0.313,1.43-0.711,1.793c-0.17,0.153-0.336,0.223-0.508,0.207c-0.17-0.016-0.287-0.066-0.359-0.156
				c0.006-0.125,0.018-0.438-0.018-0.521c-0.061-0.147-0.182-0.29-0.344-0.319c-0.182-0.031-0.354,0.088-0.387,0.268
				c-0.01,0.047-0.063,0.384,0.074,0.723c-0.02,0.355-0.047,0.799-0.088,1.264c-0.105,0.229-0.227,0.473-0.352,0.715
				c-0.189-0.217-0.5-0.44-0.846-0.299c0,0,0.607,0.365,0.447,0.994c0,0.008-0.082,0.146-0.121,0.205
				c-0.051-0.283-0.201-0.639-0.57-0.691c0,0,0.285,0.539-0.041,0.982c-0.184-0.133-0.482-0.258-0.896-0.139
				c0.045-0.457-0.053-0.844-0.053-0.844c-0.041-1.334-3.248-0.666-3.248-0.666l-1.16-0.084c-0.314,0.242-1.169,0.541-1.169,0.541
				H35.18c0,0-0.725-0.299-1.035-0.541l-1.166,0.084c0,0-3.206-0.666-3.248,0.666c0,0-0.107,0.438-0.042,0.937
				c-0.558-0.267-0.943-0.101-1.155,0.063c-0.347-0.447-0.053-1-0.053-1c-0.354,0.051-0.508,0.375-0.564,0.651
				c-0.047-0.071-0.094-0.147-0.141-0.228c-0.105-0.59,0.459-0.934,0.459-0.934c-0.331-0.138-0.631,0.064-0.822,0.275
				c-0.162-0.314-0.313-0.629-0.438-0.902c-0.047-0.386-0.088-0.748-0.116-1.048c0.14-0.341,0.084-0.681,0.076-0.728
				c-0.033-0.18-0.205-0.299-0.384-0.268c-0.156,0.027-0.471,0.109-0.396,0.596c0.007,0.043,0.012,0.131,0.021,0.254
				c-0.071,0.082-0.186,0.131-0.349,0.146c-0.149,0.015-0.289-0.04-0.423-0.163c-0.409-0.373-0.629-1.225-0.629-1.837
				c0-0.3-0.104-0.722-0.223-1.211c-0.377-1.556-0.611-2.868,0.358-3.153c0.161-0.031,0.634,0.348,1.074,0.832
				c0.533,0.688,0.968,1.413,0.968,1.413l-0.115-2.532l0.02-4.405c0-0.013,0.033-0.707,0.279-1.679l0.392-0.98
				c-0.28,1.117-0.224,2.3,0.735,3.174c0,0,0.263-1.589,1.012-3.113c0.458,0.907,1.189,1.586,2.357,1.438
				c0,0-2.291-1.573,0.834-3.147c0.179-0.09,0.321-0.176,0.438-0.259l3.708-0.153c-0.891,3.22,1.441,4.219,1.441,4.219
				c-0.555-1.666,1.109-2.332,1.109-2.332c1.443,1.666,3.109,1.222,3.109,1.222c0.443,1.999,0.334,3.331,0.334,3.331l0.729,2.355
				l0.006,1.42h0.035c-0.002,0-0.002,0-0.002,0.002c-0.08,0.164-0.012,0.365,0.154,0.445s0.365,0.01,0.443-0.156
				c0.236-0.484,0.662-1.041,0.896-1.062c0.361-0.032,0.521,0.088,0.611,0.183c0.113,0.117,0.191,0.287,0.246,0.487l0.074,0.407
				C45.883,31.941,45.764,32.886,45.682,33.542z"/>
			<path d="M32.65,32.541c0.03-0.05,0.03-0.111,0.003-0.164c-0.436-0.801-1.018-1.208-1.732-1.208c-1.201,0-2.318,1.179-2.367,1.229
				c-0.045,0.047-0.058,0.119-0.03,0.182c0.026,0.061,0.087,0.1,0.151,0.1c0.002,0,0.002,0,0.002,0l3.83-0.056
				C32.567,32.623,32.62,32.592,32.65,32.541z M30.26,31.63c-0.222,0.138-0.393,0.331-0.393,0.55c0,0.051,0.008,0.1,0.018,0.148
				l-0.78,0.012C29.375,32.111,29.793,31.802,30.26,31.63z M31.624,32.305c0.008-0.041,0.014-0.082,0.014-0.125
				c0-0.261-0.135-0.49-0.338-0.623c0.35,0.103,0.655,0.348,0.916,0.738L31.624,32.305z"/>
			<path d="M39.309,31.17c-0.715,0-1.297,0.406-1.73,1.208c-0.029,0.052-0.027,0.114,0.002,0.164s0.082,0.082,0.141,0.082
				l3.83,0.056c0.002,0,0.002,0,0.002,0c0.066,0,0.127-0.039,0.154-0.099c0.027-0.062,0.014-0.133-0.031-0.181
				C41.629,32.35,40.51,31.17,39.309,31.17z M38.93,31.557c-0.201,0.133-0.338,0.362-0.338,0.623c0,0.043,0.006,0.084,0.014,0.125
				l-0.592-0.01C38.275,31.904,38.582,31.658,38.93,31.557z M40.344,32.328c0.012-0.049,0.018-0.098,0.018-0.148
				c0-0.218-0.17-0.412-0.393-0.549c0.467,0.172,0.887,0.48,1.154,0.708L40.344,32.328z"/>
		</g>
		<path opacity="0.2" fill="#020202" d="M45.385,29.877c-0.119-0.104-0.523-0.021-0.664,0c-0.293,0.042-0.83,0.419-1.055,0.667
			l0.055-3.386c0.123-0.936-0.168-0.897-0.109-1.499c0.385-4.032-4.221-7.648-7.176-8.604L35.217,17v29.064l-5.598-1.615
			c0,0,3.441,7.439,9.548,7.105l4.219-3.443c0,0-0.59-6.35-0.58-6.367c0,0,0.77-3.096,1.162-4.865
			c0.082-0.374,0.553-0.146,1.104-0.313c0.789-0.239,0.939-1.782,0.939-2.498C46.01,33.402,46.088,30.486,45.385,29.877z"/>
	</g>
</g>
</svg>
