<?xml version="1.0" encoding="utf-8"?>
<!-- Generator: Adobe Illustrator 16.0.0, SVG Export Plug-In . SVG Version: 6.00 Build 0)  -->
<!DOCTYPE svg PUBLIC "-//W3C//DTD SVG 1.1 Basic//EN" "http://www.w3.org/Graphics/SVG/1.1/DTD/svg11-basic.dtd">
<svg version="1.1" baseProfile="basic" id="Слой_1"
	 xmlns="http://www.w3.org/2000/svg" xmlns:xlink="http://www.w3.org/1999/xlink" x="0px" y="0px" width="125px" height="125px"
	 viewBox="0 0 125 125" xml:space="preserve">
<g>
	<g>
		<g>
			<g>
				<g>
					<g>
						<g>
							<g>
								<g>
									<g>
										<g>
											<g>
												<g>
													<g>
														<g>
															<g>
																<circle fill="#FFFFFF" cx="62.388" cy="62.5" r="62.5"/>
															</g>
														</g>
													</g>
												</g>
											</g>
										</g>
									</g>
								</g>
							</g>
						</g>
					</g>
				</g>
			</g>
		</g>
	</g>
	<g>
		<g>
			<path d="M66.701,62.946c-0.545-0.771-1.644-5.052-2.209-7.568c-0.061-0.272-0.302-0.465-0.58-0.465h-2.148
				c-0.284,0-0.527,0.2-0.583,0.479c-0.482,2.427-1.45,6.563-1.993,7.33c-0.766,1.083-0.951,1.309-0.955,1.314
				c-0.054,0.063-0.094,0.137-0.118,0.216c-0.256,0.854-0.226,1.477,0.09,1.902c0.227,0.305,0.584,0.474,1.005,0.474
				c0.122,0,0.225-0.014,0.297-0.028h0.863c0.571,0.617,1.862,1.628,2.32,1.721c0.039,0.009,0.079,0.012,0.118,0.012
				c0.116,0,0.23-0.033,0.329-0.099c0.637-0.421,1.659-1.128,2.159-1.634h0.872c0.071,0.015,0.176,0.028,0.297,0.028
				c0.421,0,0.777-0.169,1.005-0.474c0.295-0.396,0.341-0.965,0.138-1.733C67.598,64.214,67.382,63.91,66.701,62.946z M66.533,65.43
				c-0.009,0.003-0.03,0.008-0.067,0.008c-0.047,0-0.083-0.007-0.077-0.006c-0.052-0.014-0.104-0.021-0.156-0.021h-1.207
				c-0.208,0-0.397,0.104-0.506,0.282c-0.139,0.197-0.968,0.821-1.753,1.357c-0.482-0.313-1.451-1.1-1.607-1.352
				c-0.107-0.178-0.301-0.288-0.509-0.288h-1.207c-0.045,0-0.103,0.009-0.146,0.019c0,0.001-0.038,0.009-0.087,0.009
				c-0.029,0-0.05-0.003-0.053,0.001c-0.015-0.038-0.072-0.229,0.067-0.738c0.121-0.157,0.385-0.512,0.936-1.291
				c0.756-1.071,1.761-5.712,2.09-7.306h1.188c0.374,1.617,1.535,6.458,2.292,7.529c0.484,0.688,0.653,0.938,0.711,1.027
				C66.604,65.238,66.525,65.426,66.533,65.43z"/>
			<path d="M70.803,70.22H54.917c-0.218,0-0.417,0.117-0.521,0.307c-0.105,0.189-0.098,0.422,0.018,0.605
				c2.117,3.358,3.867,4.958,8.088,4.958c0.246,0,0.502-0.007,0.767-0.018c4.856-0.205,7.902-4.738,8.03-4.931
				c0.121-0.183,0.132-0.417,0.027-0.609C71.223,70.339,71.021,70.22,70.803,70.22z M67.777,73.096
				c-0.189-0.018-0.379-0.037-0.567-0.055h-9.883c-0.447-0.454-0.872-0.995-1.31-1.632h13.562
				C69.148,71.898,68.537,72.517,67.777,73.096z"/>
			<path d="M53.767,94.215h-1.008C52.759,94.215,53.123,94.228,53.767,94.215z"/>
			<path d="M59.453,54.556l0.471-2.555l-0.817,0.967l-0.669-0.892c-2.449,0.414-6.262-0.589-7.392-0.164l-2.375,2.976
				c0,0,2.509-1.185,3.416-1.291C53.931,53.383,59.453,54.556,59.453,54.556z"/>
			<path d="M66.859,52.076l-0.67,0.892l-0.817-0.967l0.471,2.555c0,0,5.522-1.173,7.367-0.959c0.907,0.106,3.415,1.291,3.415,1.291
				l-2.374-2.976C73.12,51.487,69.309,52.49,66.859,52.076z"/>
			<path d="M82.914,52.209c2.379-1.586,1.982-3.965,1.982-3.965c-0.198-3.172-2.775-3.569-2.775-3.569s1.483-2.394,1.189-3.965
				c-0.595-3.172-3.37-4.164-3.37-4.164c1.189-8.525-4.361-10.111-7.138-11.3c-2.774-1.19-8.128,0.595-8.128,0.595
				s-2.775-2.776-6.343-2.776c-3.569,0-5.155,2.776-5.155,2.776c-1.785-0.991-5.354-1.19-5.354-1.19
				c-4.361-0.396-6.542,3.569-6.542,3.569c2.577-0.991,2.974,0.991,2.974,0.991c-3.371,2.776-4.568,2.718-5.551,5.948
				c-1.388,4.56,1.189,7.931,1.189,7.931c-2.577,0.991-2.775,3.37-2.775,3.37c-1.388,3.767,3.965,7.335,3.965,7.335
				c-3.767,3.371-1.388,5.353-1.388,5.353c0.948,1.624,2.356,1.77,3.155,1.699c0.055,0.28,0.091,0.522,0.091,0.697
				c0,1.339,0.473,3.211,1.51,4.16c0.437,0.397,0.943,0.604,1.477,0.604c0.063,0,0.126-0.003,0.19-0.008
				c0.248-0.022,0.458-0.077,0.643-0.146c0.161,1.48,0.436,3.567,0.832,5.104l-1.32,22.286c-0.011,0.165,0.047,0.325,0.16,0.446
				c0.113,0.119,0.269,0.188,0.434,0.188h7.96c-0.408,0.019-0.765,0.029-1.061,0.035h26.5L78.778,83.51
				c-0.146,0.203-0.298,0.401-0.451,0.597l-1.131-11.2l-0.015,0.016c0.033-0.061,0.064-0.117,0.098-0.178
				c0.685-1.292,0.999-4.509,1.135-6.574c0.174,0.062,0.373,0.109,0.604,0.13c0.065,0.006,0.13,0.01,0.196,0.01
				c0.569-0.001,1.127-0.235,1.62-0.685c1.089-0.991,1.658-2.803,1.658-4.081c0-0.317,0.07-0.865,0.15-1.498
				c0.069-0.539,0.143-1.124,0.197-1.723c2.543,0.218,3.048-4.131,3.048-4.131C83.508,53.994,82.914,52.209,82.914,52.209z
				 M71.638,74.018c0,0-3.667-0.495-4.213,1.835c-0.302,1.291-0.239,1.926-0.122,2.235c-1.008-0.173-1.276-1.272-1.276-1.272
				c-0.265,0.312-0.282,0.678-0.196,1.016c-1.067-0.202-2.384-0.162-3.15,0.928c-0.781-1.112-2.136-1.131-3.213-0.915
				c0.088-0.342,0.074-0.713-0.193-1.028c0,0-0.256,1.051-1.21,1.26c0.113-0.314,0.17-0.949-0.127-2.223
				c-0.545-2.33-4.213-1.835-4.213-1.835c0.674-1.135,0.08-2.292-0.313-2.859c0.261-0.526,0.803-1.255,1.8-1.255
				c1.561,0,5.502-0.445,5.502-0.445s1.357,1.051,2.052,0.146c0.696,0.904,2.293-0.146,2.293-0.146s3.94,0.445,5.502,0.445
				c0.814,0,1.322,0.485,1.625,0.95C71.931,71.147,70.798,72.602,71.638,74.018z M76.496,86.144
				c-3.859,3.754-8.892,5.769-13.331,6.847H47.502l1.234-19.125c4.944,8.633,10.217,10.027,10.448,10.084
				c0.04,0.01,2.809,0.739,3.71,0.762c0.907,0.021,3.232-0.362,4.061-0.729c1.339-0.596,2.941-1.979,3.836-2.748
				c1.433-1.231,3.077-2.994,4.728-5.51L76.496,86.144z M81.463,59.896c-0.089,0.702-0.16,1.256-0.16,1.648
				c0,1.147-0.557,2.553-1.269,3.202c-0.301,0.273-0.601,0.398-0.907,0.369c-0.304-0.027-0.513-0.119-0.641-0.28
				c0.01-0.221,0.028-0.78-0.031-0.928c-0.108-0.265-0.324-0.517-0.614-0.569c-0.324-0.056-0.633,0.156-0.691,0.479
				c-0.015,0.081-0.111,0.683,0.133,1.288c-0.032,0.634-0.084,1.427-0.157,2.257c-0.189,0.405-0.403,0.843-0.627,1.275
				c-0.339-0.387-0.894-0.788-1.508-0.531c0,0,1.083,0.652,0.8,1.774c-0.003,0.012-0.146,0.261-0.217,0.367
				c-0.09-0.508-0.361-1.142-1.022-1.235c0,0,0.513,0.963-0.071,1.754c-0.326-0.237-0.861-0.461-1.599-0.249
				c0.078-0.815-0.094-1.505-0.094-1.505c-0.074-2.38-5.799-1.19-5.799-1.19l-2.081-0.148c-0.556,0.432-2.087,0.967-2.087,0.967
				h-0.114c0,0-1.292-0.535-1.847-0.967l-2.082,0.148c0,0-5.724-1.189-5.799,1.19c0,0-0.194,0.785-0.074,1.672
				c-0.994-0.476-1.685-0.179-2.063,0.113c-0.62-0.799-0.094-1.785-0.094-1.785c-0.631,0.09-0.905,0.67-1.008,1.164
				c-0.083-0.129-0.167-0.264-0.251-0.404c-0.189-1.054,0.819-1.666,0.819-1.666c-0.591-0.247-1.127,0.115-1.468,0.489
				c-0.289-0.56-0.557-1.122-0.781-1.611c-0.086-0.687-0.156-1.335-0.208-1.871c0.248-0.607,0.151-1.214,0.136-1.296
				c-0.059-0.322-0.365-0.535-0.686-0.478c-0.278,0.048-0.84,0.195-0.708,1.061c0.012,0.079,0.019,0.237,0.039,0.453
				c-0.129,0.148-0.332,0.235-0.622,0.262c-0.268,0.028-0.516-0.07-0.756-0.29c-0.73-0.666-1.123-2.188-1.123-3.281
				c0-0.536-0.184-1.289-0.396-2.162c-0.676-2.779-1.093-5.121,0.639-5.633c0.287-0.055,1.131,0.621,1.917,1.486
				c0.952,1.229,1.729,2.525,1.729,2.525l-0.205-4.521l0.033-7.867c0.001-0.021,0.06-1.262,0.499-2.998l0.7-1.75
				c-0.503,1.995-0.398,4.108,1.314,5.668c0,0,0.468-2.839,1.805-5.561c0.818,1.621,2.124,2.833,4.212,2.57
				c0,0-4.092-2.81,1.487-5.621c0.319-0.161,0.576-0.314,0.782-0.462l6.622-0.276c-1.586,5.75,2.577,7.534,2.577,7.534
				c-0.991-2.974,1.981-4.163,1.981-4.163c2.578,2.974,5.552,2.181,5.552,2.181c0.793,3.569,0.596,5.948,0.596,5.948l1.302,4.208
				l0.011,2.534l0.063,0c-0.001,0.001-0.002,0.003-0.002,0.004c-0.144,0.295-0.021,0.651,0.275,0.794
				c0.295,0.144,0.651,0.02,0.795-0.276c0.42-0.867,1.181-1.859,1.6-1.897c0.643-0.058,0.932,0.158,1.093,0.326
				c0.202,0.21,0.343,0.513,0.439,0.872l0.132,0.726C81.824,57.037,81.612,58.725,81.463,59.896z"/>
			<path d="M58.191,58.109c0.053-0.09,0.055-0.201,0.005-0.292c-0.778-1.431-1.818-2.157-3.093-2.157
				c-2.146,0-4.142,2.105-4.226,2.195c-0.082,0.087-0.103,0.214-0.055,0.324c0.048,0.107,0.155,0.177,0.272,0.177
				c0.001,0,0.003,0,0.004,0l6.84-0.099C58.042,58.255,58.138,58.199,58.191,58.109z M53.925,56.483
				c-0.396,0.244-0.701,0.591-0.701,0.98c0,0.092,0.012,0.18,0.031,0.266l-1.393,0.021C52.343,57.341,53.091,56.79,53.925,56.483z
				 M56.36,57.685c0.013-0.072,0.022-0.146,0.022-0.221c0-0.467-0.24-0.875-0.604-1.113c0.625,0.181,1.171,0.621,1.636,1.318
				L56.36,57.685z"/>
			<path d="M70.083,55.66c-1.274,0-2.315,0.726-3.093,2.157c-0.05,0.091-0.048,0.203,0.005,0.292
				c0.052,0.089,0.148,0.146,0.252,0.147l6.84,0.099c0.001,0,0.003,0,0.004,0c0.118,0,0.225-0.069,0.272-0.177
				c0.049-0.109,0.027-0.237-0.055-0.324C74.225,57.765,72.229,55.66,70.083,55.66z M69.408,56.351
				c-0.363,0.238-0.604,0.646-0.604,1.113c0,0.076,0.009,0.149,0.021,0.221l-1.054-0.016C68.237,56.972,68.785,56.532,69.408,56.351
				z M71.931,57.729c0.02-0.086,0.031-0.174,0.031-0.266c0-0.388-0.303-0.735-0.698-0.978c0.832,0.307,1.579,0.857,2.059,1.265
				L71.931,57.729z"/>
		</g>
		<path opacity="0.2" fill="#020202" d="M80.936,53.352c-0.213-0.185-0.938-0.038-1.189,0c-0.523,0.075-1.479,0.748-1.884,1.19
			l0.099-6.047c0.221-1.671-0.3-1.602-0.197-2.677c0.686-7.2-7.534-13.657-12.813-15.365l-2.175-0.099v51.901L52.78,79.37
			c0,0,6.146,13.284,17.049,12.688l7.534-6.146c0,0-1.053-11.34-1.034-11.372c0,0,1.372-5.526,2.075-8.688
			c0.148-0.669,0.986-0.261,1.97-0.558c1.409-0.427,1.677-3.182,1.677-4.459C82.051,59.646,82.19,54.44,80.936,53.352z"/>
	</g>
</g>
</svg>
