<?xml version="1.0" encoding="utf-8"?>
<!-- Generator: Adobe Illustrator 16.0.0, SVG Export Plug-In . SVG Version: 6.00 Build 0)  -->
<!DOCTYPE svg PUBLIC "-//W3C//DTD SVG 1.1 Basic//EN" "http://www.w3.org/Graphics/SVG/1.1/DTD/svg11-basic.dtd">
<svg version="1.1" baseProfile="basic" id="Слой_1"
	 xmlns="http://www.w3.org/2000/svg" xmlns:xlink="http://www.w3.org/1999/xlink" x="0px" y="0px" width="125px" height="125px"
	 viewBox="0 0 125 125" xml:space="preserve">
<g>
	<circle fill="#FFFFFF" cx="63.084" cy="62.5" r="62.5"/>
	<g>
		<g>
			<path d="M89.088,46.274c-0.155-0.104-0.345-0.146-0.529-0.117c-2.321,0.361-4.191,1.772-5.576,3.28l-0.019-4.967
				c0.09-0.012,0.178-0.033,0.261-0.077c0.24-0.129,0.391-0.381,0.391-0.654V37.05c0-0.134-0.036-0.266-0.104-0.381
				c-0.264-0.441-0.554-0.865-0.864-1.273c-0.327-1.815-1.018-4.465-2.462-7.142c-2.351-4.35-7.201-9.545-16.974-9.612
				c-0.021-0.001-0.041-0.002-0.063-0.002l-0.079,0c-0.007,0-0.045,0-0.052,0c-0.021,0-0.041,0-0.062,0.002
				c-9.772,0.067-14.624,5.262-16.973,9.613c-1.328,2.459-2.017,4.893-2.375,6.685c-0.444,0.534-0.86,1.106-1.232,1.731
				c-0.068,0.115-0.104,0.247-0.104,0.381v6.69c0,0.272,0.15,0.524,0.391,0.653c0.11,0.06,0.232,0.089,0.353,0.089
				c0.063,0,0.126-0.011,0.188-0.027l-0.018,4.983c-1.385-1.508-3.255-2.919-5.577-3.28c-0.185-0.028-0.374,0.013-0.528,0.117
				c-0.131,0.088-3.179,2.188-2.355,6.354c0.057,0.565,0.666,5.895,3.483,7.876c1.541,1.084,3.232,1.407,4.931,0.953l-0.038,10.19
				c0,0.249,0.123,0.482,0.329,0.62c0.296,0.2,0.585,0.396,0.869,0.594c0.056,0.052,0.115,0.104,0.177,0.159l-1.731,24.972
				c-0.015,0.206,0.057,0.408,0.198,0.56c0.141,0.149,0.338,0.235,0.543,0.235h39.765c0.211,0,0.411-0.089,0.552-0.244
				s0.21-0.363,0.188-0.573l-2.475-24.863c0.396-0.278,0.801-0.557,1.221-0.839c0.207-0.138,0.33-0.371,0.329-0.62l-0.037-10.19
				c0.498,0.133,0.997,0.2,1.492,0.2l0,0c1.192,0,2.35-0.388,3.438-1.153c2.817-1.981,3.427-7.311,3.483-7.876
				C92.268,48.462,89.219,46.362,89.088,46.274z M43.758,42.418v-5.161c4.382-7.082,14.72-7.36,18.631-7.464l0.549-0.016l0.098,0
				c9.646,0.074,16.067,2.59,19.093,7.48v5.161c-2.811-1.617-10.387-5.452-19.192-5.549C54.143,36.966,46.568,40.801,43.758,42.418z
				 M81.688,97.302H44.283l1.604-23.141c0.636,0.479,1.431,1.042,2.416,1.69c6.883,5.561,8.944,9.701,8.966,9.749
				c0.116,0.241,0.352,0.402,0.619,0.422l4.958,0.357c0.057,0.013,0.113,0.02,0.171,0.02c0.018,0,0.035,0,0.055-0.001l0.011-0.001
				l0.013,0.001c0.073,0.004,0.146-0.001,0.215-0.018l4.968-0.358c0.265-0.02,0.501-0.181,0.616-0.42
				c0.025-0.051,2.205-4.435,9.579-10.238c0.347-0.238,0.667-0.465,0.962-0.679L81.688,97.302z M89.606,52.371
				c-0.006,0.025-0.011,0.053-0.013,0.079c-0.006,0.052-0.51,5.184-2.863,6.839c-1.43,1.005-2.584,1.146-4.141,0.435
				c-0.23-0.105-0.499-0.086-0.712,0.052s-1.085,0.374-1.084,0.628l0.03,8.046c-2.041,1.381-5.596,3.924-8.227,6.554
				c-3.902,3.902-6.503,7.247-6.503,7.247h-2.974h-0.186h-2.974c0,0-2.602-3.345-6.503-7.247c-3.026-3.026-7.153-6.194-8.857-7.465
				l0.026-7.135c0-0.254-0.127-0.49-0.34-0.628c-0.213-0.138-0.481-0.156-0.712-0.052c-1.558,0.713-3.084,0.57-4.513-0.435
				c-2.353-1.654-2.858-6.787-2.863-6.839c-0.002-0.026-0.006-0.054-0.012-0.079c-0.536-2.639,0.922-4.192,1.498-4.688
				c2.518,0.527,4.439,2.602,5.624,4.286c0.186,0.265,0.522,0.378,0.831,0.281c0.309-0.097,0.519-0.384,0.52-0.706l0.03-7.938
				c2.835-1.593,10.08-5.16,18.244-5.25c7.755,0.085,14.687,3.307,17.795,4.995l0.03,8.194c0.002,0.322,0.956,0.609,1.264,0.706
				c0.309,0.097,0.646-0.017,0.831-0.281c1.185-1.685,3.105-3.387,5.623-3.915C89.059,48.554,90.142,49.735,89.606,52.371z"/>
			<path d="M71.688,70.757c-2.901,0-6.368-0.567-8.505-0.364c-0.005,0-0.01-0.001-0.015-0.001c-1.729-0.161-4.319,0.176-6.777,0.312
				c-0.001,0.001-0.002,0.001-0.003,0.001c-0.171,0.009-0.341,0.018-0.51,0.024c-0.024,0.001-0.049,0.003-0.072,0.004
				c-0.152,0.006-0.304,0.011-0.454,0.015c-0.039,0.001-0.079,0.003-0.117,0.003c-0.188,0.005-0.373,0.007-0.557,0.007
				c-2.953,0-4.252-1.771-4.252-1.771c0,3.071,3.543,2.953,3.543,2.953h9.096h0.236h9.097c0,0,3.543,0.118,3.543-2.953
				C75.94,68.985,74.643,70.757,71.688,70.757z"/>
			<path d="M66.373,74.656h-6.497C62.829,78.199,66.373,74.656,66.373,74.656z"/>
			<path d="M54.577,59.273c-0.235,0.018-0.447,0.147-0.572,0.346c-0.132,0.214-1.308,2.113-1.577,3.188
				c-0.058,0.229-0.001,0.475,0.151,0.657c0.153,0.182,0.383,0.28,0.621,0.264c0.006,0,0.632-0.041,1.556-0.041
				c3.716,0,6.461,0.613,7.531,1.685c0.139,0.139,0.328,0.218,0.525,0.218h0.588c0.197,0,0.387-0.079,0.525-0.218
				c1.071-1.071,3.816-1.685,7.531-1.685c0.925,0,1.55,0.041,1.556,0.041c0.24,0.013,0.468-0.082,0.621-0.264
				c0.152-0.183,0.208-0.427,0.15-0.657c-0.268-1.074-1.443-2.974-1.577-3.188c-0.124-0.199-0.337-0.328-0.57-0.346l-2.674-0.215
				c-1.439-2.795-4.383-5.582-5.285-6.398c-0.136-0.124-0.313-0.192-0.498-0.192h-0.146c-0.184,0-0.362,0.068-0.498,0.192
				c-0.902,0.816-3.845,3.604-5.283,6.398L54.577,59.273z M58.408,60.077c1.079-2.339,3.595-4.874,4.698-5.92
				c1.103,1.046,3.619,3.581,4.699,5.92c0.112,0.244,0.348,0.408,0.616,0.43l2.718,0.218c0.234,0.392,0.556,0.957,0.813,1.479
				c-0.153-0.003-0.319-0.004-0.494-0.004c-2.821,0-6.499,0.337-8.346,1.901h-0.012c-1.846-1.565-5.524-1.901-8.346-1.901
				c-0.177,0-0.341,0.001-0.494,0.004c0.256-0.522,0.578-1.088,0.812-1.479l2.719-0.218C58.06,60.485,58.295,60.321,58.408,60.077z"
				/>
			<path d="M69.22,52.57c-0.016,0.004-0.032,0.009-0.047,0.013c0.93-0.353,2.097-0.951,3.425-1.984l6.442-0.496l-6.193-0.62
				c0,0-4.089,1.116-5.823,2.106L66.9,53.076c0,0,1.324,0.021,2.66-0.021c0.24,0.393,0.866,1.167,2.109,1.26
				c0,0,1.387-0.113,1.901-1.334c0.88-0.003,1.724,0.006,2.434,0.033c0,0-2.043-0.866-3.964-0.866
				C71.175,52.147,70.118,52.349,69.22,52.57z"/>
			<path d="M54.016,52.209c-1.919,0-3.963,0.867-3.963,0.867c0.709-0.028,1.554-0.037,2.433-0.034
				c0.516,1.221,1.902,1.334,1.902,1.334c1.242-0.091,1.868-0.866,2.109-1.26c1.336,0.041,2.598-0.04,2.598-0.04l-0.123-1.487
				c-1.734-0.99-5.822-2.106-5.822-2.106l-6.194,0.621l6.441,0.496c1.597,1.241,2.964,1.858,3.96,2.169
				c-0.166-0.046-0.339-0.091-0.521-0.136C55.939,52.411,54.883,52.209,54.016,52.209z"/>
		</g>
		<path opacity="0.2" d="M88.673,46.892c-2.973,0.462-5.173,2.869-6.426,4.65l-0.052-13.778c0,0-0.76-18.291-19.047-18.379v-0.003
			c-0.022,0-0.044,0.001-0.065,0.001c-0.022,0-0.043-0.001-0.065-0.001v0.002c-0.061,0-0.12,0.002-0.18,0.003v66.247l0.161,0.012
			l-2.454,0.597c0,0,3.717,6.319,7.434,11.707l11.335-0.743l-3.3-20.788c1.731-1.485,3.813-3.092,6.31-4.767L82.281,60.4
			c1.344,0.614,3.223,0.922,5.249-0.503c2.668-1.876,3.175-7.379,3.175-7.379C91.468,48.767,88.673,46.892,88.673,46.892z"/>
	</g>
</g>
</svg>
