<?xml version="1.0" encoding="utf-8"?>
<!-- Generator: Adobe Illustrator 16.0.0, SVG Export Plug-In . SVG Version: 6.00 Build 0)  -->
<!DOCTYPE svg PUBLIC "-//W3C//DTD SVG 1.1 Basic//EN" "http://www.w3.org/Graphics/SVG/1.1/DTD/svg11-basic.dtd">
<svg version="1.1" baseProfile="basic" id="Слой_1"
	 xmlns="http://www.w3.org/2000/svg" xmlns:xlink="http://www.w3.org/1999/xlink" x="0px" y="0px" width="125px" height="125px"
	 viewBox="0 0 125 125" xml:space="preserve">
<g>
	<circle fill="#FFFFFF" cx="62.783" cy="62.5" r="62.5"/>
	<g>
		<g>
			<path d="M91.455,52.31c-0.11-0.32-0.22-0.644-0.329-0.969c-1.021-3.061-1.826-5.478-3.831-5.478c-0.375,0-0.917,0.118-1.783,0.8
				c-0.768-0.947-1.57-2.032-2.012-2.912c-0.111-0.409-0.229-0.816-0.357-1.221c-0.354-2.272,0.371-5.792,0.907-8.55
				c0.645-3.316,1.013-5.987,1.013-5.987l-2.948,1.474l0.737-3.316l-1.289,1.658l-0.554-3.316l-0.551,2.486l-3.132-3.039
				c0,0-16.672-2.118-23.948-1.566c-7.276,0.553-13.354-1.934-13.354-1.934c2.578,7.461,8.934,8.013,8.934,8.013
				s-0.922,0.276-2.856,1.75c-1.935,1.474-4.329,5.065-4.329,5.065s-0.461,7.093-0.369,10.684c0.017,0.616-0.062,1.21-0.195,1.776
				c-1.579-1.644-2.419-1.868-2.937-1.868c-2.004,0-2.81,2.417-3.83,5.478c-0.109,0.326-0.221,0.649-0.33,0.969
				c-0.864,2.511-1.681,4.884-0.747,6.937c0.922,2.027,4.574,7.437,4.84,7.83c0.146,0.238,1.053,1.618,2.39,1.618
				c0.343,0,0.676-0.092,0.99-0.271c0.516-0.293,1.217-0.856,2.085-1.675c0.798,1.61,1.815,3.343,3.063,5.226l-2.078,26.814h36.906
				l-2.955-26.337l-0.078,0.009c1.359-2.007,2.476-3.896,3.368-5.709c0.869,0.816,1.568,1.379,2.085,1.673
				c0.313,0.18,0.647,0.271,0.99,0.271l0,0c1.337,0,2.242-1.38,2.389-1.618c0.267-0.393,3.92-5.802,4.842-7.829
				C93.135,57.193,92.319,54.821,91.455,52.31z M59.678,96.272L46.258,97.2l1.804-23.286c0.218,0.309,0.438,0.617,0.667,0.934
				c5.025,6.925,8.199,10.436,9.429,10.436l9.258,0.001c0.421,0,1.696-0.005,9.262-10.218l1.283,11.455
				C72.875,92.101,65.758,94.887,59.678,96.272z M90.094,58.312c-0.886,1.946-3.509,6.852-3.547,6.909
				c-0.157,0.235-0.47,0.702-0.62,0.939c-0.2,0.318-0.441,0.855-0.854,0.855c-0.084,0-0.168-0.024-0.259-0.076
				c-0.528-0.302-1.524-0.864-2.622-1.957l-1.487-0.745l-0.438,0.961c-1.232,2.702-2.983,5.573-5.353,8.778
				c-6.198,8.389-7.998,9.652-8.338,9.832h-8.321c-0.298-0.149-2.186-1.357-8.333-9.825c-2.441-3.365-4.193-6.238-5.355-8.785
				l-0.439-0.961l-0.75,0.745c-1.097,1.093-1.992,1.86-2.521,2.162c-0.09,0.052-0.174,0.076-0.259,0.076
				c-0.436,0-0.956-0.622-1.138-0.922l-0.021-0.034c-0.039-0.058-3.845-5.681-4.73-7.627c-0.69-1.52,0.034-3.623,0.8-5.849
				c0.111-0.324,0.223-0.653,0.333-0.982c0.767-2.299,1.49-4.47,2.433-4.47c0.239,0,1.022,0.435,2.395,1.983
				c-0.846,1.896-2.119,3.175-2.119,3.175l3.869,0.092c0,0,0.073-3.724,0.869-7.661c1.734-7.182,6.672-14.083,7.716-15.484
				l1.024-0.077l-1.964,2.222c2.118-1.566,5.895-1.842,5.895-1.842c-0.737,1.105-0.369,2.947-0.369,2.947
				c3.57-2.92,6.948-3.776,9.13-3.985l2.347,0.175c-1.255,1.466-1.344,4.731-1.344,4.731s2.854-1.658,4.973-2.486
				c1.874-0.733,4.248-0.458,4.772-0.385c0.022,0.034,0.047,0.069,0.069,0.104l-1.342,2.951l2.497-1.093
				c0.308,0.518,0.63,1.082,0.958,1.687c0.798,3.187,2.474,6.131,3.183,7.286c0.275,0.848,0.521,1.711,0.727,2.586
				c0.713,4.957,0.152,11.194,0.152,11.194s2.285-7.306,5.618-7.275c0.988,0.009,1.076,1.938,1.843,4.237
				c0.109,0.33,0.626,1.148,0.736,1.474C90.675,56.117,90.783,56.792,90.094,58.312z"/>
			<path d="M77.322,65.117c-0.353-0.2-0.803-0.08-1.005,0.274c-0.083,0.146-0.163,0.291-0.24,0.433
				c-0.58,1.055-0.961,1.752-2.613,2.165c-1.165,0.292-3.843,0.428-6.205,0.548c-2.021,0.104-3.765,0.192-4.63,0.365
				c-0.575,0.115-1.233,0.277-1.995,0.465c-1.687,0.415-3.787,0.932-6.047,1.184c-2.781,0.309-4.198-1.94-4.262-2.044
				c-0.209-0.347-0.66-0.46-1.009-0.25c-0.35,0.21-0.463,0.661-0.253,1.011c0.073,0.121,1.712,2.787,4.99,2.787
				c0.225,0,0.457-0.012,0.696-0.039c0.344-0.038,0.681-0.082,1.016-0.131c0.334,0.26,0.854,0.65,1.397,1.025
				c-0.003,0.001-0.007,0.002-0.007,0.002c3.654,2.687,5.849,2.15,5.849,2.15c2.271-0.174,5.537-2.958,5.821-3.202
				c1.268-0.917,2.231-1.738,2.654-2.108c0.954-0.085,1.774-0.19,2.34-0.333c2.278-0.569,2.926-1.746,3.55-2.886
				c0.074-0.135,0.148-0.271,0.228-0.41C77.8,65.77,77.676,65.32,77.322,65.117z M68.071,71.494
				c-0.238,0.167-0.563,0.326-0.942,0.478c-1.376,0.102-3.243,0.224-4.309,0.224c-1.217,0-3.327,0.317-4.599,0.529
				c-0.485-0.302-1.015-0.679-1.45-1.003c1.564-0.273,2.996-0.623,4.215-0.924c0.745-0.183,1.388-0.341,1.931-0.449
				c0.761-0.152,2.536-0.243,4.416-0.339c0.978-0.051,1.969-0.101,2.892-0.162C69.675,70.299,68.933,70.885,68.071,71.494z"/>
			<path d="M57.799,45.495l-1.014,1.197l-0.829-1.105c-5.986,1.013-6.17,2.487-6.17,2.487l7.46-0.553L57.799,45.495z"/>
			<path d="M75.606,48.073c0,0-0.185-1.474-6.171-2.487l-0.829,1.105l-1.013-1.197l0.552,2.026L75.606,48.073z"/>
			<path d="M59.937,49.24c0.172,0.344,0.114,0.899-2.34,4.23c-2.02,2.743-2.063,5.01-1.917,6.099
				c-2.761,1.325-3.205,4.145-3.032,5.533c0.048,0.386,0.387,0.668,0.773,0.644c0.016-0.001,1.58-0.091,3.659-0.091
				c1.482,0,2.076,0.449,2.178,0.535c0.903,1.535,2.494,1.702,3.145,1.702c0.063,0,0.123-0.001,0.172-0.003
				c0.052,0.002,0.109,0.003,0.175,0.003c0.649,0,2.233-0.166,3.139-1.692c0.132-0.114,0.731-0.545,2.184-0.545
				c2.078,0,3.642,0.091,3.658,0.092c0.381,0.024,0.726-0.258,0.774-0.644c0.172-1.39-0.272-4.208-3.033-5.533
				c0.147-1.09,0.103-3.357-1.917-6.099c-2.455-3.332-2.513-3.887-2.341-4.23c0.253-0.504,0.971-1.218,1.226-1.45
				c0.227-0.207,0.303-0.535,0.187-0.82c-0.111-0.28-0.383-0.461-0.683-0.461c-0.007,0-0.012,0-0.019,0l-3.35,0.088l-3.347-0.088
				c-0.315-0.023-0.589,0.176-0.704,0.461c-0.115,0.286-0.04,0.613,0.188,0.82C58.949,48.006,59.686,48.736,59.937,49.24z
				 M62.556,48.069c0.013,0,0.025,0,0.038,0l1.648-0.042c-0.134,0.184-0.253,0.371-0.346,0.554
				c-0.583,1.167-0.121,2.244,2.472,5.763c2.297,3.117,1.595,5.336,1.564,5.423c-0.136,0.382,0.063,0.803,0.445,0.94
				c2.153,0.773,2.596,2.549,2.668,3.532c-0.669-0.027-1.722-0.058-2.974-0.058c-2.419,0-3.269,1.003-3.357,1.117
				c-0.022,0.029-0.044,0.062-0.062,0.094c-0.496,0.894-1.405,1.026-1.903,1.026c-0.051,0-0.096-0.002-0.132-0.004
				c-0.015-0.001-0.028-0.001-0.043-0.001c-0.012,0-0.025,0-0.041,0.001c-0.035,0.002-0.08,0.004-0.131,0.004
				c-0.498,0-1.407-0.133-1.903-1.025c-0.019-0.033-0.039-0.065-0.063-0.095c-0.088-0.114-0.938-1.117-3.356-1.117
				c-1.256,0-2.312,0.031-2.979,0.059c0.066-0.982,0.5-2.753,2.672-3.533c0.382-0.137,0.581-0.558,0.445-0.94
				c-0.009-0.022-0.767-2.258,1.564-5.423c2.593-3.52,3.055-4.596,2.472-5.763c-0.091-0.184-0.211-0.371-0.344-0.554L62.556,48.069z
				"/>
			<path d="M55.513,51.316c0.366,0.177,0.808,0.025,0.984-0.341c0.178-0.366,0.024-0.807-0.342-0.985
				c-2.402-1.164-4.424,0.317-4.508,0.381c-0.326,0.243-0.392,0.705-0.148,1.031c0.145,0.193,0.366,0.294,0.59,0.294
				c0.154,0,0.309-0.048,0.441-0.147C52.544,51.539,53.909,50.537,55.513,51.316z"/>
			<path d="M68.905,50.019c-0.359,0.192-0.495,0.639-0.303,0.998c0.191,0.358,0.638,0.495,0.996,0.303
				c0.016-0.009,1.517-0.79,2.983,0.225c0.127,0.088,0.273,0.13,0.418,0.13c0.234,0,0.464-0.111,0.606-0.318
				c0.232-0.334,0.149-0.793-0.187-1.024C71.224,48.813,68.998,49.97,68.905,50.019z"/>
		</g>
		<path opacity="0.2" d="M90.426,51.805c-0.921-2.79-1.656-5.022-3.13-5.022c-0.96,0-2.542,1.731-3.531,2.942
			c-0.098-0.838-0.214-1.691-0.338-2.57c-1.288-9.115-8.473-18.415-8.473-18.415l-11.997-0.903v-0.026l-0.174,0.013l-0.139-0.011
			v56.915l-3.5-0.073c0,0,3.684,6.263,7.369,11.604l9.764-7.131l-1.99-11.631c0.599-0.791,1.248-1.663,1.955-2.628
			c2.468-3.373,4.217-6.314,5.429-8.995c0.81,0.812,1.928,1.867,2.677,2.3c1.289,0.743,2.394-1.117,2.394-1.117
			s3.868-5.766,4.79-7.811C92.453,57.199,91.347,54.595,90.426,51.805z"/>
	</g>
</g>
</svg>
