<?xml version="1.0" encoding="utf-8"?>
<!-- Generator: Adobe Illustrator 16.0.0, SVG Export Plug-In . SVG Version: 6.00 Build 0)  -->
<!DOCTYPE svg PUBLIC "-//W3C//DTD SVG 1.1 Basic//EN" "http://www.w3.org/Graphics/SVG/1.1/DTD/svg11-basic.dtd">
<svg version="1.1" baseProfile="basic" id="Слой_1"
	 xmlns="http://www.w3.org/2000/svg" xmlns:xlink="http://www.w3.org/1999/xlink" x="0px" y="0px" width="70px" height="70px"
	 viewBox="0 0 70 70" xml:space="preserve">
<g>
	<g>
		<g>
			<g>
				<g>
					<g>
						<g>
							<g>
								<g>
									<g>
										<g>
											<g>
												<g>
													<g>
														<g>
															<g>
																<g>
																	<circle fill="#FFFFFF" cx="35" cy="35" r="35"/>
																</g>
															</g>
														</g>
													</g>
												</g>
											</g>
										</g>
									</g>
								</g>
							</g>
						</g>
					</g>
				</g>
			</g>
		</g>
	</g>
	<g>
		<g>
			<path d="M47.593,34.665l-0.852-4.087l0.323-1.134c0.022-0.076,0.018-0.156-0.013-0.229l-2.652-6.366
				c0.903-1.182,0.563-2.44,0.131-3.272c1.117-0.777,2.548-1.35,2.548-1.35c-5.734-5.561-13.554-1.564-13.554-1.564
				c0.521-1.737-2.086-2.78-2.086-2.78c0.869,2.085-1.563,3.823-1.563,3.823c-0.522-0.869,0.347-1.912,0.347-1.912
				c-2.606,1.39-2.606,3.302-2.606,3.302c-0.869-0.521-0.695-1.738-0.695-1.738c-1.737,1.216-0.521,3.649-0.521,3.649
				c-1.39,0-1.563,2.607-1.563,2.607l0.103,3.688c-0.146-0.023-0.295-0.039-0.45-0.039c-0.983,0-1.558,0.188-1.862,0.611
				c-0.459,0.639-0.149,1.568,0.323,2.975c0.104,0.313,0.217,0.649,0.33,1.009c0.043,0.302,0.39,2.532,1.357,3.524l-1.475,8.622
				c-0.015,0.091,0.006,0.185,0.06,0.261c0.059,0.082,5.959,8.235,14.094,10.443c0.03,0.009,0.061,0.012,0.091,0.012
				c0.061,0,0.123-0.016,0.177-0.048c0.081-0.048,0.139-0.126,0.161-0.218l1.625-6.72l4.088-0.314
				c0.159-0.012,0.289-0.132,0.315-0.288l1.551-9.132l2.212-3.062C47.591,34.86,47.612,34.761,47.593,34.665z M37.152,53.94
				c-7.199-2.123-12.551-8.99-13.282-9.965l1.382-8.08c0.478,0.356,0.987,0.635,1.54,0.635c0.357,0,0.697-0.115,1.03-0.352
				l1.73,4.249c0.016,0.039,0.039,0.074,0.067,0.105l6.778,7.298c0.065,0.071,0.158,0.111,0.254,0.111
				c0.01,0,0.018-0.001,0.027-0.001l1.961-0.151L37.152,53.94z M44.711,37.661c-0.03,0.043-0.052,0.093-0.06,0.145l-1.52,8.943
				l-6.34,0.488l-6.62-7.13l-1.887-4.634c-0.044-0.107-0.14-0.186-0.253-0.208c-0.113-0.024-0.232,0.012-0.315,0.095
				c-0.321,0.32-0.624,0.477-0.926,0.477c-0.453,0-0.951-0.338-1.56-0.846c-0.769-0.641-1.176-2.567-1.269-3.255
				c-0.002-0.02-0.007-0.039-0.013-0.058c-0.117-0.375-0.234-0.725-0.344-1.05c-0.373-1.116-0.668-1.997-0.417-2.347
				c0.154-0.214,0.591-0.323,1.298-0.323c0.162,0,0.318,0.02,0.47,0.054l0.052,1.857l3.649,2.433l0.348-3.823l2.606-2.259
				l0.695-2.955l-1.042-1.737l2.259,0.521c0.884-0.464,1.912-0.762,2.961-0.951c1.386,0.661,1.614,2.167,1.614,2.167
				c0.771-0.746,0.781-1.738,0.66-2.422c0.398-0.021,0.785-0.031,1.155-0.033l0.082,0.013c0.915,0.985,0.648,2.458,0.648,2.458
				c1.74-0.481,1.982-1.349,1.832-2.051l0.53,0.087l0.263,0.631c0.172,1.02-0.188,2.011-0.188,2.011
				c0.31-0.182,0.569-0.371,0.793-0.563l2.487,5.973l-0.124,0.435c-0.025-0.06-0.081-0.105-0.15-0.109l-1.736-0.102l0.003-0.058
				c0.004-0.096-0.032-0.189-0.101-0.258c-0.066-0.068-0.156-0.108-0.256-0.104l-4.865,0.116l0.017,0.695l4.494-0.107l-0.324,7.692
				c-0.302,0.21-1.194,0.729-2.456,0.543c-0.033-0.065-0.088-0.148-0.173-0.25c-0.245-0.293-0.652-0.215-0.964-0.092
				c-0.136-0.061-0.273-0.131-0.415-0.211l-0.343,0.605c0.896,0.506,1.713,0.68,2.413,0.68c1.524,0,2.492-0.824,2.507-0.837
				c0.071-0.062,0.114-0.151,0.118-0.247l0.293-6.961c0.023,0.002,0.043,0.007,0.068,0.007c0.378,0,0.713-0.442,0.724-0.822
				l0.976,0.058c0.004,0,0.007,0,0.011,0c0.038,0,0.072-0.014,0.102-0.036l-0.132,0.462c-0.016,0.054-0.018,0.111-0.007,0.167
				l0.838,4.021L44.711,37.661z"/>
			<path d="M37.058,39.07c1.669,2.312,5.908,0.257,5.908,0.257C40.397,39.841,37.058,39.07,37.058,39.07z"/>
			<path d="M41.575,41.688c-2.085-0.232-3.243,1.158-3.243,1.158c3.475-1.274,4.17-0.232,4.17-0.232
				C42.386,41.803,41.575,41.688,41.575,41.688z"/>
			<path d="M37.434,29.978l0.896-0.064c0.097-0.007,0.169-0.09,0.162-0.186c-0.008-0.095-0.089-0.169-0.186-0.161l-3.245,0.232
				c-0.096,0.007-0.168,0.09-0.161,0.186c0.007,0.092,0.083,0.162,0.173,0.162c0.004,0,0.009,0,0.012,0l0.932-0.067
				c0,0.009-0.002,0.015-0.002,0.023c0,0.384,0.311,0.695,0.694,0.695C37.087,30.797,37.421,30.357,37.434,29.978z"/>
		</g>
		<path opacity="0.2" fill="#020202" d="M36.884,47.553l-0.438-0.434c-1.33-3.473-2.169-13.078-2.169-13.078l-5.966-2.433
			l-0.348,3.997l0.151,0.37c-0.449,0.214-1.5,0.616-2.004-0.022l-1.564,9.471c0,0,4.91,5.735,7.907,7.038
			c2.999,1.303,4.952,1.912,4.952,1.912l1.955-7.082L36.884,47.553z"/>
	</g>
</g>
</svg>
