<?xml version="1.0" encoding="utf-8"?>
<!-- Generator: Adobe Illustrator 16.0.0, SVG Export Plug-In . SVG Version: 6.00 Build 0)  -->
<!DOCTYPE svg PUBLIC "-//W3C//DTD SVG 1.1 Basic//EN" "http://www.w3.org/Graphics/SVG/1.1/DTD/svg11-basic.dtd">
<svg version="1.1" baseProfile="basic" id="Слой_1"
	 xmlns="http://www.w3.org/2000/svg" xmlns:xlink="http://www.w3.org/1999/xlink" x="0px" y="0px" width="125px" height="125px"
	 viewBox="0 0 125 125" xml:space="preserve">
<g>
	<g>
		<g>
			<g>
				<g>
					<g>
						<g>
							<g>
								<g>
									<g>
										<g>
											<g>
												<g>
													<g>
														<g>
															<g>
																<g>
																	<g>
																		<g>
																			<g>
																				<g>
																					<g>
																						<circle fill="#FFFFFF" cx="62.264" cy="62.5" r="62.5"/>
																					</g>
																				</g>
																			</g>
																		</g>
																	</g>
																</g>
															</g>
														</g>
													</g>
												</g>
											</g>
										</g>
									</g>
								</g>
							</g>
						</g>
					</g>
				</g>
			</g>
		</g>
	</g>
	<g>
		<g>
			<path fill="#020202" d="M68.022,53.231c-1.057,0.261-1.887,0.55-1.887,0.55s0.922-0.041,2.217-0.08
				c0.233,0.38,0.84,1.13,2.044,1.22c0,0,1.343-0.11,1.843-1.294c0.851-0.003,1.669,0.006,2.356,0.034c0,0-1.98-0.841-3.84-0.841
				C69.916,52.821,68.893,53.017,68.022,53.231z"/>
			<path fill="#020202" d="M55.696,53.701c1.295,0.039,2.218,0.08,2.218,0.08s-0.831-0.289-1.888-0.55
				c-0.87-0.214-1.894-0.41-2.733-0.41c-1.86,0-3.84,0.84-3.84,0.84c0.688-0.028,1.506-0.036,2.357-0.033
				c0.499,1.183,1.842,1.293,1.842,1.293C54.855,54.832,55.462,54.081,55.696,53.701z"/>
			<path fill="#020202" d="M65.524,48.241l-0.666-0.091l-0.12,1.178l-1.996,4.363c-0.13,0.285-0.06,0.621,0.171,0.832
				c0.562,0.51,1.54,2.636,2.576,4.886l0.298,0.648c0.106,0.231,0.326,0.389,0.579,0.416l1.977,0.208
				c0.236,0.395,0.566,0.974,0.826,1.507c-1.734-0.012-5.027,0.209-6.941,1.889h-0.016c-1.913-1.68-5.219-1.901-6.941-1.889
				c0.26-0.533,0.59-1.112,0.826-1.507l1.979-0.208c0.251-0.027,0.472-0.184,0.577-0.416c0.494-1.07,0.89-2.049,1.236-2.913
				c0.481-1.192,0.936-2.319,1.269-2.622c0.214-0.194,0.291-0.5,0.194-0.773l-1.402-3.962l0.335-1.414l-4.35,0.41l-7.044,0.483
				l-0.399,2.931l0.568-1.139c0,0,1.974-0.548,3.48-0.689c1.077-0.101,4.326-0.038,6.09,0.007l1.224,3.46
				c-0.422,0.587-0.793,1.507-1.302,2.769c-0.3,0.746-0.636,1.581-1.039,2.478l-1.924,0.203c-0.22,0.023-0.418,0.146-0.536,0.334
				c-0.131,0.211-1.294,2.094-1.561,3.156c-0.057,0.227,0,0.467,0.152,0.644c0.152,0.178,0.381,0.269,0.612,0.249
				c1.409-0.129,5.442-0.084,7.159,1.635c0.135,0.136,0.318,0.211,0.51,0.211h0.583c0.191,0,0.375-0.075,0.51-0.211
				c2.063-2.066,7.109-1.64,7.16-1.635c0.23,0.021,0.46-0.073,0.611-0.249c0.151-0.177,0.209-0.417,0.152-0.644
				c-0.266-1.062-1.43-2.945-1.561-3.156c-0.118-0.188-0.314-0.313-0.536-0.334l-1.925-0.203l-0.127-0.275
				c-1.145-2.489-1.897-4.094-2.55-4.945l1.672-3.657c1.495,0.012,5.085,0.057,6.261,0.219c1.498,0.205,3.447,0.835,3.447,0.835
				l0.519,1.161l-0.274-2.945L65.524,48.241z"/>
			<path fill="#020202" d="M65.519,72.75l-6.294,0.111C62.146,76.244,65.519,72.75,65.519,72.75z"/>
			<path fill="#020202" d="M85.264,48.439c-0.228-0.223-0.527-0.322-0.843-0.276c-0.763,0.109-1.729,0.799-2.533,1.489
				c-0.001-0.783-0.01-10.145,0-13.539c0.005-1.888-1.492-4.689-4.121-7.021c-9.541-8.461-25.924-11.342-34.66,5.867
				c-1.604,3.16,0,14.174,0,14.174c0.031-0.046,0.066-0.095,0.099-0.141l-0.011,1.068c-0.969-0.796-2.308-1.768-3.216-1.897
				c-0.318-0.046-0.625,0.061-0.845,0.291c-0.638,0.671-0.402,2.269,0.332,6.03c0.291,1.487,0.591,3.024,0.591,3.754
				c0,0.277-0.006,0.571-0.012,0.868c-0.036,1.73-0.073,3.517,0.881,4.407c0.25,0.231,0.672,0.493,1.312,0.493
				c0.072,0,0.147-0.004,0.224-0.01c0.07-0.007,0.132-0.019,0.197-0.028c-0.333,2.493-0.629,6.144,0.193,7.695
				c0.199,0.374,0.401,0.733,0.608,1.085l-0.208-0.016l-1.681,22.083c-0.015,0.199,0.054,0.397,0.19,0.544
				c0.135,0.147,0.327,0.23,0.527,0.23h41.239c0.205,0,0.4-0.087,0.537-0.24s0.201-0.355,0.179-0.56l-2.507-22.46
				c0.138-0.243,0.277-0.484,0.412-0.737c0.822-1.551,0.418-5.143,0-7.619c0.049,0.007,0.096,0.018,0.148,0.022
				c0.077,0.006,0.155,0.01,0.229,0.01c0.533,0,1.008-0.179,1.388-0.523c1.15-1.047,1.15-3.375,1.15-5.245
				c0-0.633,0.141-1.822,0.291-3.083C85.845,51.027,85.984,49.144,85.264,48.439z M81.743,49.776l-0.004-0.411
				c0.044,0.101,0.09,0.201,0.131,0.303C81.828,49.704,81.784,49.741,81.743,49.776z M81.999,94.149H43.066l1.499-19.686
				c6.051,8.642,14.361,8.771,15.285,8.761l2.226,0.33c0.07,0.022,0.143,0.033,0.216,0.033c0.017,0,0.034,0,0.052-0.001l0.012-0.002
				l0.012,0.002c0.088,0.004,0.174-0.005,0.255-0.031l2.247-0.331c0.847-0.005,8.904-0.275,14.909-7.964L81.999,94.149z
				 M62.287,67.92l1.066-0.762l8.142,1.77l-0.03,0.223c-0.527,0.366-1.383,0.766-2.614,0.766c-2.237,0-4.912-0.438-6.56-0.281
				c-1.648-0.157-4.322,0.281-6.56,0.281c-1.347,0-2.246-0.478-2.757-0.868l-0.012-0.092l8.149-1.772l1.046,0.749L62.287,67.92z
				 M63.397,81.028h-2.342c0,0-6.401-1.882-6.966-3.389l-0.972-7.486c0.809,0.713,2.066,0.674,2.066,0.674h7.017h0.182h7.016
				c0,0,1.117,0.034,1.924-0.56l-0.958,7.373C69.799,79.146,63.397,81.028,63.397,81.028z M83.925,54.985
				c-0.162,1.361-0.302,2.534-0.302,3.252c0,1.332,0,3.561-0.679,4.181c-0.089,0.081-0.227,0.171-0.516,0.143
				c-0.24-0.021-0.428-0.08-0.575-0.17c-0.092-0.451-0.163-0.776-0.195-0.912c-0.032-0.139-0.103-0.257-0.196-0.35
				c0.005-0.345-0.237-0.656-0.59-0.719c-0.393-0.07-0.766,0.188-0.836,0.579c-0.022,0.124-0.2,1.224,0.461,2.093
				c0.011,0.014,0.023,0.029,0.035,0.043c0.54,2.808,0.981,6.59,0.344,7.793c-2.468,4.652-5.653,7.31-8.536,8.833
				c1.002-3.235,0.27-8.717,0.172-11.771h-0.586l-8.002-2.34l-1.695,2.205l-1.697-2.205l-8.001,2.34h-0.587
				c-0.1,3.097-0.33,8.686,0.848,11.902c-2.897-1.493-6.151-4.15-8.666-8.893c-0.643-1.21-0.326-5.031,0.111-7.871
				c0.009-0.012,0.021-0.024,0.029-0.034c0.66-0.87,0.484-1.97,0.461-2.094c-0.07-0.39-0.446-0.649-0.836-0.579
				c-0.337,0.061-0.575,0.349-0.59,0.677c-0.125,0.104-0.218,0.247-0.25,0.419c-0.026,0.136-0.085,0.452-0.158,0.894
				c-0.145,0.085-0.327,0.141-0.56,0.162c-0.29,0.03-0.383-0.064-0.424-0.103c-0.483-0.449-0.448-2.11-0.424-3.324
				c0.007-0.308,0.013-0.61,0.013-0.898c0-0.868-0.3-2.403-0.617-4.029c-0.268-1.373-0.689-3.532-0.686-4.475
				c0.853,0.404,2.267,1.545,3.152,2.37c0.291,0.272,0.747,0.255,1.018-0.036c0.209-0.224,0.246-0.547,0.119-0.806l0.141,0.001
				l0.04-4.025c0.636-0.634,1.38-1.229,2.216-1.675c-1.208-1.374-1.946-3.171-1.946-5.144c0-0.271,0-0.543,0.005-0.815
				c0.027-0.086,0.055-0.173,0.084-0.265c2.081-6.621,7.36-10.066,23.924-8.266c2.831,0.308,7.49,1.302,10.07,5.762
				c0.607,1.426,0.957,2.862,1.153,4.164c-0.13,1.743-0.831,3.326-1.919,4.563c0.762,0.407,1.442,0.94,2.025,1.566l0.04,4.062
				c-0.184,0.288-0.143,0.673,0.116,0.914c0.292,0.271,0.748,0.253,1.019-0.038c0.752-0.811,2.054-1.99,2.839-2.364
				C84.435,50.699,84.108,53.436,83.925,54.985z"/>
		</g>
		<path opacity="0.2" fill="#020202" d="M85.264,48.439c-0.228-0.223-0.528-0.323-0.843-0.276c-0.763,0.109-1.729,0.799-2.533,1.489
			c-0.001-0.783-0.01-10.145,0-13.539c0.005-1.888-1.492-4.689-4.121-7.021c-4.16-3.689-9.981-6.1-15.542-6.464v59.796l-5.881-0.223
			l-8.646-4.815c0,0,5.765,16.229,14.887,16.763v0.293v1.147h20.944c0.204,0,0.4-0.087,0.536-0.24
			c0.137-0.152,0.201-0.355,0.18-0.56l-2.508-22.46c0.139-0.243,0.277-0.484,0.412-0.737c0.823-1.551,0.418-5.144,0-7.619
			c0.05,0.007,0.096,0.017,0.148,0.022c0.078,0.006,0.155,0.01,0.229,0.01c0.533,0,1.009-0.179,1.389-0.523
			c1.149-1.047,1.149-3.375,1.149-5.245c0-0.633,0.142-1.822,0.292-3.083C85.845,51.027,85.984,49.144,85.264,48.439z"/>
	</g>
</g>
</svg>
