<?xml version="1.0" encoding="utf-8"?>
<!-- Generator: Adobe Illustrator 16.0.0, SVG Export Plug-In . SVG Version: 6.00 Build 0)  -->
<!DOCTYPE svg PUBLIC "-//W3C//DTD SVG 1.1 Basic//EN" "http://www.w3.org/Graphics/SVG/1.1/DTD/svg11-basic.dtd">
<svg version="1.1" baseProfile="basic" id="Слой_1"
	 xmlns="http://www.w3.org/2000/svg" xmlns:xlink="http://www.w3.org/1999/xlink" x="0px" y="0px" width="70px" height="70px"
	 viewBox="0 0 70 70" xml:space="preserve">
<g>
	<g>
		<g>
			<g>
				<g>
					<g>
						<g>
							<g>
								<circle fill="#FFFFFF" cx="35" cy="35" r="35"/>
							</g>
						</g>
					</g>
				</g>
			</g>
		</g>
	</g>
	<g>
		<g>
			<path d="M32.567,33.833c-0.563,0.798-0.377,1.278-0.334,1.366c0.059,0.119,0.179,0.195,0.31,0.195h0.558
				c0.295,0.25,0.881,0.52,1.367,0.717c0.042,0.017,0.086,0.024,0.131,0.024c0.021,0,0.045-0.003,0.067-0.007
				c0.196-0.039,0.928-0.4,1.274-0.734h0.543c0.074,0,0.146-0.024,0.205-0.067c0.06-0.043,0.547-0.443-0.104-1.364
				c-0.108-0.156-0.325-0.193-0.479-0.083c-0.156,0.11-0.193,0.326-0.084,0.481c0.108,0.154,0.162,0.266,0.188,0.342h-0.422
				c-0.122,0-0.233,0.061-0.294,0.165c-0.091,0.13-0.634,0.448-0.88,0.555c-0.498-0.211-0.981-0.462-1.077-0.563
				c-0.063-0.098-0.173-0.156-0.288-0.156H32.89c0.033-0.113,0.103-0.27,0.245-0.473c0.11-0.154,0.073-0.371-0.083-0.48
				C32.894,33.641,32.678,33.68,32.567,33.833z"/>
			<path d="M36.276,29.889C36.263,29.891,36.265,29.895,36.276,29.889L36.276,29.889z"/>
			<path d="M36.364,29.911c0.046,0.021,0.096,0.026,0.142,0.024c0.113-0.006,0.22-0.076,0.269-0.187
				c0.016-0.033,0.406-0.481,1.188-0.666c-0.088,0.151-0.142,0.332-0.142,0.528c0,0.164,0.039,0.145,0.104,0.277h1.65
				c0.063-0.134,0.104-0.113,0.104-0.277c0-0.174-0.074-0.334-0.188-0.473c0.627,0.205,0.955,0.571,0.962,0.576
				c0.112,0.129,0.309,0.143,0.438,0.03c0.051-0.046,0.082-0.106,0.096-0.169c0.143,0,0.764-0.036,0.879-0.648
				c0,0-0.526,0.309-1.081,0.245c-0.022-0.021-0.048-0.042-0.075-0.063c0.141-0.032,0.292-0.152,0.292-0.526
				c0,0-0.253,0.281-0.646,0.276c-0.401-0.246-1.015-0.498-1.826-0.476c-0.026,0.001-0.053,0.005-0.077,0.003
				c-0.688-0.006-2.091,1.362-2.115,1.418c-0.024,0.055-0.048,0.075-0.06,0.081C36.29,29.887,36.315,29.891,36.364,29.911z"/>
			<path d="M35.274,36.989c0,0-0.395,0.411-0.733,0.345c-0.864-0.173-0.067-0.623-1.338-0.129c-1.12,0.436-1.286,0.537-1.918,0.134
				c0,0,0.114,0.519,0.805,0.519s1.151-0.461,1.784,0.059c0.268,0.218,0.624,0.316,0.624,0.316s0.403-0.088,0.701-0.203
				c0.747-0.286,0.551,0.064,1.473-0.164c0.921-0.23,0.862-0.23,1.207-0.807C37.879,37.059,37.229,37.794,35.274,36.989z"/>
			<path d="M34.079,38.813c-0.482-0.142-1.133,0.123-1.133,0.123c0.484,0.144,0.941,0.211,0.941,0.211
				c1.869,0.486,2.036-0.432,2.036-0.432C35.399,38.854,34.562,38.955,34.079,38.813z"/>
			<path d="M32.617,29.889C32.629,29.895,32.63,29.891,32.617,29.889L32.617,29.889z"/>
			<path d="M32.119,29.749c0.049,0.11,0.155,0.181,0.269,0.187c0.047,0.002,0.094-0.006,0.141-0.024
				c0.049-0.021,0.074-0.022,0.088-0.022c-0.014-0.007-0.035-0.027-0.061-0.082s-1.427-1.424-2.115-1.416
				c-0.025,0-0.051-0.002-0.078-0.004c-0.813-0.021-1.424,0.229-1.825,0.475c-0.394,0.005-0.646-0.275-0.646-0.275
				c0,0.375,0.153,0.495,0.293,0.525c-0.027,0.023-0.054,0.045-0.076,0.064c-0.553,0.063-1.08-0.244-1.08-0.244
				c0.115,0.611,0.736,0.647,0.877,0.647c0.014,0.063,0.046,0.123,0.098,0.169c0.128,0.113,0.325,0.1,0.438-0.03
				c0.004-0.005,0.334-0.37,0.961-0.575c-0.113,0.139-0.188,0.299-0.188,0.472c0,0.165,0.039,0.145,0.102,0.278h1.65
				c0.063-0.135,0.104-0.115,0.104-0.278c0-0.197-0.053-0.378-0.141-0.528C31.714,29.268,32.104,29.716,32.119,29.749z"/>
			<path d="M46.397,43.359c0.082-5.967,1.207-7.942,0.862-11.481c-0.209-2.14-0.604-6.114-1.636-8.446
				c-1.469-5.106-3.313-10.486-10.646-8.939l-0.953,0.02l-0.002-0.013c-3.178-0.483-5.295-0.288-7.826,2.819
				c-3.885,5.438-2.527,6.293-2.936,11.281c-0.297,3.633-1.727,4.661-0.863,11.566c0.439,3.511,1.541,8.619,0.519,11.412h23.825
				C46.403,48.384,46.372,45.115,46.397,43.359z M28.335,22.854c1.314-3.664,6.034-4.211,6.034-4.211l-0.224-2.675l0.566-0.022
				l-0.055,2.582c0,0,4.406,1.502,6.676,8.212l-0.9-0.585c-0.654-0.248-4.625,1.236-4.625,1.236l0.174,0.575l4.027-1.093
				l1.537,0.523c0.262,0.865,0.486,1.811,0.665,2.843c0,0,0.448-0.925,0.396-3c0.326,1.87,1.19,4.296-0.012,7.048
				c-0.373,0.666-0.806,1.572-0.859,2.283c-0.293,3.883-3.33,6.795-7.074,6.795c-0.016,0-0.032,0-0.049,0
				c-3.055-0.021-5.69-2.307-6.887-4.936c-0.164-1-0.432-2.392-0.838-3.904c-0.625-2.321-0.314-5.193-0.143-6.45l1.984-0.743
				l4.086,0.863l0.172-0.863c0,0-3.826-0.895-4.482-0.646l-1.707,1.021c0.021-0.146,0.035-0.239,0.036-0.265
				C27.224,25.596,27.767,24.075,28.335,22.854z M28.2,50.889c0.281-1.162,1.008-4.531,0.585-6.926
				c-0.214-1.209-0.544-2.434-0.86-3.455l0.014-0.326c1.502,2.18,3.932,3.854,6.668,3.873c0.019,0,0.035,0,0.054,0
				c2.418,0,4.567-1.104,5.991-2.877c-0.006,0.047-0.01,0.094-0.014,0.141l-0.056,0.113l0.028,0.414
				c0,0.401,0.037,0.842,0.096,1.307l0.557,7.736H28.2z"/>
		</g>
		<polygon opacity="0.2" points="39.894,19.707 40.123,26.411 44.037,28.253 40.237,19.879 		"/>
		<path opacity="0.2" d="M43.907,30.67l-3.281,3.971c0,0,0.257,5.111-1.137,7.396c-0.219,0.161-0.459,0.303-0.73,0.417
			c-2.035,0.853-3.953,1.366-3.953,1.366l-2.645-0.43l-2.771-1.619c0,0,2.771,4.856,6.354,3.92c3.585-0.938,5.62-2.729,6.68-5.453
			l-0.961-0.937c0.991-1.53,2.026-3.396,2.356-4.921C44.511,31.188,43.907,30.67,43.907,30.67z"/>
	</g>
</g>
</svg>
