<?xml version="1.0" encoding="utf-8"?>
<!-- Generator: Adobe Illustrator 16.0.0, SVG Export Plug-In . SVG Version: 6.00 Build 0)  -->
<!DOCTYPE svg PUBLIC "-//W3C//DTD SVG 1.1 Basic//EN" "http://www.w3.org/Graphics/SVG/1.1/DTD/svg11-basic.dtd">
<svg version="1.1" baseProfile="basic" id="Слой_1"
	 xmlns="http://www.w3.org/2000/svg" xmlns:xlink="http://www.w3.org/1999/xlink" x="0px" y="0px" width="70px" height="70px"
	 viewBox="0 0 70 70" xml:space="preserve">
<g>
	<g>
		<g>
			<g>
				<g>
					<g>
						<g>
							<g>
								<g>
									<g>
										<g>
											<g>
												<circle fill="#FFFFFF" cx="35" cy="35" r="35"/>
											</g>
										</g>
									</g>
								</g>
							</g>
						</g>
					</g>
				</g>
			</g>
		</g>
	</g>
	<g>
		<path opacity="0.2" fill="#020202" d="M47.387,27.87c-0.4-0.418-0.884-0.646-1.26-0.59c-0.386,0.056-0.875,0.404-1.281,0.753
			c-0.001-0.396-0.004-5.129,0-6.845c0.002-0.954-0.754-2.37-2.084-3.549c-2.129-1.889-4.934-3.227-7.781-3.384v2.229v1.885v16.857
			v0.828v1.079v0.104v0.53v0.605v1.979v0.552v1.073v3.21v5.34v0.267v0.461h10.695c0.103,0,0.202-0.043,0.271-0.121
			c0.068-0.077,0.103-0.18,0.091-0.283L44.77,39.496c0.069-0.122,0.14-0.245,0.207-0.372c0.417-0.784,0.212-2.603,0-3.854
			c0.025,0.004,0.05,0.011,0.076,0.013c0.103,0.01,0.223,0.017,0.357,0.017c0.922,0,2.454-0.335,2.852-2.459
			C48.815,29.889,47.951,28.459,47.387,27.87z"/>
		<g>
			<path fill="#020202" d="M29.231,27.675c0.761-0.072,3.671,0.02,3.671,0.02l0.245-1.029l-2.199,0.207l-2.651,0.244l-0.688,1.47
				l0.773-0.564C28.382,28.023,28.469,27.746,29.231,27.675z"/>
			<path fill="#020202" d="M37.007,26.712l-0.337-0.046l0.201,1.039c0,0,2.742,0.008,3.5,0.112s1.016,0.422,1.016,0.422l0.875,0.44
				l-0.752-1.342L37.007,26.712z"/>
			<path fill="#020202" d="M38.594,33.073c-0.059-0.095-0.158-0.158-0.27-0.17L37.352,32.8l-0.064-0.139
				c-0.579-1.258-0.959-2.07-1.289-2.5l0.91-1.991l-0.662-0.302l-1.009,2.206c-0.066,0.145-0.032,0.315,0.086,0.421
				c0.283,0.257,0.778,1.333,1.301,2.47l0.151,0.328c0.054,0.117,0.164,0.196,0.292,0.21l0.999,0.105
				c0.12,0.199,0.287,0.493,0.418,0.762c-0.879-0.003-2.542,0.105-3.509,0.955h-0.008c-0.967-0.85-2.63-0.958-3.509-0.955
				c0.131-0.269,0.298-0.563,0.417-0.762l1-0.105c0.128-0.014,0.239-0.093,0.292-0.21c0.25-0.542,0.449-1.037,0.625-1.473
				c0.243-0.603,0.473-1.173,0.641-1.325c0.109-0.099,0.148-0.253,0.099-0.391l-0.78-2.206l-0.686,0.243l0.709,2.008
				c-0.213,0.296-0.401,0.761-0.658,1.4c-0.152,0.377-0.322,0.798-0.525,1.252l-0.972,0.103c-0.111,0.012-0.211,0.075-0.271,0.17
				c-0.066,0.106-0.655,1.059-0.789,1.596c-0.028,0.115,0,0.236,0.077,0.326c0.077,0.089,0.192,0.135,0.31,0.125
				c0.712-0.065,2.751-0.043,3.619,0.827c0.068,0.068,0.161,0.106,0.257,0.106h0.295c0.096,0,0.189-0.038,0.257-0.106
				c1.044-1.045,3.595-0.829,3.62-0.827c0.118,0.009,0.233-0.036,0.31-0.125c0.077-0.09,0.105-0.211,0.077-0.325
				C39.249,34.131,38.661,33.18,38.594,33.073z"/>
			<path fill="#020202" d="M47.387,27.87c-0.4-0.418-0.883-0.645-1.26-0.59c-0.386,0.056-0.875,0.404-1.281,0.753
				c-0.001-0.396-0.004-5.129,0-6.845c0.002-0.954-0.754-2.37-2.084-3.549c-4.823-4.278-13.105-5.734-17.521,2.965
				c-0.811,1.598,0.046,7.544,0.046,7.544c-0.429-0.385-0.984-0.807-1.414-0.869c-0.377-0.054-0.859,0.172-1.26,0.59
				c-0.564,0.589-1.428,2.019-0.875,4.971c0.398,2.125,1.929,2.459,2.852,2.459c0.133,0,0.254-0.008,0.357-0.017
				c0.023-0.002,0.045-0.009,0.067-0.013c-0.168,1.261-0.317,3.104,0.098,3.889c0.1,0.189,0.202,0.541,0.202,0.541l-0.85,11.164
				c-0.008,0.102,0.027,0.201,0.096,0.275c0.069,0.073,0.166,0.115,0.267,0.115h20.848c0.104,0,0.202-0.043,0.271-0.121
				c0.068-0.077,0.102-0.18,0.09-0.283L44.77,39.496c0.069-0.122,0.14-0.245,0.207-0.372c0.417-0.784,0.212-2.603,0-3.854
				c0.025,0.004,0.05,0.011,0.076,0.012c0.103,0.01,0.223,0.017,0.357,0.017c0.922,0,2.454-0.335,2.852-2.459
				C48.815,29.889,47.951,28.459,47.387,27.87z M44.901,50.528H25.22l0.758-9.952c3.059,4.367,7.261,4.435,7.727,4.429h2.538
				c0.428-0.004,4.502-0.14,7.537-4.026L44.901,50.528z M31.346,38.373h3.546h0.092h3.547c0,0,0.616,0.019,1.025-0.325l-0.234,1.802
				l-1.7,1.419l0.196,1.771c-0.191,0.089-0.392,0.175-0.592,0.254l-0.09-1.903l-2.261,0.616l-2.261-0.616l-0.09,1.879
				c-0.262-0.105-0.524-0.222-0.762-0.34l0.185-1.66l-1.427-1.191l-0.272-2.099C30.651,38.394,31.346,38.373,31.346,38.373z
				 M30.618,37.705l3.724-0.81l0.6,0.45l0.065-0.008l0.468-0.455l3.785,0.822c-0.255,0.116-0.587,0.208-1.006,0.208
				c-1.131,0-2.483-0.223-3.316-0.142c-0.833-0.081-2.185,0.142-3.315,0.142C31.205,37.912,30.873,37.82,30.618,37.705z
				 M47.546,32.707c-0.315,1.688-1.494,1.938-2.427,1.852c-0.13-0.012-0.465-0.713-0.536-0.763c-0.066-0.31-0.081-0.626-0.077-0.767
				c0.006-0.201-0.151-0.369-0.353-0.375c-0.207-0.011-0.369,0.151-0.375,0.352c-0.015,0.468,0.419,2.036,0.457,2.253l-1.015,1.103
				l0.25,3.819c-0.245,0.345-0.5,0.657-0.758,0.945l-0.292-3.897l-1.025,1.113l0.067,3.963c-0.189,0.15-0.379,0.289-0.567,0.417
				l-0.169-3.654l-0.485,0.526c-0.007-0.127-0.121-1.797-0.137-2.298l-4.341-1.183l-0.786,1.186l-0.928-1.186l-4.342,1.183
				c-0.018,0.564-0.044,1.291-0.043,2.066l-0.537-0.296l-0.163,3.528c-0.19-0.137-0.381-0.286-0.571-0.446l0.065-3.808l-1.025-1.114
				l-0.275,3.684c-0.258-0.308-0.512-0.643-0.756-1.01l0.232-3.541l-0.9-0.977c0.035-0.272,0.339-2.407,0.325-2.529
				c-0.022-0.199-0.202-0.343-0.403-0.321c-0.199,0.022-0.354,0.204-0.32,0.402c0.082,0.485-0.215,1.48-0.23,1.5
				c-0.063,0.077-0.132,0.115-0.227,0.124c-0.933,0.086-2.109-0.164-2.426-1.852c-0.513-2.73,0.308-3.94,0.685-4.333
				c0.292-0.305,0.557-0.38,0.631-0.373c0.347,0.049,1.163,0.777,1.605,1.252c0.137,0.148,0.367,0.156,0.514,0.019
				c0.121-0.111,0.118-0.425,0.118-0.425s0.023-2.596,0.021-2.614c0.18-1.349,0.713-2.93,0.716-2.969
				c0.41-4.551,3.186-5.534,11.56-4.624c1.667,0.181,4.774,1.408,5.142,4.896c0.05,0.465,0.406,1.361,0.63,2.198
				c-0.016,0.304-0.022,3.076-0.022,3.076c-0.093,0.146-0.072,0.341,0.059,0.462c0.146,0.137,0.377,0.128,0.515-0.019
				c0.441-0.476,1.257-1.202,1.604-1.252c0.076-0.008,0.339,0.068,0.631,0.373C47.237,28.767,48.059,29.976,47.546,32.707z"/>
			<polygon fill="#020202" points="36.254,40.904 37.953,39.205 36.254,40.298 33.464,40.419 32.008,39.327 33.464,40.904 			"/>
			<path fill="#020202" d="M31.408,29.491c0-0.075-0.018-0.146-0.046-0.213c0.753,0.177,1.167,0.508,1.167,0.508
				c-0.753-1.609-2.428-1.481-2.428-1.481c-1.549,0.29-1.862,1.209-1.862,1.209s0.363-0.189,1.326-0.291
				c-0.042,0.083-0.068,0.173-0.068,0.268c0,0.406,0.428,0.735,0.955,0.735C30.98,30.226,31.408,29.897,31.408,29.491z"/>
			<path fill="#020202" d="M39.563,28.305c0,0-1.675-0.128-2.429,1.481c0,0,0.414-0.332,1.167-0.509
				c-0.027,0.068-0.046,0.139-0.046,0.213c0,0.406,0.428,0.735,0.955,0.735s0.956-0.329,0.956-0.735
				c0-0.094-0.025-0.184-0.068-0.268c0.964,0.102,1.327,0.291,1.327,0.291S41.111,28.595,39.563,28.305z"/>
		</g>
	</g>
</g>
</svg>
