<?xml version="1.0" encoding="utf-8"?>
<!-- Generator: Adobe Illustrator 16.0.0, SVG Export Plug-In . SVG Version: 6.00 Build 0)  -->
<!DOCTYPE svg PUBLIC "-//W3C//DTD SVG 1.1 Basic//EN" "http://www.w3.org/Graphics/SVG/1.1/DTD/svg11-basic.dtd">
<svg version="1.1" baseProfile="basic" id="Слой_1"
	 xmlns="http://www.w3.org/2000/svg" xmlns:xlink="http://www.w3.org/1999/xlink" x="0px" y="0px" width="125px" height="125px"
	 viewBox="0 0 125 125" xml:space="preserve">
<g>
	<g>
		<g>
			<g>
				<g>
					<g>
						<g>
							<g>
								<g>
									<g>
										<g>
											<g>
												<g>
													<g>
														<circle fill="#FFFFFF" cx="62.837" cy="62.5" r="62.5"/>
													</g>
												</g>
											</g>
										</g>
									</g>
								</g>
							</g>
						</g>
					</g>
				</g>
			</g>
		</g>
	</g>
	<g>
		<path opacity="0.2" fill="#020202" d="M83.858,48.717c-0.218-0.213-0.505-0.309-0.806-0.264c-0.774,0.111-1.77,0.845-2.564,1.543
			l-0.033-3.387c0.108-0.774,0.963-8.298-3.606-13.62c-3.131-3.647-8.037-5.51-14.582-5.542v1.38v53.905l-4.945-0.658l-8.618-6.549
			c0,0,1.379,13.444,14.479,13.1c9.054-0.238,12.118-8.368,13.148-13.37c0.918-1.191,1.819-2.567,2.672-4.174
			c0.795-1.497,1.158-5.225,1.314-7.62c0.204,0.072,0.433,0.126,0.701,0.151c0.074,0.007,0.147,0.011,0.22,0.011
			c0.51,0,0.966-0.172,1.328-0.502c1.101-1.003,1.101-3.232,1.101-5.022c0-0.605,0.136-1.745,0.279-2.951
			C84.415,51.195,84.549,49.393,83.858,48.717z"/>
		<g>
			<path d="M65.419,73.312h-5.901C62.2,76.599,65.419,73.312,65.419,73.312z"/>
			<path d="M53.875,62.321c0.004,0.329,0.126,0.618,0.351,0.833c0.377,0.362,0.882,0.537,1.542,0.537
				c0.559,0,1.169-0.122,1.815-0.252c0.677-0.137,1.376-0.277,2.031-0.277c0.798,0,1.383,0.213,1.841,0.672
				c0.129,0.129,0.305,0.202,0.488,0.202h0.546c0.183,0,0.357-0.073,0.487-0.202c0.459-0.459,1.045-0.672,1.842-0.672
				c0.654,0,1.354,0.141,2.031,0.276c0.646,0.131,1.256,0.253,1.814,0.253c0.66,0,1.164-0.175,1.542-0.536
				c0.224-0.216,0.346-0.504,0.352-0.834c0.015-0.997-1.162-2.328-1.637-2.824c-0.847-1.712-3.398-6.813-4.106-7.454
				c-0.127-0.114-0.291-0.178-0.462-0.178h-4.618c-0.171,0-0.335,0.064-0.463,0.178c-0.7,0.634-2.832,5.342-3.771,7.465
				C55.02,60.012,53.86,61.332,53.875,62.321z M56.713,60.177c1.276-2.89,2.794-6.081,3.352-6.934h3.963
				c0.596,0.86,2.272,4.056,3.705,6.96c0.03,0.065,0.074,0.125,0.125,0.177c0.644,0.658,1.229,1.485,1.311,1.839
				c-0.081,0.044-0.229,0.092-0.504,0.092c-0.422,0-0.967-0.109-1.543-0.225c-0.707-0.144-1.512-0.306-2.303-0.306
				c-1.057,0-1.91,0.286-2.599,0.875h-0.008c-0.688-0.589-1.542-0.875-2.598-0.875c-0.792,0-1.594,0.163-2.303,0.306
				c-0.577,0.115-1.122,0.225-1.543,0.225c-0.275,0-0.423-0.048-0.504-0.092c0.083-0.354,0.668-1.182,1.311-1.839
				C56.633,60.323,56.68,60.253,56.713,60.177z"/>
			<path d="M53.462,53.521c0-0.221-0.045-0.431-0.125-0.621l1.198-0.065c0.285-0.016,0.503-0.259,0.488-0.545
				s-0.266-0.496-0.544-0.488l-2.419,0.132c-0.068-0.009-0.136-0.021-0.207-0.021c-0.136,0-0.265,0.021-0.391,0.053l-3.209,0.175
				c-0.285,0.015-0.503,0.259-0.488,0.544c0.015,0.276,0.243,0.49,0.516,0.49c0.009,0,0.019-0.001,0.028-0.001l2.009-0.109
				c-0.044,0.146-0.074,0.297-0.074,0.457c0,0.888,0.721,1.609,1.609,1.609S53.462,54.408,53.462,53.521z"/>
			<path d="M75.301,52.436l-5.851-0.667c-0.287-0.035-0.541,0.172-0.572,0.456c-0.032,0.283,0.172,0.54,0.454,0.572l1.164,0.132
				c-0.099,0.169-0.154,0.367-0.154,0.592c0,0.888,0.72,1.609,1.608,1.609c0.888,0,1.608-0.721,1.608-1.609
				c0-0.087-0.009-0.167-0.021-0.246l1.647,0.188c0.021,0.002,0.039,0.004,0.059,0.004c0.259,0,0.483-0.195,0.513-0.459
				C75.789,52.724,75.585,52.468,75.301,52.436z"/>
			<path d="M83.858,48.717c-0.218-0.213-0.505-0.309-0.806-0.264c-0.774,0.111-1.77,0.845-2.564,1.543l-0.033-3.387
				c0.058-0.417,0.331-2.795-0.142-5.731c-0.194-13.203-12.298-16.739-17.579-17.337c-0.58-0.065-1.754-0.056-2.335,0
				c-5.454,0.527-18.145,4.355-17.563,18.594l0.765,5.984l-0.021,2.15c-0.928-0.762-2.209-1.692-3.08-1.816
				c-0.305-0.045-0.599,0.057-0.809,0.278c-0.611,0.643-0.385,2.173,0.318,5.773c0.278,1.424,0.566,2.896,0.566,3.594
				c0,0.267-0.006,0.546-0.012,0.832c-0.034,1.656-0.069,3.368,0.844,4.218c0.239,0.224,0.643,0.474,1.256,0.474
				c0.068,0,0.141-0.003,0.214-0.01c0.29-0.026,0.533-0.088,0.747-0.168c0.198,1.826,0.547,4.447,1.055,6.25l-0.036-0.002
				l-1.584,24.127c-0.012,0.19,0.055,0.376,0.186,0.516c0.13,0.138,0.312,0.217,0.502,0.217h36.887c0.195,0,0.381-0.083,0.512-0.228
				c0.13-0.145,0.194-0.337,0.175-0.531l-2.413-22.522l-0.01,0.001c0.035-0.065,0.071-0.126,0.105-0.19
				c0.795-1.497,1.158-5.225,1.314-7.62c0.204,0.072,0.433,0.126,0.701,0.151c0.074,0.007,0.147,0.011,0.22,0.011
				c0.51,0,0.966-0.172,1.328-0.502c1.101-1.003,1.101-3.232,1.101-5.022c0-0.605,0.136-1.745,0.279-2.951
				C84.415,51.195,84.549,49.393,83.858,48.717z M79.183,93.173H44.48l1.375-20.905c5.848,10.026,13.251,10.364,13.575,10.431
				c0.013,0.003,0.026,0.006,0.037,0.007c0,0,2.637,0.35,2.715,0.325l2.231-0.331c0.315-0.061,7.055-0.36,12.726-8.55L79.183,93.173
				z M82.576,54.985c-0.154,1.303-0.288,2.427-0.288,3.114c0,1.275,0,3.41-0.65,4.003c-0.085,0.077-0.217,0.164-0.494,0.138
				c-0.352-0.032-0.594-0.139-0.741-0.325c0.011-0.256,0.018-0.442,0.021-0.536c0.007-0.2,0.072-1.209-0.769-1.2
				c-0.384,0.004-1.572-0.052-1.337,2.049c-0.123,2.414-0.829,6.818-1.567,8.208c-3.413,6.438-7.308,9.071-9.846,10.151l3.131-8.074
				l-3.403,6.808h-9.223l-3.405-6.808l3.191,8.229c-2.726-0.961-7.17-3.493-10.785-10.306c-0.738-1.394-1.348-9.606-1.365-9.702
				c-0.068-0.375-0.428-0.622-0.801-0.556c-0.322,0.059-0.967,0.191-0.814,1.231c0.013,0.092,0.022,0.275,0.044,0.524
				c-0.15,0.173-0.384,0.274-0.722,0.305c-0.277,0.027-0.366-0.062-0.406-0.099c-0.462-0.431-0.43-2.021-0.405-3.181
				c0.006-0.296,0.012-0.585,0.012-0.861c0-0.831-0.288-2.301-0.591-3.858c-0.257-1.314-0.661-3.381-0.656-4.284
				c0.816,0.387,2.171,1.479,3.018,2.269c0.279,0.261,0.715,0.246,0.974-0.033c0.201-0.215,0.25-0.771,0.25-0.771l0.023-2.367
				l2.529-8.022c0,0-1.531-3.446,1.257-5.169c2.704-1.67,0.76,0.007,12.81-0.225c12.05,0.231,10.796-1.446,13.5,0.225
				c2.788,1.724,1.256,5.169,1.256,5.169l2.049,8.139c0.008,1.428,0.045,2.937,0.174,3.056c0.278,0.259,1.404,0.243,1.663-0.036
				c0.721-0.776,1.621-0.871,2.374-1.229C82.72,51.915,82.752,53.5,82.576,54.985z"/>
			<path d="M68.833,65.716c-1.81-0.647-5.787,0.692-6.571,0.969c-0.854-0.276-5.188-1.616-7.16-0.969l-2.559,1.082
				c0,0-0.032,0.508-0.063,1.343h0.821l-0.027-0.261c0,0,1.645-1.803,3.837-1.622c1.843,0.151,4.325,0.384,5.073,0.455
				c-0.038,0.013-0.061,0.021-0.061,0.021s0.05-0.006,0.138-0.014c0.097,0.008,0.15,0.014,0.15,0.014s-0.024-0.01-0.068-0.023
				c0.698-0.072,2.961-0.303,4.645-0.453c2.013-0.181,3.521,1.622,3.521,1.622l-0.025,0.261h0.753
				c-0.027-0.835-0.057-1.343-0.057-1.343L68.833,65.716z"/>
			<path d="M57.538,49.242l0.463-1.948l-5.586,0.393l-5.021,0.461l-1.303,1.751c0,0,1.631-0.559,3.073-0.694
				C50.605,49.068,57.538,49.242,57.538,49.242z"/>
			<path d="M67.646,46.989l-1.783-0.087l0.38,1.966c0,0,6.341,0.015,7.775,0.211c1.435,0.197,3.578,0.944,3.578,0.944l-1.423-1.851
				L67.646,46.989z"/>
			<path d="M67.031,69.08c-1.626,0-3.57-0.021-4.769,0.109c-1.198-0.131-3.142-0.109-4.768-0.109c-1.655,0-2.384-1.142-2.384-1.142
				c0,1.978,1.986,3.281,1.986,3.281l5.1-0.345h0.132l5.1,0.345c0,0,1.986-1.304,1.986-3.281
				C69.415,67.938,68.686,69.08,67.031,69.08z M67.363,70.675l-0.97-0.128l-4.157-0.305l-4.497,0.305l-0.517,0.026l-0.288-0.905
				c0,0,0.365-0.017,0.604-0.043c0.74-0.08,3.176,0.101,4.827,0.101c1.812,0,3.379-0.183,4.05-0.102
				c0.222,0.026,1.208,0.016,1.208,0.016L67.363,70.675z"/>
		</g>
	</g>
</g>
</svg>
