<?xml version="1.0" encoding="utf-8"?>
<!-- Generator: Adobe Illustrator 16.0.0, SVG Export Plug-In . SVG Version: 6.00 Build 0)  -->
<!DOCTYPE svg PUBLIC "-//W3C//DTD SVG 1.1 Basic//EN" "http://www.w3.org/Graphics/SVG/1.1/DTD/svg11-basic.dtd">
<svg version="1.1" baseProfile="basic" id="Слой_1"
	 xmlns="http://www.w3.org/2000/svg" xmlns:xlink="http://www.w3.org/1999/xlink" x="0px" y="0px" width="125px" height="125px"
	 viewBox="0 0 125 125" xml:space="preserve">
<g>
	<g>
		<circle fill="#FFFFFF" cx="63.084" cy="62.5" r="62.5"/>
	</g>
	<g>
		<g>
			<path d="M62.021,71.2c0.673,0.043,4.299,0.043,4.973,0c2.496-0.154,4.736-2.221,4.831-2.309c0.169-0.157,0.266-0.379,0.266-0.61
				v-2.364c0-0.462-0.374-0.835-0.836-0.835h-1.639c-0.118-0.82-0.332-2.239-0.599-3.762c-0.329-1.858-2.355-7.839-3.534-11.239
				c-0.117-0.336-0.434-0.562-0.789-0.562h-0.371c-0.356,0-0.673,0.226-0.79,0.562c-1.178,3.4-3.205,9.381-3.533,11.239
				c-0.269,1.523-0.482,2.941-0.6,3.762h-1.638c-0.462,0-0.835,0.373-0.835,0.835v2.364c0,0.231,0.095,0.453,0.265,0.61
				C57.285,68.979,59.526,71.046,62.021,71.2z M58.596,66.752h1.53c0.418,0,0.771-0.31,0.827-0.725
				c0.003-0.021,0.281-2.098,0.69-4.416c0.198-1.122,1.253-4.516,2.864-9.233c1.611,4.717,2.667,8.111,2.864,9.233
				c0.411,2.318,0.688,4.396,0.69,4.416c0.056,0.414,0.41,0.725,0.827,0.725h1.531v1.146c-0.588,0.477-2.057,1.546-3.53,1.637
				c-0.64,0.041-4.127,0.041-4.766,0c-1.474-0.092-2.943-1.16-3.529-1.637V66.752z"/>
			<path d="M73.656,74.652c-3.508-0.302-20.077-1.661-20.244-1.676c-0.346-0.027-0.671,0.16-0.821,0.472s-0.092,0.685,0.146,0.935
				l0.09,0.095c1.894,1.997,5.064,5.342,12.201,5.342c7.33,0,9.232-3.815,9.31-3.978c0.118-0.247,0.107-0.536-0.029-0.775
				C74.172,74.831,73.93,74.676,73.656,74.652z M71.914,76.18c-0.308,0.259-0.706,0.538-1.211,0.803L58.067,76.6
				c-1.009-0.535-1.828-1.156-2.519-1.772C59.574,75.158,67.907,75.844,71.914,76.18z"/>
			<path d="M88.579,63.022c-0.246-2.708-1.511-6.983-1.882-8.198l1.241-2.482c0.079-0.158,0.105-0.336,0.077-0.51
				c-0.154-0.918-0.512-3.069-2.27-3.069c-0.721,0-1.454,0.373-2.385,0.846l-0.438,0.222c-0.415,0.208-0.859,0.486-1.327,0.832
				l0.265-4.833c0.039,0.005,0.077,0.018,0.115,0.018c0.144,0,0.285-0.036,0.412-0.108c0.202-0.115,0.349-0.309,0.401-0.536
				c0.261-1.121,1.521-6.818,0.594-8.9c-0.111-0.252-0.341-0.433-0.613-0.482c-0.027-0.005-0.654-0.118-1.745-0.29l-0.785-0.537
				c1.105-1.203,2.353-3.513,2.894-7.945l-2.579,3.224c0,0,0-4.298-2.578-7.737v3.223c0,0-1.076-4.727-8.381-7.091l-4.3-0.215
				c0,0-9.886-6.876-22.134,1.075l3.008,0.645c0,0-5.373,1.504-7.522,5.802l4.728,1.289c0,0-4.513,0.43-4.728,6.447H42.3
				l0.082,1.001c-0.203,0.167-0.325,0.427-0.302,0.707l0.644,8.157c0.023,0.292,0.194,0.533,0.434,0.664l0.683,8.383
				c-0.965-0.979-2.281-2.159-3.547-2.792l-0.44-0.222c-0.929-0.473-1.663-0.846-2.384-0.846c-1.757,0-2.116,2.15-2.268,3.069
				c-0.029,0.174-0.002,0.353,0.077,0.51l1.241,2.482c-0.372,1.215-1.636,5.49-1.882,8.198c-0.141,1.548,0.234,2.857,1.083,3.788
				c1.108,1.212,2.928,1.745,5.372,1.571l3.001-0.214v2.72c0,0.135,0.032,0.266,0.093,0.386l3.106,5.974v14.926
				c0,0.123,0.027,0.245,0.08,0.356c0.2,0.426,5.135,10.448,24.264,13.684c0.047,0.008,0.094,0.012,0.141,0.012
				c0.193,0,0.385-0.067,0.535-0.194c0.188-0.157,0.297-0.388,0.3-0.633l0.131-13.613l0.604-0.028
				c0.321-0.015,0.605-0.215,0.73-0.512c0.988-2.357,3.933-8.854,5.663-10.583c0.145-0.146,0.231-0.338,0.243-0.545l0.648-11.84
				l1.494,0.106c0.298,0.021,0.592,0.033,0.872,0.033l0,0c2.013,0,3.527-0.54,4.498-1.604C88.345,65.88,88.721,64.57,88.579,63.022z
				 M43.802,36.042c1.628-0.278,3.395-0.49,5.278-0.642c1.134,1.31,2.613,2.862,4.394,2.608c0,0-1.343-1.172-2.237-2.755
				c1.641-0.087,3.365-0.132,5.167-0.132c10.161,0,20.25,1.41,24.26,2.042l-0.391,6.525c-4.454-1.031-11.183-1.554-20.061-1.554
				c-7.158,0-13.652,0.354-15.89,0.49L43.802,36.042z M70.116,104.394c-16.181-3.018-20.478-11.217-21.155-12.428v-11.51
				l6.076,11.684c0.144,0.277,0.43,0.451,0.74,0.451c0.013,0,0.027-0.001,0.04-0.001l14.418-0.688L70.116,104.394z M85.845,65.685
				c-0.633,0.694-1.344,1.061-2.848,1.061h-0.001c-0.241,0-0.494-0.011-0.753-0.028l-2.341-1.002
				c-0.227-0.015-1.277,0.059-1.445,0.208c-0.169,0.146-0.269,1.19-0.281,1.414l-0.679,12.385c-2.015,2.27-4.805,8.571-5.588,10.391
				l-15.637,0.785L45.761,70.684v-3.413c0-0.23-0.096-0.452-0.266-0.61c-0.169-0.158-0.396-0.235-0.628-0.222l-3.896,0.278
				c-1.877,0.137-3.284-0.228-4.02-1.032c-0.532-0.583-0.752-1.428-0.654-2.512c0.267-2.935,1.896-8.119,1.912-8.171
				c0.065-0.208,0.048-0.43-0.049-0.625l-1.268-2.535c0.187-0.972,0.417-1.41,0.575-1.41c0.321,0,0.956,0.322,1.627,0.664
				l0.45,0.227c2.038,1.019,4.432,3.926,4.457,3.956c0.218,0.267,0.578,0.371,0.905,0.266c0.328-0.107,0.556-0.404,0.575-0.749
				l0.219-3.988l7.271,1.315c-1.362,0.413-2.129,1.543-2.405,2.646l0.404,0.101c0.106-0.427,0.471-1.506,1.511-2.095
				c-0.203,0.307-0.322,0.674-0.322,1.07c0,1.074,0.873,1.948,1.947,1.948c1.075,0,1.948-0.874,1.948-1.948
				c0-0.433-0.146-0.829-0.386-1.152c1.394,0.588,2.145,1.8,2.154,1.817l0.358-0.215c-0.034-0.055-0.52-0.843-1.44-1.49l3.599,0.651
				l1.815-2.155l-1.364-0.312l0.019-1.26c0,0-4.365-0.971-7.851-1.13c-2.791-0.128-5.99,0.143-7.154,0.256l0.256-4.659
				c2.982-0.16,8.343-0.393,14.146-0.393c8.311,0,14.853,0.482,19.176,1.401l-0.188,3.427c-0.89-0.069-1.812-0.119-2.701-0.124
				c-3.489-0.021-7.898,0.723-7.898,0.723l-0.045,1.259l-1.377,0.241l1.699,2.246l4.408-0.563c-1.353,0.66-2.065,1.816-2.105,1.882
				l0.358,0.215c0.01-0.016,0.761-1.228,2.154-1.817c-0.239,0.323-0.386,0.719-0.386,1.152c0,1.074,0.872,1.948,1.948,1.948
				c1.075,0,1.947-0.874,1.947-1.948c0-0.396-0.121-0.763-0.323-1.07c1.038,0.589,1.404,1.668,1.511,2.094l0.405-0.101
				c-0.293-1.174-1.144-2.384-2.676-2.718l2.915-0.373l-0.045,0.818c-0.019,0.34,1.007,1.076,1.314,1.22
				c0.309,0.143,0.674-0.333,0.924-0.564c0.924-0.864,1.746-1.479,2.443-1.828l0.449-0.227c0.673-0.342,1.307-0.248,1.628-0.248
				c0.157,0,0.388,0.022,0.574,0.994l-1.268,2.535c-0.097,0.194-0.114,0.417-0.05,0.625c0.016,0.052,1.229,5.234,1.496,8.171
				C86.598,64.256,86.378,65.102,85.845,65.685z"/>
		</g>
		<path opacity="0.2" d="M87.748,63.098c-0.279-3.061-1.948-8.347-1.948-8.347l1.393-2.782c-0.558-3.339-1.67-2.504-3.896-1.392
			c-0.896,0.448-1.835,1.212-2.641,1.965l1.964-15.901l-14.878-9.158l-3.234,0.291v63.423l-7.513,0.281l-2.017-0.626l4.244,10.92
			l12.557,3.615l0.138-14.401l1.392-0.066c0,0,3.617-8.626,5.843-10.851l0.695-12.688c0.558,0.039,1.309,0.093,2.339,0.167
			C86.079,67.827,88.026,66.157,87.748,63.098z"/>
	</g>
</g>
</svg>
