<?xml version="1.0" encoding="utf-8"?>
<!-- Generator: Adobe Illustrator 16.0.0, SVG Export Plug-In . SVG Version: 6.00 Build 0)  -->
<!DOCTYPE svg PUBLIC "-//W3C//DTD SVG 1.1 Basic//EN" "http://www.w3.org/Graphics/SVG/1.1/DTD/svg11-basic.dtd">
<svg version="1.1" baseProfile="basic" id="Слой_1"
	 xmlns="http://www.w3.org/2000/svg" xmlns:xlink="http://www.w3.org/1999/xlink" x="0px" y="0px" width="70px" height="70px"
	 viewBox="0 0 70 70" xml:space="preserve">
<g>
	<g>
		<g>
			<g>
				<g>
					<g>
						<g>
							<g>
								<g>
									<g>
										<g>
											<g>
												<g>
													<g>
														<circle fill="#FFFFFF" cx="35" cy="35" r="35"/>
													</g>
												</g>
											</g>
										</g>
									</g>
								</g>
							</g>
						</g>
					</g>
				</g>
			</g>
		</g>
	</g>
	<g>
		<g>
			<g>
				<path d="M49.271,27.311c-0.269-0.452-0.619-0.747-1.027-0.875c0.15-1.128-0.76-2.866-0.76-2.866l0.691-0.988
					c0.296-2.371-1.383-3.359-1.383-3.359c-0.198-1.977-2.274-2.668-2.274-2.668s0-1.284-0.987-2.569
					c-0.987-1.284-3.063-0.691-3.063-0.691c-0.495-2.272-2.987-1.744-2.987-1.744c0,0.889-0.596,0.86-0.596,0.86
					c0-2.183-1.852-1.918-1.852-1.918c0.493,0.987-0.69,2.011-0.69,2.011c-0.495-1.581-2.485-1.68-2.485-1.68
					c1.058,2.514-1.665,2.866-3.838,3.656c-2.173,0.791-1.68,2.272-1.68,2.272c-2.964,0.593-2.766,3.853-2.766,3.853
					c-2.766,1.383-0.494,4.249-0.494,4.249c-0.545,0.382-0.714,0.926-0.675,1.513c-0.101-0.009-0.205-0.01-0.313,0
					c-0.554,0.046-1.025,0.373-1.364,0.944c-0.681,1.15-0.715,3.154-0.289,4.111c0.469,1.057,1.463,3.058,1.684,3.501
					c-0.004,0.438,0.037,2.092,0.858,2.95c0.34,0.354,0.765,0.534,1.261,0.534c0.104,0,0.203-0.003,0.299-0.009l-0.088,2.641
					c-0.003,0.111,0.039,0.219,0.117,0.296c0.022,0.021,1.011,1.004,2.155,2.255v5.641l-1.324-0.899l-2.46,7.343h11.385h0.413
					h11.383l-2.458-7.343l-1.06,0.72v-5.437c1.153-1.263,2.153-2.258,2.175-2.279c0.08-0.077,0.121-0.184,0.118-0.294l-0.088-2.739
					c0.261,0.071,0.577,0.105,0.948,0.105c0.498,0,0.921-0.18,1.262-0.534c0.821-0.856,0.861-2.511,0.857-2.949
					c0.221-0.443,1.215-2.445,1.685-3.501C49.986,30.465,49.952,28.461,49.271,27.311z M41.811,49.592l-7.278,4.95l-7.013-4.771
					v-5.293c1.189,1.358,2.35,2.835,2.635,3.711c0.022,0.068,0.063,0.129,0.117,0.176c0.072,0.063,1.8,1.55,3.857,1.62
					c0.031,0.001,0.288,0.002,0.545,0.002c0.259,0,0.519-0.001,0.551-0.002c2.054-0.07,3.783-1.557,3.856-1.62
					c0.054-0.047,0.094-0.107,0.116-0.176c0.284-0.871,1.433-2.335,2.614-3.687V49.592L41.811,49.592z M48.836,31.1
					c-0.521,1.169-1.701,3.533-1.714,3.557c-0.03,0.059-0.044,0.126-0.042,0.194c0.021,0.484-0.057,1.871-0.635,2.473
					c-0.188,0.195-0.412,0.29-0.688,0.29c-0.801,0-1.015-0.185-1.062-0.241c-0.108-0.13-0.288-0.177-0.446-0.118
					c-0.159,0.061-0.261,0.215-0.256,0.386l0.104,3.255c-0.333,0.334-1.267,1.279-2.284,2.409H41.81v0.004
					c-1.371,1.521-2.896,3.374-3.328,4.523c-0.337,0.27-1.732,1.309-3.283,1.361c-0.068,0.002-0.978,0.002-1.044,0
					c-1.548-0.053-2.948-1.093-3.285-1.361c-0.757-2.006-4.833-6.151-5.617-6.937l0.098-2.93c0.004-0.122-0.047-0.238-0.14-0.316
					s-0.216-0.11-0.335-0.086c-0.174,0.035-0.388,0.052-0.633,0.052c-0.275,0-0.5-0.095-0.688-0.289
					c-0.579-0.602-0.655-1.989-0.635-2.473c0.002-0.067-0.012-0.134-0.042-0.194c-0.012-0.023-1.193-2.387-1.713-3.556
					c-0.339-0.764-0.292-2.474,0.247-3.384c0.206-0.347,0.457-0.534,0.746-0.559c0.151-0.013,0.291,0.007,0.422,0.049
					c0.288,0.87,0.85,1.713,1.19,2.176l0.844,4.102l1.788-7.943l0.164-0.294l1.721-3.573c4.248,1.976,12.973-2.056,12.973-2.056
					c3.162,1.878,4.494,13.172,4.494,13.172l1.435-3.786c0,0,0.438-0.876,0.812-1.813c0.225,0.069,0.422,0.245,0.59,0.526
					C49.127,28.625,49.175,30.336,48.836,31.1z"/>
				<path d="M40.195,40.569l-5.378-0.9c-0.039-0.006-0.078-0.006-0.117-0.002l-5.174,0.668c-0.127,0.017-0.239,0.094-0.299,0.207
					c-0.06,0.112-0.063,0.248-0.005,0.363c1.169,2.351,4.916,2.781,5.074,2.798c0.01,0.003,0.02,0.003,0.03,0.003
					c0.069,0.002,0.136,0.003,0.205,0.003c3.259,0,5.769-2.361,5.873-2.462c0.108-0.104,0.15-0.261,0.105-0.404
					C40.465,40.7,40.344,40.595,40.195,40.569z M34.367,42.913c-0.179-0.021-2.018-0.265-3.339-1.168l0.038-0.808l3.677-0.476
					l3.849,0.645l0.043,0.485C37.631,42.231,36.095,42.963,34.367,42.913z"/>
				<path d="M35.956,27.741c-0.341,0.023-0.43,0.068-0.486,0.28c-0.656,2.436-0.406,3.203-0.186,3.88
					c0.057,0.17,0.104,0.316,0.132,0.484c0.18,1.073,1.473,2.243,1.939,2.637v0.381c-0.438-0.125-1.034-0.228-1.454-0.052
					c-0.218,0.092-0.379,0.25-0.462,0.458c-0.148,0.367-0.521,0.517-0.828,0.499c-0.149-0.008-0.506-0.068-0.618-0.458
					c-0.08-0.278-0.258-0.481-0.514-0.592c-0.423-0.18-0.988-0.055-1.416,0.097v-0.346c0.417-0.392,1.574-1.559,1.752-2.624
					c0.015-0.086,0.032-0.183,0.05-0.288c0.187-1.038,0.499-2.775-0.15-4.142c-0.076-0.16-0.135-0.184-0.41-0.222l-5.389-0.898
					l-2.177,2.062l0.458,0.572l1.146-1.26l2.52-0.229l3.375,1.103c0.178,1.003-0.023,2.134-0.155,2.874
					c-0.02,0.108-0.037,0.207-0.052,0.297c-0.135,0.806-1.222,1.92-1.629,2.282c-0.085,0.076-0.134,0.184-0.134,0.298v1.125
					c0,0.139,0.073,0.267,0.192,0.339c0.118,0.072,0.266,0.076,0.39,0.012c0.391-0.203,1.065-0.429,1.316-0.321
					c0.027,0.012,0.046,0.024,0.063,0.081c0.174,0.601,0.686,0.997,1.34,1.03c0.031,0.003,0.06,0.003,0.09,0.003
					c0.669,0,1.271-0.392,1.516-0.994c0.002-0.006,0.005-0.013,0.034-0.025c0.269-0.113,0.989,0.077,1.392,0.244
					c0.123,0.05,0.263,0.035,0.372-0.037c0.109-0.074,0.176-0.197,0.176-0.33v-1.125c0-0.122-0.056-0.236-0.151-0.313
					c-0.455-0.36-1.667-1.47-1.8-2.268c-0.038-0.226-0.1-0.415-0.159-0.599c-0.159-0.484-0.333-1.026-0.021-2.518l3.494-1.157
					l2.52,0.229l1.146,1.26l0.458-0.573l-2.176-2.062C41.459,26.834,35.962,27.741,35.956,27.741z"/>
				<polygon points="29.775,39.935 30.859,39.545 31.129,38.297 30.227,38.999 				"/>
				<polygon points="31.581,39.311 32.845,39.155 33.566,37.672 31.851,38.063 				"/>
				<polygon points="39.612,38.999 38.709,38.297 38.98,39.545 40.063,39.779 				"/>
				<polygon points="37.986,38.063 36.271,37.672 36.994,39.155 38.257,39.311 				"/>
				<polygon points="35.188,38.921 36.271,38.999 35.821,37.595 35.074,37.379 34.765,37.379 34.019,37.595 33.566,38.999 
					34.615,38.854 				"/>
				<path d="M30.626,29.982c0.002-0.26-0.099-0.498-0.264-0.673c0.288,0.07,0.566,0.163,0.815,0.273
					c0.576,0.254,0.916,0.574,0.913,0.854l0.397,0.004c0.005-0.456-0.403-0.89-1.148-1.221c-0.636-0.281-1.441-0.455-2.157-0.464
					c-0.696-0.009-1.242,0.145-1.606,0.452c-0.33,0.279-0.507,0.684-0.513,1.169l0.396,0.005c0.005-0.373,0.13-0.666,0.372-0.871
					c0.283-0.239,0.719-0.357,1.307-0.357c-0.268,0.17-0.448,0.467-0.452,0.808c-0.006,0.536,0.423,0.975,0.958,0.981
					S30.62,30.517,30.626,29.982z"/>
				<path d="M41.985,29.206c-0.364-0.308-0.909-0.46-1.606-0.452c-0.715,0.008-1.522,0.182-2.157,0.464
					c-0.746,0.331-1.153,0.765-1.148,1.221l0.396-0.004c-0.003-0.28,0.338-0.599,0.913-0.854c0.247-0.11,0.526-0.202,0.815-0.272
					c-0.165,0.176-0.268,0.413-0.264,0.674c0.006,0.535,0.446,0.964,0.98,0.958c0.536-0.006,0.966-0.445,0.958-0.981
					c-0.003-0.34-0.183-0.637-0.45-0.807c0.584,0,1.022,0.118,1.306,0.358c0.243,0.205,0.367,0.498,0.372,0.871l0.397-0.004
					C42.492,29.89,42.315,29.485,41.985,29.206z"/>
			</g>
		</g>
		<path opacity="0.2" fill="#020202" d="M49.271,27.311c-0.269-0.452-0.619-0.747-1.027-0.875c0.15-1.128-0.76-2.866-0.76-2.866
			l0.691-0.988c0.296-2.371-1.383-3.359-1.383-3.359c-0.198-1.977-2.274-2.668-2.274-2.668s0-1.284-0.987-2.569
			c-0.987-1.284-3.063-0.691-3.063-0.691c-0.495-2.272-2.987-1.744-2.987-1.744c0,0.889-0.596,0.86-0.596,0.86
			c0-2.183-1.852-1.918-1.852-1.918c0.322,0.643-0.069,1.3-0.38,1.681v6.475v3.161v27.382v0.207l-1.588-0.314l-2.051-0.629
			l-2.183-3.076c0,0,2.779,10.057,7.674,8.204c4.896-1.853,4.765-6.22,4.5-8.072l0.107-0.528c0.882-2.057,3.617-3.602,3.664-3.648
			c0.079-0.078,0.122-0.184,0.118-0.294l-0.088-2.739c0.262,0.07,0.577,0.105,0.949,0.105c0.497,0,0.921-0.18,1.262-0.534
			c0.819-0.856,0.861-2.511,0.857-2.95c0.22-0.443,1.214-2.445,1.684-3.5C49.986,30.465,49.952,28.461,49.271,27.311z"/>
	</g>
</g>
</svg>
