<?xml version="1.0" encoding="utf-8"?>
<!-- Generator: Adobe Illustrator 16.0.0, SVG Export Plug-In . SVG Version: 6.00 Build 0)  -->
<!DOCTYPE svg PUBLIC "-//W3C//DTD SVG 1.1 Basic//EN" "http://www.w3.org/Graphics/SVG/1.1/DTD/svg11-basic.dtd">
<svg version="1.1" baseProfile="basic" id="Слой_1"
	 xmlns="http://www.w3.org/2000/svg" xmlns:xlink="http://www.w3.org/1999/xlink" x="0px" y="0px" width="70px" height="70px"
	 viewBox="0 0 70 70" xml:space="preserve">
<g>
	<g>
		<g>
			<g>
				<g>
					<g>
						<g>
							<g>
								<g>
									<g>
										<g>
											<g>
												<g>
													<g>
														<g>
															<circle fill="#FFFFFF" cx="35" cy="35" r="35"/>
														</g>
													</g>
												</g>
											</g>
										</g>
									</g>
								</g>
							</g>
						</g>
					</g>
				</g>
			</g>
		</g>
	</g>
	<g>
		<g>
			<path d="M37.984,30.421c-0.577,0.143-1.033,0.301-1.033,0.301s0.506-0.021,1.214-0.044c0.128,0.209,0.461,0.62,1.119,0.668
				c0,0,0.735-0.06,1.01-0.708c0.466-0.001,0.914,0.002,1.29,0.018c0,0-1.084-0.46-2.102-0.46
				C39.021,30.197,38.462,30.304,37.984,30.421z"/>
			<path d="M31.235,30.679c0.71,0.021,1.214,0.044,1.214,0.044s-0.455-0.158-1.034-0.301c-0.477-0.117-1.037-0.225-1.497-0.225
				c-1.019,0-2.103,0.46-2.103,0.46c0.376-0.015,0.825-0.02,1.291-0.018c0.274,0.647,1.01,0.708,1.01,0.708
				C30.776,31.298,31.108,30.888,31.235,30.679z"/>
			<path d="M38.452,34.566c-0.062-0.097-0.161-0.163-0.275-0.18l-0.645-0.1c-0.563-1.199-1.935-3.958-2.421-4.398
				c-0.073-0.065-0.167-0.102-0.265-0.102h-0.078c-0.098,0-0.192,0.037-0.265,0.102c-0.486,0.441-1.858,3.199-2.42,4.398l-0.646,0.1
				c-0.114,0.017-0.214,0.083-0.275,0.18c-0.07,0.113-0.693,1.121-0.836,1.691c-0.031,0.125,0,0.256,0.084,0.354
				c0.084,0.097,0.21,0.149,0.336,0.136c0.008-0.001,2.524-0.231,3.626,0.872c0.073,0.073,0.174,0.114,0.279,0.114h0.313
				c0.104,0,0.204-0.041,0.278-0.114c1.103-1.104,3.619-0.873,3.627-0.872c0.126,0.013,0.252-0.039,0.336-0.136
				c0.084-0.098,0.115-0.229,0.085-0.354C39.146,35.687,38.522,34.679,38.452,34.566z M38.305,35.935
				c-0.896,0-2.505,0.135-3.497,1.009h-0.001c-0.993-0.874-2.603-1.009-3.497-1.009c-0.004,0-0.007,0-0.011,0
				c0.14-0.283,0.314-0.59,0.438-0.798l0.673-0.104c0.13-0.02,0.243-0.104,0.298-0.224c0.706-1.53,1.638-3.308,2.099-4.029
				c0.459,0.722,1.393,2.499,2.098,4.029c0.056,0.12,0.168,0.204,0.299,0.224l0.673,0.104c0.124,0.208,0.299,0.515,0.438,0.798
				C38.312,35.935,38.308,35.935,38.305,35.935z"/>
			<path d="M47.342,33.465c-0.362-0.46-0.336-2.023-0.316-3.165c0.023-1.397,0.02-2.082-0.311-2.373
				c-0.12-0.105-0.272-0.152-0.43-0.129c-0.285,0.041-0.532,0.21-0.739,0.428l-0.008-1.595c0.012,0.03,0.027,0.059,0.037,0.088
				v-7.76c-0.315-0.533-1.35-1.017-1.758-1.252c-0.03-0.385-0.137-0.844-0.383-1.352c-3.279-1.33-6.756-5.768-6.756-5.768
				l-0.708,0.266l-0.883-1.161h-0.181l-0.883,1.161l-0.709-0.266c0,0-3.476,4.438-6.757,5.768c-0.245,0.508-0.352,0.967-0.382,1.352
				c-0.408,0.235-1.442,0.719-1.758,1.252v7.76c0.008-0.023,0.02-0.044,0.028-0.067l-0.007,1.545c-0.203-0.205-0.44-0.361-0.713-0.4
				c-0.156-0.023-0.308,0.023-0.429,0.127c-0.359,0.311-0.38,1.096-0.389,2.703c-0.005,1.046-0.014,2.478-0.261,2.87
				c-0.584,0.923-0.696,2.102-0.268,2.8c0.227,0.37,0.579,0.569,1.002,0.569c0.042,0,0.084-0.002,0.127-0.006
				c0.362-0.033,0.659-0.154,0.901-0.312l-0.018,4.396c-0.001,0.132,0.064,0.256,0.174,0.328c0.191,0.128,0.375,0.256,0.557,0.382
				l-0.919,13.266c-0.008,0.109,0.03,0.217,0.105,0.296c0.074,0.081,0.178,0.125,0.288,0.125H45.69c0.111,0,0.219-0.046,0.293-0.129
				s0.11-0.194,0.099-0.306L44.716,41.76c0.227-0.16,0.46-0.321,0.702-0.483c0.11-0.073,0.176-0.197,0.176-0.329l-0.02-4.414
				c0.248,0.166,0.553,0.295,0.929,0.329c0.037,0.004,0.075,0.006,0.113,0.006c0.431-0.001,0.799-0.229,1.023-0.643
				C48.054,35.464,47.917,34.2,47.342,33.465z M45.254,54.555H25.019l0.856-12.359c4.679,3.432,6.02,6.126,6.033,6.153
				c0.061,0.129,0.187,0.214,0.328,0.224l2.631,0.19c0.03,0.007,0.06,0.01,0.09,0.01c0.009,0,0.02-0.001,0.028-0.001l0.006-0.001
				l0.007,0.001c0.039,0.003,0.078-0.001,0.114-0.009l2.635-0.19c0.141-0.011,0.266-0.096,0.327-0.223
				c0.014-0.029,1.329-2.674,5.903-6.059L45.254,54.555z M34.687,41.427v-0.003c-0.019,0.001-0.116,0.003-0.116,0.003
				c-1.938,0.039-3.749-1.48-4.25-1.907l0.64-0.155l3.866,1.039l2.154-0.99l1.975,0.177C38.316,40.117,36.506,41.464,34.687,41.427z
				 M39.135,39.605l0.228,0.021l0.738,1.701l-2.47,3.899l-2.319-0.778l1.088-1.932C37.451,42.042,38.657,41.165,39.135,39.605z
				 M30.151,39.57c0.452,1.59,1.682,2.563,2.703,2.997l1.471,1.894l-2.365,0.767l-2.469-3.899l0.579-1.736L30.151,39.57z
				 M46.946,35.85c-0.119,0.222-0.263,0.236-0.372,0.227c-0.814-0.073-1.131-0.892-1.144-0.924
				c-0.074-0.205-0.301-0.311-0.505-0.236c-0.204,0.074-0.311,0.301-0.236,0.504c0.006,0.013,0.035,0.092,0.093,0.205l0.021,5.114
				c-2.154,1.462-3.724,2.82-4.852,3.958l0.644-6.191l-4.147-1.117l-1.653,1.352l-1.652-1.352l-4.148,1.117l0.599,5.76
				c-1.086-1.044-2.526-2.246-4.413-3.526l0.021-5.064c0.076-0.141,0.114-0.241,0.119-0.255c0.074-0.204-0.031-0.428-0.234-0.503
				c-0.203-0.075-0.43,0.029-0.506,0.232c-0.004,0.011-0.035,0.09-0.097,0.198c-0.005,0.007-0.009,0.015-0.014,0.022
				c-0.154,0.259-0.478,0.657-1.033,0.707c-0.176,0.016-0.295-0.042-0.386-0.189c-0.232-0.38-0.198-1.239,0.262-1.968
				c0.343-0.542,0.375-1.653,0.383-3.286c0.003-0.645,0.009-1.564,0.088-1.97c0.235,0.185,0.493,0.633,0.647,1.01v0.014h0.006
				c0.016,0.039,0.031,0.077,0.044,0.113c0.074,0.205,0.299,0.312,0.503,0.239c0.206-0.073,0.312-0.299,0.239-0.504
				c0-0.002-0.002-0.006-0.003-0.008l0.02-4.161c0.332-0.369,0.726-0.683,1.167-0.917c-0.661-0.752-1.065-1.737-1.065-2.817
				c0-0.148,0-0.297,0.002-0.446c0.015-0.046,0.031-0.095,0.046-0.145c1.141-3.625,5.076-4.972,5.076-4.972
				c0.439,2.636,3.348,3.781,4.261,4.068c0.071,0.006,0.132,0.013,0.23,0c0.914-0.287,4.13-1.432,4.569-4.068
				c0,0,3.935,1.347,5.074,4.972c0.018,0.056,0.035,0.111,0.053,0.163c-0.002,0.141-0.004,0.283-0.004,0.429
				c0,1.08-0.404,2.064-1.065,2.816c0.438,0.233,0.829,0.543,1.158,0.908l0.021,4.334h0.001c0.009,0.153,0.107,0.292,0.261,0.348
				c0.204,0.073,0.431-0.034,0.504-0.238c0.139-0.387,0.42-0.907,0.68-1.123c0.048,0.359,0.036,1.064,0.027,1.61
				c-0.024,1.467-0.05,2.984,0.484,3.665C47.139,34.486,47.186,35.41,46.946,35.85z"/>
			<path d="M33.405,28.957l0.368-1.085h-2.392l-3.865-0.098l-0.369,1.578l0.369-0.592c0,0,1.104-0.197,1.933-0.197
				C30.276,28.563,33.405,28.957,33.405,28.957z"/>
			<path d="M36.44,27.873h-0.367l0.367,1.084c0,0,2.945-0.394,3.773-0.394s1.933,0.197,1.933,0.197l0.367,0.592l-0.367-1.578
				L36.44,27.873z"/>
		</g>
		<path opacity="0.2" fill="#020202" d="M47.342,33.465c-0.362-0.46-0.336-2.023-0.316-3.165c0.023-1.397,0.02-2.082-0.311-2.373
			c-0.12-0.105-0.272-0.152-0.43-0.129c-0.285,0.041-0.532,0.21-0.739,0.428l-0.008-1.595c0.012,0.03,0.027,0.059,0.037,0.088v-7.76
			c-0.315-0.533-1.35-1.017-1.758-1.252c-0.03-0.385-0.137-0.844-0.383-1.352c-3.279-1.33-6.756-5.768-6.756-5.768l-0.708,0.266
			l-0.883-1.161h-0.181L34.81,9.819v31.604v6.367l-1.445-0.192c0,0-5.257-4.863-6.703-4.863l5.257,7.361c0,0,8.018,2.365,8.806,4.6
			l4.966,0.253l-1.775-12.613c0.466-0.346,0.967-0.7,1.504-1.061c0.109-0.073,0.175-0.197,0.175-0.329l-0.019-4.414
			c0.248,0.166,0.552,0.294,0.929,0.33c0.037,0.003,0.075,0.005,0.113,0.005c0.43,0,0.799-0.229,1.022-0.642
			C48.054,35.464,47.917,34.2,47.342,33.465z"/>
	</g>
</g>
</svg>
