<?xml version="1.0" encoding="utf-8"?>
<!-- Generator: Adobe Illustrator 16.0.0, SVG Export Plug-In . SVG Version: 6.00 Build 0)  -->
<!DOCTYPE svg PUBLIC "-//W3C//DTD SVG 1.1 Basic//EN" "http://www.w3.org/Graphics/SVG/1.1/DTD/svg11-basic.dtd">
<svg version="1.1" baseProfile="basic" id="Слой_1"
	 xmlns="http://www.w3.org/2000/svg" xmlns:xlink="http://www.w3.org/1999/xlink" x="0px" y="0px" width="125px" height="125px"
	 viewBox="0 0 125 125" xml:space="preserve">
<g>
	<g>
		<g>
			<g>
				<g>
					<g>
						<g>
							<g>
								<g>
									<g>
										<g>
											<g>
												<g>
													<circle fill="#FFFFFF" cx="62.709" cy="62.5" r="62.5"/>
												</g>
											</g>
										</g>
									</g>
								</g>
							</g>
						</g>
					</g>
				</g>
			</g>
		</g>
	</g>
	<g>
		<path opacity="0.2" d="M83.196,51.758c-0.488-0.825-1.169-1.297-1.968-1.364c-0.871-0.072-1.572,0.26-2.126,0.75
			c-0.003-0.347-2.125-17.73-2.36-19.265c0,0-6.915-5.537-14.505-4.082V73.28v8.614v14.211h16.416l-3.548-10.595l-1.527,1.04v-6.738
			c1.689-2.424,3.163-4.412,3.195-4.458c0.074-0.1,0.115-0.224,0.113-0.352l-0.14-7.396c0.378,0.103,0.838,0.154,1.381,0.154
			c0.717,0,1.328-0.258,1.819-0.771c1.184-1.234,1.243-3.62,1.236-4.253c0.318-0.64,1.753-3.528,2.43-5.05
			C84.227,56.307,84.178,53.416,83.196,51.758z"/>
		<g>
			<path d="M72.619,72.246c-0.229-0.122-0.51-0.076-0.688,0.113c-0.382,0.403-1.564,1.489-2.451,1.663
				c-0.056,0.012-0.11,0.016-0.159,0.016c-0.363,0-0.657-0.325-1.188-0.948c-0.361-0.425-0.81-0.952-1.415-1.439
				c-0.436-0.351-1.022-0.526-1.751-0.526c-0.491,0-1.031,0.079-1.599,0.207c0.019-0.014-2.922,0.889-3.109,0.954
				c-0.835,0.286-1.623,0.56-2.34,0.751c-0.23,0.062-0.467,0.092-0.702,0.092l0,0c-2.056,0-3.68-2.334-3.695-2.359
				c-0.093-0.136-0.239-0.226-0.402-0.244c-0.165-0.023-0.327,0.03-0.45,0.14l-1.125,0.995c-0.128,0.113-0.199,0.279-0.192,0.451
				c0.007,0.173,0.091,0.333,0.228,0.435c0.085,0.064,1.6,1.185,3.426,1.77c0.682,1.107,2.037,3.312,2.738,4.498
				c0.099,0.167,0.193,0.335,0.287,0.495c0.75,1.312,1.522,2.663,3.409,2.663c0.193,0,0.398-0.016,0.616-0.044
				c2.279-0.312,3.213-1.891,4.505-4.075c0.114-0.189,0.23-0.389,0.352-0.591c0.621-1.036,1.048-1.633,1.326-1.973
				c0.252,0.114,0.521,0.184,0.806,0.184l0,0c0.044,0,0.088,0,0.133-0.004c1.388-0.107,3.445-1.379,3.728-2.587
				C72.964,72.631,72.846,72.369,72.619,72.246z M66.175,76.271l-0.118-0.086c-0.169,1.019-1.984,0.975-2.624,0.891
				c-0.64-0.084-0.74-0.595-0.74-0.595c0,0.427-0.202,0.511-0.641,0.765c-0.436,0.257-1.714,0.553-2.287,0.509
				c-0.572-0.04-0.64-0.467-0.64-0.467l-0.664,0.461l-0.623-1.002c-0.368-0.605-0.763-1.252-1.12-1.833
				c-0.019-0.094-0.017-0.182,0.008-0.26c0.1,0.006,0.2,0.014,0.3,0.014c0.458,0,0.889-0.063,1.31-0.199
				c0.124-0.046,0.275-0.102,0.441-0.162c0.005,0.038,0.004,0.036,0.003,0c0.829-0.303,2.107-0.752,3.226-1.102
				c0.125,0.493,0.154,0.776,0.284,0.429c0.038-0.104,0.189-0.369,0.25-0.574c0.63-0.19,1.069-0.319,1.4-0.365
				c0.375-0.051,0.69-0.076,0.961-0.076c0.72,0,0.955,0.178,1.077,0.333c0.065,0.08,0.144,0.192,0.237,0.328
				c0.276,0.393,0.641,0.908,1.086,1.345C66.979,75.026,66.602,75.578,66.175,76.271z"/>
			<path d="M65.423,51.023l-0.358,1.575l-0.573-1.36l0.069,2.321l-0.663,0.23c0.361,1.042,0.336,3.203,0.317,4.94
				c-0.013,1.174-0.023,2.104,0.071,2.641c0.325,1.841,1.501,2.646,1.551,2.681c0.038,0.024,0.077,0.044,0.118,0.059l1.631,0.612
				v0.663c-1.024,0.042-3.074,0.218-4.007,0.964c-1.169,0.935-2.158,0.35-2.783-0.309c-1.052-1.103-2.702-1.005-3.659-0.825v-0.529
				l1.543-0.742c0.055-0.026,1.343-0.688,1.676-2.573c0.09-0.511,0.113-1.431,0.14-2.496c0.045-1.766,0.101-3.964,0.474-5.038
				l-0.892-0.31c0.002,0.001,0.009,0.002,0.009,0.002l0.071-2.434l-0.572,1.36l-0.357-1.575L50.1,50.478l-1.737,4.192
				c0.501-0.501,1.522-2.403,2.167-2.403c0.584,0,8.001,1.042,9.347,1.232c-0.419,1.25-0.478,3.52-0.525,5.347
				c-0.024,0.977-0.048,1.899-0.124,2.327c-0.229,1.292-1.03,1.732-1.05,1.743l-1.861,0.893c-0.199,0.096-0.325,0.297-0.325,0.517
				v1.623c0,0.183,0.089,0.359,0.24,0.466c0.15,0.107,0.342,0.134,0.518,0.075c0.021-0.006,2.21-0.714,3.218,0.344
				c0.721,0.757,1.555,1.14,2.391,1.14c0.663,0,1.327-0.241,1.936-0.73c0.66-0.527,2.69-0.721,3.836-0.721
				c0.01,0,0.019-0.002,0.029,0c0.151,0,0.297-0.062,0.405-0.168c0.107-0.107,0.168-0.255,0.168-0.405v-1.623
				c0-0.237-0.149-0.451-0.373-0.535l-1.928-0.723c-0.177-0.142-0.812-0.723-1.017-1.895c-0.077-0.433-0.067-1.404-0.056-2.429
				c0.021-1.853,0.042-3.939-0.337-5.188c1.759-0.45,8.048-2.051,8.602-2.051c0.645,0,2.162,2.809,2.663,3.309l-2.233-5.099
				L65.423,51.023z"/>
			<path d="M58.61,56.293c0,0-0.66-0.23-1.501-0.438c-0.692-0.17-1.505-0.326-2.173-0.326c-0.021,0-0.043,0.002-0.064,0.003
				c-0.816-0.005-1.467,0.289-1.803,0.48c-0.29,0.128-0.557,0.267-0.783,0.394c-0.248,0.034-0.556,0.029-0.886-0.09
				c-0.297-0.109-0.626,0.044-0.734,0.342c-0.108,0.296,0.045,0.625,0.343,0.733c0.356,0.13,0.698,0.178,1.006,0.178
				c0.697,0,1.223-0.241,1.368-0.315c0.069,0.799,0.852,1.43,1.81,1.43c1.001,0,1.815-0.691,1.815-1.543
				c0-0.284-0.092-0.55-0.25-0.778c0.036-0.048,0.066-0.094,0.091-0.135C57.876,56.26,58.61,56.293,58.61,56.293z"/>
			<path d="M85.709,44.178c0,0-5.69,0.703-6.107-4.199c0,0,1.908,0.572,2.861-1.909c0,0-2.39,0.136-3.198-2.126
				c-0.413-1.156-0.269-6.504-2.336-8.371c-1.357-1.227-3.695-0.824-6.956-0.659c-0.384-1.694-2.037-2.969-4.019-2.969
				c-0.91,0-1.747,0.272-2.428,0.726c-1.637-1.822-4.851-3.642-10.265-0.153c0,0-0.578,0.578-1.128,1.256
				c-0.574-0.191-1.188-0.3-1.832-0.3c-3.004,0-5.44,2.263-5.44,5.056c0,0.253,0.026,0.479,0.063,0.694
				c-0.19,0.047-0.179,0.195,0.128,0.547c0,0-2.1,1.718-4.39-0.764c0,0,0.764,5.344,3.436,4.199c0,0-1.527,0.573-1.527,4.962
				c0,4.39-0.19,6.681-2.1,6.108c0,0,2.481,2.1,4.199,1.527c0,0-3.244,3.437-4.962,1.336c0,0,0.191,2.1,1.336,2.864l0.539,0.754
				c-0.537,1.652-0.479,3.797,0.024,4.929c0.677,1.522,2.11,4.411,2.429,5.05c-0.006,0.633,0.054,3.019,1.237,4.253
				c0.491,0.513,1.103,0.771,1.82,0.771c0.153,0,0.3-0.004,0.44-0.014l-0.138,7.255c-0.001,0.128,0.038,0.252,0.113,0.352
				c0.032,0.044,1.488,2.008,3.165,4.414v7.042l-1.91-1.3l-3.548,10.595h33.436l-3.548-10.595l-1.527,1.04v-6.738
				c1.689-2.424,3.163-4.412,3.195-4.458c0.074-0.1,0.115-0.224,0.113-0.352l-0.14-7.396c0.378,0.103,0.838,0.154,1.381,0.154
				c0.717,0,1.328-0.258,1.819-0.771c1.184-1.234,1.243-3.62,1.236-4.253c0.318-0.64,1.753-3.528,2.43-5.05
				c0.613-1.381,0.564-4.271-0.417-5.93c-0.419-0.706-0.977-1.149-1.629-1.306c0.38-0.292,0.75-0.658,1.087-1.12
				c0,0-2.672-1.146-2.862-2.673C79.792,46.66,83.418,48.759,85.709,44.178z M72.435,87.331L62.23,94.473L51.82,87.591v-6.155
				c1.716,2.531,3.385,5.175,3.801,6.449c0.032,0.1,0.09,0.188,0.168,0.255c0.105,0.09,2.597,2.234,5.563,2.336l0.203,0.006
				c0.105,0.009,0.249,0.013,0.434,0.013c0.047,0,0.097,0,0.147,0c0.268,0.002,0.462-0.002,0.594-0.013l0.202-0.006
				c2.964-0.102,5.458-2.246,5.562-2.336c0.079-0.067,0.137-0.155,0.169-0.255c0.413-1.269,2.064-3.888,3.771-6.405V87.331z
				 M81.994,57.795c-0.75,1.687-2.453,5.096-2.471,5.131c-0.043,0.086-0.064,0.182-0.061,0.279c0.028,0.697,0.49,2.125-0.343,2.995
				c-0.271,0.281-0.595,0.417-0.992,0.417c-1.154,0-1.464-0.266-1.532-0.347c-0.156-0.188-0.984-0.256-1.212-0.172
				c-0.229,0.084-0.378,0.304-0.374,0.547l0.155,8.186c-0.953,1.29-7.009,9.548-8.107,12.536c-0.487,0.39-1.926,1.887-4.163,1.963
				l-0.218,0.008c-0.01,0-0.023,0.002-0.034,0.002c-0.051,0.004-0.184,0.012-0.506,0.008c-0.312,0.006-0.444-0.004-0.495-0.008
				c-0.011,0-0.022-0.002-0.035-0.002l-0.216-0.008c-2.231-0.076-4.25-1.575-4.737-1.963c-0.625-1.699-2.853-5.102-4.833-7.96
				v-0.004h-0.001c-1.502-2.166-2.862-4.018-3.272-4.572l0.146-7.717c0.004-0.175-0.072-0.341-0.205-0.449
				c-0.133-0.113-0.31-0.157-0.479-0.123c-0.251,0.05-0.559,0.075-0.913,0.075c-0.397,0-0.723-0.136-0.993-0.417
				c-0.833-0.87-0.944-2.869-0.917-3.569c0.004-0.096-0.017-0.192-0.06-0.278c-0.017-0.033-1.721-3.445-2.471-5.13
				c-0.489-1.101-0.421-3.569,0.356-4.88c0.296-0.5,0.658-0.771,1.077-0.807c0.809-0.068,1.425,0.498,1.859,1.142
				c0.414,0.91,0.834,1.89,1.054,2.403l0.54,1.595l-0.384-19.017c0.589-1.587,1.822-4.097,3.432-3.023
				c2.291,1.527,4.009,4.008,9.926,4.008c5.916,0,8.589-4.199,8.589-4.199s7.252,0.572,7.443,4.581
				c0.014,0.281,0.786,17.65,0.786,17.65s1.462-4.713,3.229-4.566c0.418,0.035,0.779,0.306,1.076,0.805
				C82.415,54.226,82.483,56.694,81.994,57.795z"/>
			<path d="M49.532,71.359c0,0,3.451-3.632,4.213-3.59C53.745,67.77,50.243,67.844,49.532,71.359z"/>
			<path d="M72.33,68.806c0,0,1.838,4.66,1.479,5.335C73.809,74.141,75.218,70.934,72.33,68.806z"/>
			<path d="M68.938,58.685c0.958,0,1.741-0.631,1.81-1.43c0.146,0.075,0.67,0.315,1.368,0.315c0.309,0,0.648-0.048,1.005-0.178
				c0.299-0.108,0.451-0.437,0.344-0.733c-0.108-0.298-0.438-0.451-0.734-0.342c-0.33,0.119-0.639,0.124-0.886,0.09
				c-0.227-0.127-0.493-0.266-0.783-0.394c-0.335-0.192-0.987-0.486-1.804-0.48c-0.021-0.001-0.043-0.003-0.063-0.003
				c-0.668,0-1.481,0.155-2.174,0.326c-0.84,0.208-1.502,0.438-1.502,0.438s0.734-0.033,1.764-0.064
				c0.025,0.041,0.056,0.086,0.091,0.135c-0.157,0.228-0.249,0.494-0.249,0.778C67.123,57.994,67.937,58.685,68.938,58.685z"/>
		</g>
	</g>
</g>
</svg>
