<?xml version="1.0" encoding="utf-8"?>
<!-- Generator: Adobe Illustrator 16.0.0, SVG Export Plug-In . SVG Version: 6.00 Build 0)  -->
<!DOCTYPE svg PUBLIC "-//W3C//DTD SVG 1.1 Basic//EN" "http://www.w3.org/Graphics/SVG/1.1/DTD/svg11-basic.dtd">
<svg version="1.1" baseProfile="basic" id="Слой_1"
	 xmlns="http://www.w3.org/2000/svg" xmlns:xlink="http://www.w3.org/1999/xlink" x="0px" y="0px" width="70px" height="70px"
	 viewBox="0 0 70 70" xml:space="preserve">
<g>
	<g>
		<g>
			<g>
				<g>
					<g>
						<g>
							<g>
								<g>
									<g>
										<g>
											<g>
												<g>
													<circle fill="#FFFFFF" cx="35" cy="35" r="35"/>
												</g>
											</g>
										</g>
									</g>
								</g>
							</g>
						</g>
					</g>
				</g>
			</g>
		</g>
	</g>
	<g>
		<path opacity="0.2" fill="#020202" d="M46.375,29.07c-0.131-0.113-0.576-0.022-0.73,0c-0.322,0.047-0.912,0.459-1.158,0.732
			c0,0-0.125-4.705-0.063-5.365c0.422-4.431-4.635-8.403-7.883-9.455l-1.339-0.061v32.567c0.021-0.001-3.099-0.138-3.099-0.138
			l-4.313-4.244c0,0,1.602,4.756,4.208,6.953c2.587,2.18,15.175,7.778,11.606-7.76c0.016-0.037,0.748-3.816,0.848-5.058
			c0.074-0.187,0.146-0.565,0.206-0.687c0.063,0.014,1.138-0.182,1.44-0.457c0.67-0.61,0.961-1.64,0.961-2.426
			C47.063,32.943,47.148,29.741,46.375,29.07z"/>
		<g>
			<path d="M32.294,36.348c-0.151,0.516-0.13,0.892,0.062,1.149c0.141,0.187,0.36,0.291,0.619,0.291
				c0.074,0,0.139-0.009,0.183-0.017h0.547c0.179,0.144,0.56,0.338,1.413,0.51c0.023,0.005,0.048,0.008,0.072,0.008h0.035
				c0.024,0,0.049-0.003,0.072-0.008c0.854-0.174,1.234-0.366,1.413-0.51h0.548c0.043,0.008,0.107,0.017,0.184,0.017
				c0.258,0,0.478-0.104,0.617-0.291c0.188-0.254,0.211-0.62,0.07-1.119c-0.008-0.194-0.072-0.737-0.545-1.403
				c-0.335-0.476-1.012-3.108-1.359-4.656c-0.037-0.168-0.185-0.286-0.355-0.286h-1.322c-0.175,0-0.324,0.122-0.359,0.294
				c-0.297,1.494-0.892,4.039-1.226,4.51C32.467,35.535,32.32,36.203,32.294,36.348z M33.014,36.488c0-0.006,0.104-0.605,0.545-1.23
				c0.465-0.658,1.084-3.514,1.287-4.494h0.729c0.229,0.994,0.944,3.973,1.411,4.631c0.412,0.584,0.41,1.004,0.41,1.018
				c-0.002,0.042,0.004,0.083,0.016,0.122c0.115,0.388,0.063,0.513,0.066,0.516c-0.004,0.001-0.018,0.005-0.039,0.005
				c-0.029,0-0.051-0.004-0.049-0.004c-0.031-0.01-0.063-0.013-0.096-0.013h-0.743c-0.122,0-0.237,0.062-0.304,0.164
				c-0.094,0.084-0.5,0.233-1.042,0.349c-0.542-0.113-0.949-0.265-1.042-0.349c-0.066-0.104-0.182-0.164-0.305-0.164h-0.742
				c-0.028,0-0.063,0.005-0.09,0.011c0,0-0.024,0.006-0.055,0.006c-0.018,0-0.031-0.003-0.033,0c-0.01-0.023-0.049-0.156,0.061-0.52
				C33.006,36.521,33.01,36.505,33.014,36.488z"/>
			<path d="M40.143,39.449h-9.774c-0.134,0-0.257,0.072-0.32,0.188c-0.063,0.117-0.06,0.26,0.011,0.372
				c1.303,2.065,2.379,3.05,4.977,3.05c0.152,0,0.309-0.004,0.471-0.01c2.989-0.127,4.864-2.915,4.942-3.033
				c0.073-0.113,0.081-0.257,0.017-0.375C40.4,39.523,40.275,39.449,40.143,39.449z M38.279,41.219
				c-0.116-0.012-0.233-0.021-0.348-0.035H31.85c-0.274-0.277-0.535-0.61-0.806-1.004h8.345
				C39.123,40.48,38.747,40.861,38.279,41.219z"/>
			<path d="M31.463,31.826c0-0.141-0.029-0.271-0.083-0.393c0.272,0.063,0.495,0.139,0.585,0.199
				c0.126,0.084,0.297,0.051,0.381-0.076c0.084-0.125,0.051-0.296-0.076-0.381c-0.396-0.264-1.9-0.591-2.64-0.33
				c-0.655,0.23-1.737,0.875-1.782,0.9c-0.131,0.078-0.175,0.246-0.097,0.376c0.051,0.086,0.142,0.134,0.235,0.134
				c0.048,0,0.097-0.013,0.141-0.038c0.008-0.005,0.518-0.307,1.031-0.565c-0.018,0.057-0.028,0.113-0.028,0.173
				c0,0.174,0.05,0.335,0.128,0.478h2.075C31.414,32.162,31.463,32,31.463,31.826z"/>
			<path d="M37.755,31.176c-0.127,0.085-0.159,0.256-0.077,0.381c0.084,0.127,0.256,0.16,0.383,0.076
				c0.09-0.061,0.313-0.135,0.584-0.199c-0.053,0.121-0.082,0.252-0.082,0.393c0,0.174,0.049,0.152,0.129,0.294h2.074
				c0.08-0.144,0.129-0.121,0.129-0.294c0-0.084-0.021-0.166-0.058-0.243c0.599,0.208,1.241,0.431,1.241,0.431l0.179-0.519
				c0,0-1.226-0.425-1.862-0.647C39.654,30.585,38.15,30.912,37.755,31.176z"/>
			<path d="M29.66,54.212h-0.62C29.04,54.212,29.264,54.221,29.66,54.212z"/>
			<path d="M47.012,29.045c-0.316-0.326-0.742-0.468-1.267-0.421c-0.331,0.03-0.636,0.259-0.886,0.534l-0.016-3.447
				c0.905-3.406-0.867-6.895-1.629-8.174c0.064-0.271,0.119-0.57,0.159-0.903l-1.112,0.371c0,0,0.403-0.698-0.742-2.226
				l-1.359,1.113c0,0-0.463-1.547-3.711-2.598l-2.475-0.124c0,0-3.178-2.067-8.623,1.468l1.338,0.286c0,0-2.389,0.668-3.344,2.579
				l2.102,0.573l-0.008,0.563c-0.799,1.853-1.789,5.213-0.164,8.094l-0.01,2.647c-0.488-0.476-1.099-0.914-1.59-0.769
				c-1.822,0.539-1.267,2.826-0.898,4.342c0.113,0.47,0.222,0.915,0.222,1.156c0,0.824,0.291,1.976,0.929,2.559
				c0.268,0.246,0.58,0.373,0.909,0.373c0.038,0,0.078-0.002,0.117-0.006c0.153-0.014,0.282-0.046,0.396-0.088
				c0.1,0.91,0.269,2.193,0.512,3.14l-0.812,13.71c-0.007,0.104,0.03,0.202,0.099,0.276c0.069,0.073,0.166,0.114,0.268,0.114h4.896
				c-0.25,0.013-0.471,0.019-0.652,0.021h16.304l-0.915-6.588c-0.09,0.126-0.184,0.247-0.275,0.368L44.075,41.1l-0.011,0.012
				c0.021-0.037,0.041-0.074,0.061-0.11c0.422-0.795,0.615-2.772,0.697-4.044c0.107,0.037,0.229,0.066,0.371,0.08
				c0.041,0.004,0.08,0.006,0.121,0.006c0.352,0,0.693-0.145,0.998-0.421c0.67-0.608,1.02-1.726,1.02-2.511
				c0-0.196,0.043-0.532,0.093-0.922C47.604,31.805,47.843,29.909,47.012,29.045z M35.441,53.459h-9.637l0.76-11.768
				c3.043,5.312,6.287,6.168,6.429,6.203c0.039,0.01,0.079,0.014,0.118,0.01l2.103-0.18l1.981,0.18c0.011,0,0.021,0.003,0.031,0.003
				c0.03,0,0.061-0.005,0.09-0.013c0.131-0.031,2.906-0.767,5.727-5.061l0.602,6.41C41.27,51.557,38.174,52.795,35.441,53.459z
				 M46.701,33.098c-0.057,0.432-0.1,0.772-0.1,1.014c0,0.707-0.344,1.572-0.781,1.971c-0.186,0.168-0.372,0.244-0.557,0.227
				c-0.188-0.016-0.316-0.074-0.396-0.172c0.005-0.136,0.03-0.883-0.397-0.922c-0.201-0.018-0.39,0.096-0.425,0.294
				c-0.011,0.052-0.069,0.423,0.081,0.793c-0.064,1.28-0.257,3.619-0.648,4.356c-2.772,5.228-5.854,6.371-6.287,6.511
				c0,0-1.986-0.178-1.951-0.176l-2.065,0.176c-0.493-0.14-3.573-1.283-6.347-6.511c-0.393-0.739-0.684-3.063-0.809-4.354
				c0.151-0.373,0.094-0.746,0.084-0.797c-0.037-0.197-0.225-0.328-0.422-0.294c-0.172,0.03-0.271,0.151-0.348,0.302
				c-0.053,0.104-0.076,0.498-0.064,0.631c-0.08,0.092-0.203,0.146-0.383,0.16c-0.164,0.018-0.316-0.043-0.465-0.179
				c-0.447-0.409-0.689-1.345-0.689-2.019c0-0.328-0.112-0.793-0.244-1.33c-0.414-1.709-0.672-3.149,0.395-3.465
				c0.215-0.041,0.936,0.584,1.484,1.272c0.125,0.157,0.355,0.185,0.514,0.06c0.139-0.109,0.176-0.297,0.102-0.448h0.014l0.02-4.574
				l0.809-1.672l0.201-2.576c0.377,0.578,0.818,0.915,0.818,0.915c-0.055-0.672,0.168-1.289,0.477-1.803
				c0.22-0.049,0.451-0.094,0.693-0.133c-0.524,2.504,1.979,5.412,1.979,5.412c-0.615-2.053,0.17-4.182,0.833-5.476
				c0.848,0.135,1.677,0.442,2.385,1.033c0,0,4.059-1.734,6.445-1.353c0,0,0.785,0.199,1.525-0.447l0.715,4.345l1.221,2.175
				l0.018,4.154c0,0-0.021,0.435,0.206,0.49c0.196,0.049,0.4,0.013,0.488-0.17c0.258-0.533,0.728-1.144,0.983-1.166
				c0.396-0.037,0.574,0.097,0.674,0.199C47.074,30.165,46.84,32,46.701,33.098z"/>
			<path d="M33.158,29.813l0.29-1.572l-0.503,0.595l-0.412-0.549c-1.506,0.255-3.375,0.472-4.07,0.733l-1.402,0.609l-0.537,0.387
				l2-0.387L33.158,29.813z"/>
			<path d="M41.514,29.02c-0.695-0.262-2.563-0.479-4.07-0.733l-0.411,0.549l-0.503-0.595l0.289,1.572l4.636-0.184l2.178,0.752
				l-0.713-0.752L41.514,29.02z"/>
		</g>
	</g>
</g>
</svg>
