<?xml version="1.0" encoding="utf-8"?>
<!-- Generator: Adobe Illustrator 16.0.0, SVG Export Plug-In . SVG Version: 6.00 Build 0)  -->
<!DOCTYPE svg PUBLIC "-//W3C//DTD SVG 1.1 Basic//EN" "http://www.w3.org/Graphics/SVG/1.1/DTD/svg11-basic.dtd">
<svg version="1.1" baseProfile="basic" id="Слой_1"
	 xmlns="http://www.w3.org/2000/svg" xmlns:xlink="http://www.w3.org/1999/xlink" x="0px" y="0px" width="125px" height="125px"
	 viewBox="0 0 125 125" xml:space="preserve">
<g>
	<g>
		<g>
			<g>
				<g>
					<g>
						<g>
							<g>
								<g>
									<g>
										<g>
											<g>
												<circle fill="#FFFFFF" cx="62.686" cy="62.5" r="62.5"/>
											</g>
										</g>
									</g>
								</g>
							</g>
						</g>
					</g>
				</g>
			</g>
		</g>
	</g>
	<g>
		<g>
			<path fill="#020202" d="M57.255,69.678c1.549,2.581,5.42,2.839,11.101,3.097c5.679,0.259,6.454-1.806,6.454-1.806
				C65.516,73.292,57.255,69.678,57.255,69.678z"/>
			<path fill="#020202" d="M67.431,55.55l1.273-2.035l-10.94-1.909l-3.816,2.799c1.781-0.509,3.308-0.764,3.308-0.764L67.431,55.55z
				"/>
			<path fill="#020202" d="M83.586,37.869c-0.525-4.203-2.015-3.746-2.255-3.642v0c0.289-0.146,2.434-1.296,2.255-3.609
				c-0.19-2.48-5.533-5.724-12.021-8.396c-6.487-2.671-13.739-5.343-13.739-5.343l4.962,5.343l-13.548-0.573l1.717,4.008
				l-5.915-1.145l3.244,4.006l-8.014-0.763l8.396,4.389l-7.823,2.1l3.053,0.763c0,0-3.053,1.145-2.671,7.25
				c0.132,2.127,0.172,3.279,0.169,3.881c-1.954,0.46-3.916,1.815-4.926,3.506c-1.013,1.695-1.047,3.602-0.096,5.369l0.108,0.199
				c2.197,4.084,5.159,9.585,9.09,10.238v29.152c0,0.307,0.188,0.583,0.473,0.693c0.663,0.258,15.509,5.964,27.037,5.963
				c0.688,0,1.366-0.02,2.028-0.063c0.215-0.014,0.412-0.12,0.542-0.291c0.131-0.17,0.181-0.389,0.137-0.601l-1.584-7.699
				c2.412-0.938,4.704-2.23,5.81-3.965c0.1-0.157,0.135-0.346,0.104-0.528l-2.98-16.767l3.51-3.159
				c0.149-0.137,0.238-0.327,0.244-0.528l0.369-11.808l1.561-0.936c0.245-0.147,0.384-0.421,0.357-0.706l-0.632-6.844
				C83.129,45.07,83.977,40.984,83.586,37.869z M47.057,94.088V65.46c0.305-0.047,0.609-0.119,0.913-0.226l2.84,11.357
				c0.027,0.108,0.077,0.208,0.147,0.293l14.501,17.555c0.142,0.172,0.353,0.271,0.573,0.271c0.034,0,0.069-0.003,0.104-0.009
				c0.209-0.03,2.595-0.382,5.378-1.189l1.344,5.935C62.587,99.806,49.805,95.104,47.057,94.088z M80.15,54.785
				c-0.217,0.13-0.353,0.361-0.359,0.614l-0.742,11.607l-3.343,2.847c-0.19,0.173-0.146,1.094-0.102,1.346l2.702,16.855
				c-0.756,1.028-2.035,1.883-3.494,2.584l0.801-3.203l-4.18,1.207l2.324,2.464c-2.951,1.217-6.265,1.864-7.423,2.059L52.21,76.067
				l-3.013-12.049c-0.056-0.221-0.21-0.405-0.421-0.498c-0.21-0.093-0.452-0.084-0.652,0.025c-0.362,0.194-1.91,0.435-2.553,0.388
				c-3.18-0.231-5.783-5.713-7.782-9.426l-0.107-0.2c-0.888-1.65-0.456-3.033,0.063-3.901c0.99-1.657,3.204-2.954,5.04-2.954
				c0.453,0,0.844,0.081,1.162,0.24c2.199,1.101,3.206,6.832,3.409,8.947c0.038,0.396,1.885,0.883,1.885,0.883l-0.191-6.679
				l2.099-1.526l-1.717-3.435c0,0,0.19-7.441,4.96-8.968l14.692,2.671l10.218-3.983l1.449,15.653l-0.027-0.03l-9.513,2.664
				l-0.005-0.012l-1.347,0.631l5.64,12.028l-8.994-0.741l0.271-1.752l-1.468-0.225l-0.392,2.539
				c-0.031,0.204,0.023,0.411,0.151,0.572c0.127,0.162,0.317,0.264,0.521,0.281l11.066,0.911c0.021,0.002,0.041,0.002,0.062,0.002
				c0.241,0,0.471-0.117,0.609-0.317c0.151-0.218,0.175-0.501,0.063-0.74l-4.007-8.546c0.312,0.326,0.75,0.531,1.235,0.531
				c0.948,0,1.719-0.77,1.719-1.718s-0.771-1.718-1.719-1.718c-0.104,0-0.206,0.013-0.306,0.031
				c0.754-0.379,1.889-0.413,2.949,0.494c0.366,0.313,1.219,1.501,1.219,1.501l0.288-0.234c0,0-0.897-1.175-1.24-1.527
				c-0.012-0.012-0.037-0.034-0.05-0.042c-1.287-0.903-2.491-0.966-3.373-0.504c-0.73,0.383-1.144,1.124-1.379,1.788l-0.733-1.563
				l8.959-2.149l0.028,0.301L80.15,54.785z"/>
			<path fill="#020202" d="M63.747,58.286l0.371,0c0-0.024-0.027-2.433-2.416-3.23c-2.395-0.798-4.327,1.863-4.408,1.977
				l0.302,0.216c0.011-0.015,0.648-0.887,1.601-1.465c-0.225,0.3-0.361,0.667-0.361,1.071c0,0.988,0.802,1.791,1.791,1.791
				c0.99,0,1.792-0.803,1.792-1.791c0-0.558-0.259-1.048-0.655-1.376C63.712,56.244,63.747,58.2,63.747,58.286z"/>
			<path fill="#020202" d="M73.665,76.603l0.381-1.908c-1.145,0.19-8.205,3.434-8.205,3.434
				C72.52,75.84,73.665,76.603,73.665,76.603z"/>
		</g>
		<g>
			<polygon opacity="0.2" fill="#020202" points="80.813,33.669 68.896,38.406 69.886,54.594 76.717,67.381 70.381,66.883 
				70.877,71.836 74.498,91.894 79.698,88.458 76.355,71.557 80.15,67.636 80.813,55.398 82.67,53.727 			"/>
			<path opacity="0.2" fill="#020202" d="M68.771,93.627l-2.739,0.339L52.428,77.531l-1.61-3.839c0,0,3.466,23.526,16.962,23.154
				c0,0,6.562,0.496,6.438-3.838l-0.247-1.114L68.771,93.627z"/>
		</g>
	</g>
</g>
</svg>
