<?xml version="1.0" encoding="utf-8"?>
<!-- Generator: Adobe Illustrator 16.0.0, SVG Export Plug-In . SVG Version: 6.00 Build 0)  -->
<!DOCTYPE svg PUBLIC "-//W3C//DTD SVG 1.1 Basic//EN" "http://www.w3.org/Graphics/SVG/1.1/DTD/svg11-basic.dtd">
<svg version="1.1" baseProfile="basic" id="Слой_1"
	 xmlns="http://www.w3.org/2000/svg" xmlns:xlink="http://www.w3.org/1999/xlink" x="0px" y="0px" width="125px" height="125px"
	 viewBox="0 0 125 125" xml:space="preserve">
<g>
	<g>
		<g>
			<g>
				<g>
					<g>
						<circle fill="#FFFFFF" cx="62.721" cy="62.5" r="62.5"/>
					</g>
				</g>
			</g>
		</g>
	</g>
	<g>
		<path opacity="0.2" fill="#020202" d="M85.731,48.212c-0.223-0.218-0.515-0.315-0.822-0.27c-0.792,0.113-1.808,0.863-2.618,1.576
			l-0.035-3.459c0.111-0.79,0.983-7.767-3.681-13.202c-3.196-3.724-8.206-5.626-14.889-5.658v1.409l-0.069,54.758L57.898,82.4
			l-8.447-5.545c0,0,1.797,13.861,15.171,13.51c9.424-0.248,12.493-9.572,13.483-15.06c0.918-1.246,1.817-2.654,2.669-4.26
			c0.811-1.529,1.182-5.335,1.342-7.779c0.208,0.072,0.442,0.128,0.715,0.153c0.076,0.007,0.151,0.01,0.226,0.01
			c0.521,0,0.985-0.175,1.355-0.512c1.124-1.024,1.124-3.299,1.124-5.127c0-0.619,0.139-1.782,0.285-3.014
			C86.3,50.741,86.436,48.901,85.731,48.212z"/>
		<g>
			<path d="M57.529,47.146l-0.968,1.144l-0.792-1.056c-2.2,0.372-6.173,0.773-7.295,1.171c-1.795,0.636-1.295,1.205-1.295,1.205
				l9.821-0.528L57.529,47.146z"/>
			<path d="M77.405,48.405c-1.121-0.398-5.096-0.799-7.295-1.171l-0.792,1.056l-0.968-1.144l0.528,1.936L78.7,49.61
				C78.7,49.61,79.2,49.041,77.405,48.405z"/>
			<path d="M58.898,70.41c-1.373,0-1.977-1.165-1.977-1.165c0,2.02,1.647,1.942,1.647,1.942h5.283h0.109h4.229
				c0,0,1.646,0.077,1.646-1.942c0,0-0.604,1.165-1.977,1.165c-1.349,0-2.96-0.373-3.954-0.239
				C62.915,70.037,60.248,70.41,58.898,70.41z"/>
			<path d="M66.905,74.144h-7.081C62.563,77.5,66.905,74.144,66.905,74.144z"/>
			<path d="M70.45,59.255c-0.108-0.174-0.287-0.292-0.49-0.323l-1.151-0.177l-0.128-0.278c-1.089-2.366-1.808-3.896-2.43-4.711
				l1.716-3.748l-1.28-0.586l-1.906,4.165c-0.128,0.279-0.061,0.608,0.167,0.814c0.534,0.484,1.468,2.51,2.455,4.656l0.287,0.622
				c0.099,0.215,0.298,0.365,0.531,0.401l1.202,0.185c0.248,0.413,0.546,0.945,0.781,1.423c-1.504,0.005-4.168,0.257-5.909,1.802
				h-1.054c-1.698-1.517-4.141-1.788-5.56-1.801c0.252-0.513,0.57-1.069,0.792-1.44l0.871-0.174c0.22-0.044,0.406-0.191,0.5-0.396
				c0.474-1.023,0.85-1.958,1.183-2.782c0.459-1.136,0.892-2.209,1.207-2.495c0.21-0.19,0.286-0.489,0.191-0.757l-1.475-4.164
				l-1.327,0.47l1.339,3.782c-0.403,0.562-0.756,1.438-1.24,2.637c-0.291,0.72-0.617,1.527-1.007,2.395l-0.82,0.165
				c-0.19,0.038-0.355,0.152-0.459,0.317c-0.126,0.202-1.239,2.001-1.494,3.019c-0.055,0.224,0.002,0.461,0.154,0.634
				c0.152,0.174,0.378,0.261,0.609,0.236c0.038-0.005,3.792-0.409,5.757,1.558c0.132,0.132,0.312,0.206,0.499,0.206h1.613
				c0.187,0,0.365-0.074,0.497-0.206c1.961-1.961,6.074-1.562,6.116-1.558c0.228,0.022,0.454-0.064,0.604-0.239
				c0.15-0.173,0.208-0.409,0.151-0.632C71.69,61.257,70.576,59.458,70.45,59.255z"/>
			<path d="M85.731,48.212c-0.223-0.218-0.515-0.315-0.822-0.27c-0.792,0.113-1.808,0.863-2.618,1.576c0,0,0.133-7.129,0.156-9.488
				c0.146-14.548-12.792-14.691-18.282-15.763h-3.44C55.234,25.34,42.2,25.546,42.793,40.083l0.786,7.017l-0.027,2.697
				c-0.947-0.778-2.256-1.728-3.144-1.854c-0.311-0.045-0.612,0.059-0.826,0.284c-0.624,0.656-0.394,2.219,0.324,5.895
				c0.284,1.454,0.578,2.957,0.578,3.67c0,0.271-0.005,0.557-0.012,0.849c-0.035,1.69-0.071,3.438,0.861,4.308
				c0.244,0.228,0.657,0.482,1.282,0.482c0.071,0,0.144-0.003,0.22-0.01c0.294-0.026,0.544-0.09,0.762-0.171
				c0.203,1.863,0.559,4.54,1.078,6.382l-0.037-0.003L43.02,95.669c-0.011,0.193,0.058,0.384,0.19,0.526
				c0.133,0.141,0.319,0.221,0.513,0.221h38.716c0.199,0,0.389-0.084,0.522-0.231c0.133-0.147,0.198-0.345,0.178-0.543
				l-2.463-24.403l-0.009,0.001c0.035-0.066,0.071-0.128,0.106-0.193c0.811-1.529,1.182-5.335,1.342-7.779
				c0.208,0.072,0.442,0.128,0.715,0.153c0.076,0.007,0.151,0.01,0.226,0.01c0.521,0,0.985-0.175,1.355-0.512
				c1.124-1.024,1.124-3.299,1.124-5.127c0-0.619,0.139-1.782,0.285-3.014C86.3,50.741,86.436,48.901,85.731,48.212z M80.958,95.009
				H44.473l1.412-22.733c5.969,10.32,13.521,11.972,13.853,12.039c0.012,0.003,0.025,0.006,0.037,0.007l2.235,0.33
				c0.068,0.021,0.14,0.033,0.212,0.033c0.017,0,0.033-0.001,0.051-0.002l0.011-0.001l0.012,0.001
				c0.088,0.006,1.227-0.004,1.307-0.029l2.277-0.337c0.321-0.063,7.192-1.504,12.98-10.08L80.958,95.009z M84.423,54.611
				c-0.157,1.33-0.294,2.478-0.294,3.18c0,1.302,0,3.48-0.665,4.086c-0.086,0.08-0.221,0.168-0.504,0.141
				c-0.358-0.033-0.606-0.142-0.757-0.332c0.011-0.261,0.018-0.451,0.021-0.548c0.006-0.204,0.073-1.234-0.786-1.224
				c-0.391,0.004-1.605-0.054-1.364,2.091c-0.125,2.464-0.848,6.962-1.599,8.38c-1.637,3.083-3.38,5.425-5.038,7.201
				c0.684-3.682,0.281-7.892,0.281-7.892l-2.576-3.071c-2.208-0.736-7.362-1.072-7.362-1.072s3.129,1.809,5.338,1.624
				c2.208-0.184,3.865,3.625,3.865,3.625l-1.032,6.465H54.479l-1.037-6.582c0,0,1.657-3.691,3.865-3.508
				c2.209,0.185,6.394-1.624,6.394-1.624s-6.209,0.336-8.418,1.072l-2.577,2.955c0,0-0.534,5.684,0.678,9.642
				c-2.248-1.891-4.744-4.694-6.94-8.835c-0.755-1.422-1.377-9.808-1.394-9.905c-0.07-0.382-0.437-0.635-0.818-0.566
				c-0.329,0.059-0.988,0.195-0.832,1.257c0.013,0.094,0.022,0.28,0.046,0.536c-0.154,0.176-0.393,0.279-0.736,0.311
				c-0.283,0.029-0.375-0.062-0.415-0.101c-0.472-0.439-0.438-2.063-0.414-3.248c0.006-0.302,0.012-0.598,0.012-0.878
				c0-0.849-0.293-2.35-0.603-3.939c-0.262-1.342-0.674-3.453-0.67-4.375c0.834,0.396,2.216,1.511,3.081,2.317
				c0.285,0.266,0.73,0.25,0.995-0.034c0.205-0.22,0.253-0.787,0.253-0.787l0.049-4.953c0.001-0.048-0.004-0.097-0.013-0.144
				c-0.002-0.01-0.033-0.213-0.07-0.562l0.881-6.356c0,0-0.343-0.85-0.415-1.935c0.28-1.15,0.682-2.298,1.245-3.366
				c0.137-0.116,0.286-0.227,0.452-0.329c2.76-1.706,2.535,0.007,14.839-0.23c12.303,0.237,13.134-1.476,15.894,0.23
				c0.094,0.058,0.183,0.119,0.267,0.181c0.639,1.14,1.098,2.372,1.424,3.603c-0.085,1.042-0.408,1.846-0.408,1.846l1.046,7.529
				c-0.017,1.337-0.041,5.116,0.167,5.309c0.285,0.265,1.435,0.248,1.699-0.037c0.735-0.792,1.655-0.889,2.423-1.255
				C84.568,51.477,84.603,53.096,84.423,54.611z"/>
			<path d="M56.363,52.686l-0.064-1.055l-7.744,0.47l0.064,1.054l2.974-0.181c-0.053,0.137-0.089,0.279-0.089,0.43
				c0,0.78,0.76,1.413,1.698,1.413s1.698-0.633,1.698-1.413c0-0.224-0.068-0.432-0.179-0.62L56.363,52.686z"/>
			<path d="M69.791,52.686l1.307,0.079c-0.119,0.192-0.192,0.408-0.192,0.64c0,0.78,0.76,1.413,1.698,1.413
				c0.938,0,1.699-0.633,1.699-1.413c0-0.159-0.039-0.309-0.098-0.451l3.329,0.202l0.064-1.054l-7.743-0.47L69.791,52.686z"/>
		</g>
	</g>
</g>
</svg>
