<?xml version="1.0" encoding="utf-8"?>
<!-- Generator: Adobe Illustrator 16.0.0, SVG Export Plug-In . SVG Version: 6.00 Build 0)  -->
<!DOCTYPE svg PUBLIC "-//W3C//DTD SVG 1.1 Basic//EN" "http://www.w3.org/Graphics/SVG/1.1/DTD/svg11-basic.dtd">
<svg version="1.1" baseProfile="basic" id="Слой_1"
	 xmlns="http://www.w3.org/2000/svg" xmlns:xlink="http://www.w3.org/1999/xlink" x="0px" y="0px" width="125px" height="125px"
	 viewBox="0 0 125 125" xml:space="preserve">
<g>
	<g>
		<g>
			<g>
				<g>
					<g>
						<g>
							<g>
								<g>
									<g>
										<g>
											<g>
												<g>
													<g>
														<g>
															<g>
																<g>
																	<g>
																		<g>
																			<g>
																				<g>
																					<g>
																						<g>
																							<g>
																								<g>
																									<g>
																										<g>
																											<g>
																												<circle fill="#FFFFFF" cx="62.785" cy="62.5" r="62.5"/>
																											</g>
																										</g>
																									</g>
																								</g>
																							</g>
																						</g>
																					</g>
																				</g>
																			</g>
																		</g>
																	</g>
																</g>
															</g>
														</g>
													</g>
												</g>
											</g>
										</g>
									</g>
								</g>
							</g>
						</g>
					</g>
				</g>
			</g>
		</g>
	</g>
</g>
<g>
	<path opacity="0.2" d="M84.421,46.403c-0.514-0.867-1.229-1.363-2.067-1.433c-0.915-0.076-2.386,0.961-2.968,1.476
		c-0.001-0.181-0.902-5.568-0.902-5.568l-0.903-6.47l-0.903-2.859l-3.611-1.655H62.391v60.942l11.428,0.076l0.495-17.127
		c1.774-2.549,3.323-4.639,3.357-4.685c0.079-0.106,0.121-0.236,0.118-0.37l-0.146-5.667c0.398,0.108,0.88,0.162,1.451,0.162
		c0.754,0,1.397-0.272,1.913-0.811c1.244-1.297,1.306-3.806,1.3-4.471c0.335-0.672,1.842-3.708,2.554-5.309
		C85.506,51.185,85.454,48.146,84.421,46.403z"/>
	<g>
		<path d="M58.414,59.236c0.375-0.116,2.378-0.827,2.714-2.729c0.094-0.537,0.12-1.505,0.148-2.625
			c0.048-1.855,0.107-4.165,0.498-5.294l-1.137-0.394c-0.453,1.305-0.514,3.719-0.564,5.658c-0.026,1.027-0.051,1.997-0.13,2.446
			c-0.23,1.303-1.893,1.791-1.908,1.795c-0.034,0.01-0.067,0.022-0.099,0.038l-1.956,0.939c-0.209,0.101-0.342,0.312-0.342,0.543
			v1.705c0,0.195,0.093,0.377,0.251,0.49c0.158,0.113,0.36,0.143,0.545,0.081c0.022-0.008,2.323-0.751,3.382,0.36
			c0.758,0.795,1.634,1.197,2.513,1.197c0.697,0,1.395-0.254,2.036-0.766c0.694-0.555,2.828-0.759,4.032-0.759
			c0.01-0.001,0.021,0.001,0.03,0c0.16,0,0.313-0.064,0.426-0.176c0.112-0.113,0.176-0.267,0.176-0.427v-1.705
			c0-0.251-0.154-0.477-0.39-0.564l-2.113-0.79c-0.016-0.006-1.652-0.635-1.887-1.96c-0.081-0.456-0.069-1.475-0.058-2.554
			c0.022-2.02,0.048-4.308-0.4-5.6l-1.138,0.395c0.38,1.093,0.354,3.366,0.335,5.192c-0.014,1.236-0.024,2.211,0.075,2.776
			c0.357,2.025,2.568,2.849,2.656,2.881l1.716,0.642v0.699c-1.076,0.043-3.233,0.228-4.213,1.011
			c-1.229,0.983-2.269,0.367-2.926-0.322c-1.105-1.161-2.839-1.057-3.846-0.869v-0.558L58.414,59.236z"/>
		<path d="M84.421,46.403c-0.514-0.867-1.229-1.363-2.067-1.433c-0.869-0.072-1.578,0.24-2.146,0.712
			c0.227-2.068,0.24-5.219-0.221-10.02c-0.223-2.326-1.104-4.272-2.438-5.871c-0.927-2.622-3.59-5.064-10.323-7.272
			c-9.503-3.115-11.372,2.337-11.372,2.337l6.076,5.919l11.19,1.629c1.813,0.883,3.096,2.018,3.258,3.257
			c0.149,1.153,0,2.307,0,2.307l2.006,11.637c0,0,0.997,0.232,1.576-2.366c0.453-0.31,1.034-0.523,1.693-0.468
			c0.439,0.037,0.821,0.322,1.132,0.846c0.816,1.379,0.889,3.974,0.374,5.131c-0.788,1.772-2.579,5.357-2.597,5.393
			c-0.045,0.09-0.067,0.192-0.063,0.293c0.028,0.734,0.515,2.236-0.362,3.149c-0.284,0.295-0.625,0.438-1.043,0.438
			c-1.212,0-1.539-0.28-1.61-0.365c-0.163-0.197-1.035-0.269-1.273-0.18c-0.24,0.089-0.397,0.32-0.393,0.576l0.162,6.496
			c-1.002,1.356-7.367,10.038-8.521,13.179c-0.512,0.41-2.023,1.982-4.376,2.063l-0.229,0.008c-0.013,0-0.024,0-0.037,0.002
			c-0.054,0.005-0.192,0.013-0.533,0.009c-0.328,0.005-0.466-0.004-0.52-0.009c-0.012-0.002-0.024-0.002-0.036-0.002L61.5,83.79
			c-2.345-0.08-4.467-1.654-4.98-2.063c-0.656-1.786-2.998-5.364-5.08-8.367v-0.003h-0.002c-1.578-2.276-3.008-4.224-3.439-4.808
			l0.153-6.005c0.004-0.183-0.076-0.357-0.215-0.474c-0.14-0.116-0.326-0.164-0.504-0.128c-0.265,0.053-0.587,0.08-0.959,0.08
			c-0.418,0-0.76-0.144-1.043-0.438c-0.877-0.913-0.993-3.017-0.964-3.75c0.004-0.102-0.018-0.203-0.063-0.293
			c-0.018-0.036-1.809-3.621-2.597-5.393c-0.514-1.157-0.443-3.751,0.375-5.131c0.311-0.525,0.692-0.81,1.132-0.847
			c1.878-0.161,2.771,2.942,2.78,2.973v-0.001l0.989-0.829l0.177-4.35c0,0,0.075-2.257,0.427-5.693
			c0.759-7.428,8.202-7.207,13.518-7.478l-8.272-5.12c-3.037,1.151-5.465,2.899-6.651,5.174c-3.473,6.668-2.136,11.94-0.72,14.923
			c-0.578-0.516-1.347-0.882-2.348-0.8c-0.839,0.07-1.554,0.566-2.068,1.433c-1.033,1.743-1.083,4.782-0.438,6.233
			c0.711,1.601,2.219,4.637,2.553,5.309c-0.007,0.665,0.057,3.174,1.3,4.471c0.516,0.538,1.159,0.811,1.914,0.811
			c0.161,0,0.315-0.005,0.462-0.014l-0.144,5.519c-0.002,0.134,0.04,0.264,0.119,0.37c0.034,0.046,1.564,2.11,3.325,4.639v17.172
			c0,0.333,0.27,0.602,0.602,0.602H73.71c0.333,0,0.604-0.269,0.604-0.602V73.786c1.774-2.55,3.323-4.64,3.357-4.686
			c0.079-0.106,0.121-0.236,0.118-0.37l-0.146-5.667c0.398,0.108,0.88,0.162,1.451,0.162c0.754,0,1.397-0.272,1.913-0.811
			c1.244-1.297,1.306-3.806,1.3-4.471c0.335-0.672,1.842-3.708,2.554-5.309C85.506,51.185,85.454,48.146,84.421,46.403z
			 M72.765,90.31H51.44V75.49c1.804,2.66,3.558,5.439,3.995,6.78c0.034,0.104,0.096,0.196,0.177,0.268
			c0.109,0.096,2.73,2.349,5.848,2.455L61.672,85c0.11,0.009,0.263,0.014,0.457,0.014c0.049,0,0.102,0,0.155-0.001
			c0.281,0.004,0.486-0.001,0.624-0.013l0.213-0.007c3.117-0.106,5.738-2.359,5.848-2.455c0.082-0.071,0.144-0.164,0.178-0.268
			c0.434-1.333,1.775-3.534,3.568-6.181L72.765,90.31z"/>
		<path d="M56.33,67.982c0.612,1.166,2.622,5.067,2.705,5.237c0.682,1.396,1.384,2.835,3.139,2.835c0.185,0,0.381-0.016,0.59-0.049
			c2.102-0.338,2.945-2.008,4.111-4.319c0.102-0.2,1.202-2.249,1.451-2.617c0.212,0.096,0.438,0.153,0.678,0.153l0,0
			c0.044,0,0.089-0.003,0.134-0.006c1.276-0.114,3.164-1.461,3.418-2.736c0.055-0.271-0.085-0.546-0.336-0.663
			s-0.55-0.048-0.724,0.168c-0.468,0.582-1.463,1.563-2.138,1.718c-0.039,0.01-0.075,0.014-0.107,0.014
			c-0.271,0-0.594-0.445-0.969-0.961c-0.323-0.447-0.727-1.003-1.273-1.52c-0.41-0.388-0.969-0.585-1.66-0.585
			c-1.238,0-2.784,0.627-4.279,1.232c-0.745,0.302-1.449,0.587-2.086,0.786c-0.192,0.059-0.388,0.089-0.582,0.089l0,0
			c-1.77,0-3.203-2.418-3.217-2.441c-0.094-0.164-0.261-0.272-0.448-0.296c-0.187-0.021-0.375,0.045-0.506,0.18l-1.007,1.047
			c-0.114,0.118-0.175,0.278-0.167,0.442c0.006,0.165,0.08,0.319,0.204,0.428C53.335,66.186,54.684,67.354,56.33,67.982z
			 M66.282,70.2l-0.28-0.229c-0.159,1.072-1.883,1.027-2.487,0.938c-0.607-0.089-0.703-0.624-0.703-0.624
			c0,0.445-0.191,0.535-0.606,0.803c-0.414,0.268-1.627,0.581-2.168,0.536c-0.047-0.004-0.087-0.015-0.127-0.024l-0.774-0.842
			c-0.388-0.751-0.818-1.575-1.189-2.284c0.003-0.038,0.006-0.076,0.015-0.11c0.09,0.005,0.179,0.014,0.269,0.014
			c0.43,0,0.835-0.069,1.206-0.209c0.01-0.003,0.02-0.008,0.03-0.012c0.549-0.239,1.603-0.683,2.625-1.078
			c0.184,0.67,0.202,0.991,0.355,0.578c0.058-0.152,0.134-0.458,0.247-0.806c0.738-0.272,1.4-0.49,1.762-0.549
			c0.33-0.053,0.604-0.078,0.837-0.078c0.578,0,0.764,0.158,0.869,0.313c0.058,0.084,0.129,0.204,0.213,0.344
			c0.252,0.422,0.587,0.979,1.003,1.445C67.101,68.725,66.743,69.321,66.282,70.2z"/>
		<path d="M60.018,45.706l-0.602,0.828c0,0-0.308-0.359-0.57-0.54c-1.945-1.341-9.402-0.937-9.402-0.937L47.861,47.8
			c0.527-0.526,1.357-0.861,2.034-0.861s10.047,0.724,10.047,0.724L60.018,45.706z"/>
		<path d="M74.623,44.255c0,0-7.393-0.186-9.072,1.376c-0.312,0.289-0.376,1.053-0.376,1.053l-0.602-0.828l0.074,1.956
			c0,0,8.848-1.677,9.524-1.677c0.678,0,2.505,1.589,3.031,2.115L74.623,44.255z"/>
		<path d="M55.872,58.568c0,0-3.682,0.08-4.429,3.774C51.443,62.342,55.07,58.524,55.872,58.568z"/>
		<path d="M69.042,58.42c0,0,3.047,4.296,2.849,5.074C71.891,63.494,72.522,59.866,69.042,58.42z"/>
		<path d="M69.822,50.37c-0.134-0.028-0.911,0.002-1.125,0.084c-0.435,0.064-0.876,0.156-1.279,0.255
			c-0.883,0.219-1.577,0.46-1.577,0.46s1.893,0.594,1.913,0.624c0.071,0.694,0.781,1.24,1.648,1.24c0.913,0,1.654-0.606,1.654-1.354
			c0-0.012-0.002-0.022-0.002-0.034c0.792,0.008,2.667,0.121,3.215,0.143C74.27,51.787,71.406,50.438,69.822,50.37z"/>
		<path d="M54.801,53.033c0.704,0,1.305-0.362,1.543-0.869c0.18-0.166,0.056-0.404,0.131-0.526c1.083,0.032,2.103-0.468,2.103-0.468
			s-0.694-0.241-1.577-0.46c-0.513-0.126-1.088-0.241-1.63-0.301c-0.177-0.054-0.936-0.058-1.104-0.012
			c-1.636,0.199-4.224,1.316-4.224,1.316c0.502-0.021,2.208-0.06,3.104-0.068c0,0.012-0.001,0.022-0.001,0.034
			C53.146,52.427,53.886,53.033,54.801,53.033z"/>
		<path d="M50.363,57.326c1.265,0.728,2.44,1.091,3.63,1.091c1.082,0,2.176-0.3,3.359-0.897c0.816-0.412,1.143-1.407,0.731-2.223
			c-0.412-0.816-1.408-1.144-2.224-0.732c-1.293,0.653-2.242,0.815-3.846-0.108c-0.792-0.457-1.803-0.183-2.26,0.609
			C49.299,55.858,49.571,56.871,50.363,57.326z"/>
		<path d="M74.336,55.297c-0.413-0.816-1.408-1.144-2.224-0.732c-1.293,0.653-2.243,0.815-3.846-0.108
			c-0.792-0.457-1.805-0.183-2.26,0.609c-0.457,0.792-0.185,1.805,0.608,2.26c1.265,0.728,2.44,1.091,3.631,1.091
			c1.081,0,2.175-0.3,3.357-0.897C74.42,57.108,74.747,56.113,74.336,55.297z"/>
	</g>
</g>
</svg>
