<?xml version="1.0" encoding="utf-8"?>
<!-- Generator: Adobe Illustrator 16.0.0, SVG Export Plug-In . SVG Version: 6.00 Build 0)  -->
<!DOCTYPE svg PUBLIC "-//W3C//DTD SVG 1.1 Basic//EN" "http://www.w3.org/Graphics/SVG/1.1/DTD/svg11-basic.dtd">
<svg version="1.1" baseProfile="basic" id="Слой_1"
	 xmlns="http://www.w3.org/2000/svg" xmlns:xlink="http://www.w3.org/1999/xlink" x="0px" y="0px" width="70px" height="70px"
	 viewBox="0 0 70 70" xml:space="preserve">
<g>
	<g>
		<g>
			<g>
				<g>
					<g>
						<g>
							<g>
								<g>
									<g>
										<circle fill="#FFFFFF" cx="35" cy="35" r="35"/>
									</g>
								</g>
							</g>
						</g>
					</g>
				</g>
			</g>
		</g>
	</g>
	<g>
		<g>
			<polygon opacity="0.2" fill="#020202" points="44.827,18.588 38.774,19.156 40.192,30.881 42.653,37.499 40.101,37.688 
				40.079,39.428 41.922,49.641 44.569,47.891 42.868,39.285 44.801,37.289 45.138,31.061 46.083,30.208 			"/>
			<path opacity="0.2" fill="#020202" d="M39.007,50.521l-1.395,0.172l-6.926-8.366l-0.819-1.953c0,0,1.765,11.978,8.636,11.787
				c0,0,3.34,0.253,3.275-1.955l-0.125-0.565L39.007,50.521z"/>
		</g>
		<g>
			<path fill="#020202" d="M31.46,30.555c0.906-0.26,1.684-0.39,1.684-0.39l5.181,0.971l0.647-1.036l-5.57-0.972L31.46,30.555z"/>
			<path fill="#020202" d="M35.351,39.991c0.953,0.213,2.168,0.278,3.614,0.344c2.892,0.131,3.115-1.349,3.115-1.349
				c-4.731,1.183-8.937-0.657-8.937-0.657C33.539,38.986,34.397,39.775,35.351,39.991z"/>
			<path fill="#020202" d="M34.043,32.084c0,0.607,0.493,1.102,1.101,1.102c0.608,0,1.102-0.492,1.102-1.102
				c0-0.027-0.002-0.052-0.004-0.079c0.182,0.263,0.229,0.517,0.232,0.536l0.561-0.091c-0.076-0.468-0.516-1.4-1.635-1.583
				c-1.271-0.206-2.717,0.322-2.778,0.346l0.198,0.532c0.009-0.003,0.671-0.244,1.449-0.328
				C34.128,31.604,34.043,31.833,34.043,32.084z"/>
			<path fill="#020202" d="M41.858,41.962l0.384-1.185c-0.741,0.037-5.466,1.582-5.466,1.582
				C41.187,41.393,41.858,41.962,41.858,41.962z"/>
			<path fill="#020202" d="M46.528,25.964c2.082-6.366-0.397-8.106-2.205-10.149c-1.594-1.797-6.557-2.899-7.689-1.26
				c-0.115,0.166-0.197,0.344-0.246,0.526c-1.211-1.114-2.943-1.599-5.427-0.653c-7.887,3.006-6.873,9.559-6.562,12.143
				c-0.752,0.332-1.438,0.894-1.836,1.56c-0.515,0.863-0.532,1.833-0.049,2.733l0.055,0.102c0.52,0.965,1.121,2.082,1.818,3.039
				c-0.103,1.887-0.705,10.148-3.387,9.926c0,0,3.614,3.37,6.249,1.283l-0.053,5.807c0,0.156,0.096,0.295,0.241,0.353
				c0.338,0.131,7.896,3.036,13.765,3.036c0.351,0,0.694-0.01,1.032-0.031c0.109-0.008,0.211-0.061,0.275-0.148
				c0.066-0.088,0.092-0.197,0.069-0.307l-0.806-3.919c1.227-0.478,2.396-1.135,2.957-2.019c0.051-0.08,0.068-0.176,0.054-0.27
				l-1.519-8.535l1.787-1.607c0.076-0.069,0.121-0.166,0.125-0.271l0.188-6.01l0.794-0.478c0.125-0.073,0.196-0.213,0.182-0.358
				l-0.006-0.164l0.019,0.005l-0.019-0.02l-0.112-3.569C46.354,26.411,46.472,26.141,46.528,25.964z M41.087,53.484
				c-5.229,0.184-11.734-2.211-13.134-2.729l-0.05-14.568c0.172-0.022,0.344-0.062,0.514-0.121l1.445,5.781
				c0.014,0.057,0.041,0.106,0.076,0.149l7.383,8.938c0.072,0.086,0.179,0.137,0.291,0.137c0.018,0,0.035-0.002,0.055-0.004
				c0.105-0.016,1.32-0.194,2.736-0.606L41.087,53.484z M44.801,30.748c-0.11,0.066-0.18,0.184-0.184,0.313l-0.005,0.07
				c-0.377-0.268-0.914-0.465-1.581-0.316c-0.146,0.033-0.294,0.078-0.437,0.129c-0.109,0.024-0.215,0.066-0.311,0.123
				c-0.588,0.259-1.098,0.615-1.402,0.853l-0.297-0.762l4.633-1.111l0.004,0.156L44.801,30.748z M45.093,28.936l-5.542,1.647
				l2.554,6.548l-3.936,0.074l0.398-1.194l-0.719-0.239l-0.566,1.703c-0.038,0.115-0.02,0.243,0.054,0.342
				c0.072,0.099,0.187,0.154,0.306,0.154c0.004,0,0.006,0,0.008,0l5.012-0.094c0.123-0.004,0.238-0.066,0.307-0.168
				c0.069-0.104,0.083-0.232,0.038-0.35l-1.905-4.891c0.135-0.109,0.36-0.283,0.643-0.466c0,0.003-0.001,0.007-0.001,0.011
				c0,0.606,0.493,1.101,1.103,1.101c0.608,0,1.102-0.493,1.102-1.101c0-0.25-0.083-0.479-0.225-0.664
				c0.436,0.075,0.717,0.346,0.848,0.504l-0.327,5.114l-1.702,1.449c-0.098,0.087-0.074,0.556-0.051,0.685l1.375,8.582
				c-1.219,1.659-5.129,2.438-6.096,2.603l-7.189-8.703l-1.534-6.134c-0.028-0.113-0.106-0.207-0.214-0.254
				s-0.229-0.043-0.332,0.012c-0.309,0.167-0.604,0.247-0.904,0.247c-1.748,0-3.256-2.802-4.357-4.849l-0.055-0.103
				c-0.453-0.84-0.231-1.544,0.032-1.985c0.502-0.843,1.644-1.682,2.56-1.504c0.408,0.079,0.846,0.318,1.166,0.658
				c0.879,0.934,1.084,3.143,1.168,4.018c0.02,0.203,0.191,0.354,0.397,0.342c0.204-0.012,0.361-0.182,0.356-0.385l-0.098-5.275
				c0.381-1.854,1.051-4.105,2.45-5.389c1.14-1.043,3.53-2.27,6.179,0.252c0.455,0.433,1.777,1.773,1.777,1.773
				s-0.029-1.283-0.361-2.884c0.674,1.202,0.916,2.907,0.916,2.907s-0.063-0.662,0.818-2.301c1.381-2.563,2.27-1.891,3.656-0.629
				c0.331,0.299,0.581,0.763,0.771,1.316L45.093,28.936z"/>
			<path fill="#020202" d="M32.116,36.938c-0.827,0.963,0.424,2.701,0.424,2.701C32.037,38.605,32.116,36.938,32.116,36.938z"/>
		</g>
	</g>
</g>
</svg>
