<?xml version="1.0" encoding="utf-8"?>
<!-- Generator: Adobe Illustrator 16.0.0, SVG Export Plug-In . SVG Version: 6.00 Build 0)  -->
<!DOCTYPE svg PUBLIC "-//W3C//DTD SVG 1.1 Basic//EN" "http://www.w3.org/Graphics/SVG/1.1/DTD/svg11-basic.dtd">
<svg version="1.1" baseProfile="basic" id="Слой_1"
	 xmlns="http://www.w3.org/2000/svg" xmlns:xlink="http://www.w3.org/1999/xlink" x="0px" y="0px" width="125px" height="125px"
	 viewBox="0 0 125 125" xml:space="preserve">
<g>
	<g>
		<g>
			<g>
				<g>
					<g>
						<g>
							<g>
								<g>
									<g>
										<g>
											<g>
												<g>
													<g>
														<g>
															<g>
																<g>
																	<g>
																		<g>
																			<circle fill="#FFFFFF" cx="62.5" cy="62.5" r="62.5"/>
																		</g>
																	</g>
																</g>
															</g>
														</g>
													</g>
												</g>
											</g>
										</g>
									</g>
								</g>
							</g>
						</g>
					</g>
				</g>
			</g>
		</g>
	</g>
	<g>
		<g>
			<path d="M80.564,72.97c-0.021,0.004-2.328,0.335-5.371,0.521c-2.436,0.146-8.553-1.019-10.818-1.473
				c0.357-0.287,0.699-0.563,1.006-0.81l9.738,0.855l-0.236-2.61l-8.195,0.711l-3.023,0.416l-3.028,4.629
				c0.145-0.217,1.167-1.086,2.331-2.043c2.57,2.962,5.818,5.935,10.441,5.935c0.342,0,0.691-0.017,1.039-0.05
				c5.482-0.529,6.848-4.987,6.904-5.176c0.068-0.234,0.014-0.484-0.146-0.667C81.047,73.024,80.807,72.937,80.564,72.97z
				 M78.193,76.062c-0.043-0.003-0.082-0.004-0.123-0.006l-9.898-0.032c-1.025-0.669-1.961-1.487-2.818-2.361
				c2.832,0.544,7.717,1.387,9.926,1.249c1.736-0.104,3.215-0.255,4.199-0.369C79.201,75.004,78.783,75.552,78.193,76.062z"/>
			<path d="M84.465,63.058l-2.641-8.098l-0.412-17.564c-2.451-14.662-16.047-13.087-19.887-12.337
				c-1.894,0.026-4.202,0.127-6.583,0.511c-4.254-3.5-12.036-7.397-18.985,2.632c-2.626,3.79-1.122,7.399,0,13.87
				c0,0,2.145-4.77,5.365-6.175C39.334,42.708,40.855,50.158,41,50.029c-1.969,3.549,0.652,12.11,0.97,13.107
				c0.008,0.025,0.017,0.049,0.027,0.073c1.544,3.5,3.906,4.637,5.695,4.956v21.23c0,0.228,0.107,0.438,0.289,0.573
				c0.586,0.433,14.177,10.365,24.888,10.364c0.246,0,0.492-0.004,0.736-0.015c0.391-0.019,0.695-0.348,0.682-0.739l-0.338-8.779
				c0.555,0.084,1.104,0.127,1.639,0.127c4.068-0.001,6.262-2.375,6.354-2.476c0.102-0.114,0.166-0.258,0.18-0.41l2.375-24.696
				C84.506,63.248,84.494,63.149,84.465,63.058z M49.118,89.032V68.275c0.312-0.008,0.593-0.034,0.825-0.066l1.45,6.444
				c0.014,0.062,0.036,0.122,0.065,0.178C57.909,87.015,67.9,89.854,71.799,90.508l0.324,8.402
				C62.711,98.887,51.149,90.472,49.118,89.032z M80.422,87.125l-3.998-3.427l-2.137,0.237l-4.631,4.631
				c-4.436-1.26-11.792-4.74-16.894-14.32l-1.581-7.03c-0.043-0.192-0.167-0.357-0.337-0.458c-0.171-0.1-0.377-0.123-0.566-0.067
				c-0.006,0.003-0.543,0.162-1.33,0.162c-1.72,0-4.091-0.728-5.63-4.184c-0.835-2.65-2.599-9.891-0.931-12.169
				c0.313-0.431,0.731-0.63,1.314-0.63c0.682,0,1.877,0.295,3.844,1.559c1.365,1.365,2.286,2.828,2.286,2.828
				c-0.237-3.799,2.374-7.361,2.374-7.361c-4.749-7.361-0.235-9.023-0.235-9.023c2.612-2.136,5.809-2.025,8.073-2.136
				c5.082-0.252,9.197,3.132,10.047,3.887c0.414,0.606,1.115,1.139,2.301,1.337c1.971,0.329,4.744-0.961,6.693-2.079l0.482,12.875
				l-1.477-1.478l-4.453,1.069l0.535,2.315l4.275-2.493l1.125,0.704l0.121,3.241c0.004,0.066,0.014,0.132,0.035,0.194l2.98,8.051
				L80.422,87.125z"/>
			<path d="M76.439,57.063c0.125,0.047,0.26,0.077,0.402,0.077c0.643,0,1.164-0.521,1.164-1.164c0-0.194-0.053-0.374-0.137-0.535
				h1.289c0.195,0,0.355-0.159,0.355-0.355c0-0.197-0.16-0.357-0.355-0.357h-4.596c-1.223-1.483-2.258-2.679-2.348-2.782
				c-0.256-0.298-0.707-0.33-1.004-0.072c-0.297,0.257-0.328,0.707-0.072,1.004c0.047,0.054,4.609,5.326,5.986,7.565
				c1.135,1.843,2.877,5.599,3.482,6.923c-0.43,0.281-1.365,0.667-3.051,0.381l-7.682-2.671l-0.113-2.754
				c0.838,0.332,1.9,0.872,2.414,1.558c0.236,0.315,0.684,0.38,0.998,0.144s0.379-0.683,0.143-0.998
				c-1.203-1.604-4.008-2.366-4.127-2.397c-0.219-0.059-0.453-0.01-0.629,0.132c-0.176,0.142-0.275,0.359-0.266,0.585l0.178,4.274
				c0.012,0.292,0.201,0.547,0.477,0.643l8.193,2.851c0.037,0.012,0.072,0.021,0.109,0.028c0.516,0.091,0.98,0.13,1.404,0.13
				c2.383,0,3.34-1.232,3.385-1.295c0.156-0.207,0.188-0.482,0.082-0.718c-0.096-0.213-2.352-5.235-3.783-7.562
				C77.912,59.005,77.215,58.057,76.439,57.063z M75.814,55.442c-0.084,0.161-0.135,0.341-0.135,0.535
				c0,0.049,0.008,0.096,0.014,0.143c-0.184-0.227-0.365-0.453-0.547-0.678H75.814z"/>
			<polygon points="69.006,55.977 69.896,51.881 68.115,53.306 67.938,51.703 62.416,50.277 56.005,52.059 62.416,52.059 			"/>
			<path d="M62.238,56.808c0,0.802,0.652,1.453,1.455,1.453s1.453-0.651,1.453-1.453c0-0.492-0.244-0.924-0.617-1.188h2.34
				c0.195,0,0.355-0.159,0.355-0.356s-0.158-0.356-0.355-0.356h-7.48c-0.196,0-0.356,0.159-0.356,0.356s0.16,0.356,0.356,0.356h3.47
				C62.484,55.884,62.238,56.316,62.238,56.808z"/>
			<polygon points="80.225,71.115 76.545,69.451 76.781,72.063 80.699,72.303 			"/>
			<path d="M74.287,82.511l2.137-0.474l0.713-1.9c-0.713,0-6.648,0.237-6.648,0.237L74.287,82.511z"/>
		</g>
		<g>
			<polygon opacity="0.2" fill="#020202" points="81.115,55.086 80.463,46.657 80.344,36.209 71.559,38.702 70.252,53.78 
				74.172,59.123 78.801,67.789 75.477,67.909 76.307,74.438 80.344,74.557 77.852,77.406 74.053,78.831 76.545,90.348 
				81.531,87.616 83.787,63.278 			"/>
			<path opacity="0.2" fill="#020202" d="M62.061,86.31l-7.005-6.647c0,0,1.781,15.196,7.955,17.69c0,0,6.887,2.492,8.43,2.374
				s2.135-0.118,2.135-0.118l0.002-8.785l-5.104-1.9L62.061,86.31z"/>
		</g>
	</g>
</g>
</svg>
